<?xml version="1.0" encoding="utf-8"?>
<!-- Generator: Adobe Illustrator 24.0.2, SVG Export Plug-In . SVG Version: 6.00 Build 0)  -->
<svg version="1.1" id="Capa_1" xmlns="http://www.w3.org/2000/svg" xmlns:xlink="http://www.w3.org/1999/xlink" x="0px" y="0px"
	 width="64px" height="64px" viewBox="0 0 64 64" style="enable-background:new 0 0 64 64;" xml:space="preserve">
<style type="text/css">
	.st0{fill:#001959;}
	.st1{opacity:0.89;}
	.st2{fill:#E0C434;}
</style>
<g>
	<path class="st0" d="M13.4622,43.0979c-0.7201-0.6932-1.3531-1.2901-1.9721-1.9011c-1.5351-1.5152-2.1147-3.3318-1.5227-5.4176
		c0.5917-2.0849,2.0344-3.3285,4.139-3.8134c0.0618-0.0142,0.1245-0.0253,0.1855-0.0422c0.0142-0.0039,0.0234-0.026,0.0876-0.1027
		c-0.984-0.9799-1.9734-1.9665-2.9644-2.9514c-0.8715-0.8661-1.4388-1.89-1.5989-3.1175c-0.3288-2.5203,0.9548-4.756,3.2901-5.7473
		c0.1329-0.0564,0.2654-0.1137,0.4576-0.1961c-0.1946-0.2046-0.3473-0.3717-0.5068-0.5319
		c-1.7114-1.7186-3.4785-3.3857-5.1238-5.1654C5.1958,11.15,6.5965,6.4003,10.4831,5.3467c1.9956-0.541,3.7323,0.0214,5.347,1.4963
		c0-0.433-0.0082-0.7578,0.0015-1.0821c0.0304-1.0179-0.0461-2.0556,0.1289-3.0486c0.2622-1.4887,1.5917-2.4934,3.1044-2.5445
		c0.2126-0.0072,0.4255-0.0033,0.6383-0.0033c9.8522-0.0001,19.7044-0.0002,29.5566-0.0001c2.5913,0,3.8586,1.2773,3.8587,3.8887
		c0.0002,6.0631,0.0001,12.1262,0.0001,18.1893c0,0.2279,0,0.4558,0,0.8224c1.1131-0.9928,2.2684-1.6977,3.6044-2.0018
		c0.9887-0.2251,2.0037-0.3726,3.015-0.4503c1.0691-0.0821,1.5518,0.4417,1.5522,1.5347
		c0.0023,7.6586,0.0012,15.3173,0.0013,22.9759c0,5.7014,0.0001,11.4029-0.0005,17.1043c0,0.2126,0.0121,0.4277-0.0148,0.6374
		c-0.0836,0.6514-0.625,1.1286-1.2604,1.1294c-0.6359,0.0008-1.1809-0.4759-1.2625-1.1262
		c-0.029-0.2307-0.0152-0.4673-0.0152-0.7012c-0.0005-12.7006-0.0005-25.4012-0.0005-38.1017c0-0.2524,0-0.5048,0-0.7543
		c-2.0705-0.1066-4.3694,1.4872-5.0881,3.6281c-0.306,0.9116-0.4851,1.9061-0.5029,2.8669
		c-0.0613,3.3176-0.0463,6.6372-0.0134,9.9556c0.0081,0.8113-0.2706,1.3574-0.9204,1.8234
		c-1.4343,1.0284-2.825,2.1172-4.2466,3.1637c-2.0304,1.4947-3.0338,3.4872-3.0241,6.012
		c0.0148,3.8718,0.0051,7.7437,0.0032,11.6156c-0.0006,1.1762-0.4439,1.6219-1.6155,1.6221
		C35.3499,64,27.3702,64.0011,19.3906,63.9981c-2.1673-0.0008-3.5486-1.3858-3.5617-3.5448
		c-0.0054-0.8911,0.2093-1.8777-0.1044-2.646c-0.3047-0.7462-1.1553-1.2711-1.7709-1.8885
		c-1.1567-1.1602-2.3131-2.3207-3.4763-3.4744c-1.551-1.5384-2.1365-3.3716-1.5193-5.4767c0.609-2.0769,2.0622-3.3126,4.1744-3.7745
		C13.1916,43.1802,13.2492,43.1597,13.4622,43.0979z M50.5645,9.9096c-10.7689,0-21.4582,0-32.1796,0
		c0,3.5549-0.0011,7.0631,0.0046,10.5712c0.0002,0.1177,0.0321,0.2711,0.1092,0.3474c0.8369,0.828,1.6858,1.6438,2.5626,2.4931
		c1.9711-6.9013,8.1489-10.4937,14.0164-10.115c5.863,0.3784,10.8647,4.5553,12.2687,10.2459
		c1.406,5.699-1.0499,11.6501-5.993,14.7651c-4.7084,2.9671-12.5232,3.1228-17.6103-2.8336
		c-0.6944,0.2517-1.3803,0.5003-2.1011,0.7616c0.1419,0.1533,0.2786,0.3105,0.4252,0.458c0.9003,0.9051,1.8257,1.7865,2.7005,2.7155
		c2.8275,3.0027,1.4345,7.8217-2.5538,8.8801c-0.1883,0.05-0.374,0.11-0.7625,0.2249c0.9023,0.847,1.7221,1.5601,2.4676,2.3438
		c0.3033,0.3188,0.56,0.4817,1.0117,0.4803c5.5965-0.0168,11.1931-0.0107,16.7897-0.0121c0.2064,0,0.4127-0.0171,0.6018-0.0254
		c0.0312-0.081,0.0564-0.1182,0.0584-0.1566c0.0078-0.1485,0.0097-0.2974,0.0111-0.4462c0.031-3.2349,1.3331-5.835,3.9079-7.7924
		c1.2529-0.9525,2.5077-1.9033,3.7836-2.8244c0.3699-0.267,0.4923-0.5534,0.4916-1.0038
		c-0.0134-9.4673-0.0101-18.9345-0.0101-28.4018C50.5645,10.3748,50.5645,10.1644,50.5645,9.9096z M34.2371,15.7357
		c-5.3468-0.0022-9.9017,3.8163-10.8473,9.0788c-0.0941,0.5238-0.0345,0.937,0.4157,1.2887
		c0.3492,0.2728,0.6524,0.6106,0.949,0.9435c1.5667,1.7586,1.9165,3.7443,1.0033,5.911c-0.1725,0.4092-0.1266,0.6413,0.1458,0.9393
		c2.6211,2.8671,5.8524,4.1697,9.7213,3.6921c5.7925-0.715,9.9472-5.8187,9.5614-11.668
		C44.8112,20.2318,39.9804,15.738,34.2371,15.7357z M50.5645,7.298c0-1.1339,0.0003-2.213-0.0001-3.2921
		c-0.0004-1.1199-0.1678-1.288-1.2855-1.288c-9.8701-0.0002-19.7401-0.0001-29.6102-0.0001c-0.1276,0-0.2554-0.0041-0.3829,0.0011
		c-0.6215,0.0257-0.8877,0.2805-0.8981,0.904c-0.0135,0.8079-0.0035,1.6162-0.0036,2.4243c-0.0001,0.414,0,0.8279,0,1.2507
		C29.1463,7.298,39.8021,7.298,50.5645,7.298z M18.4094,59.4633c-0.0085,0.1711-0.0228,0.339-0.0244,0.5069
		c-0.0131,1.3739,0.0896,1.4756,1.4794,1.4756c7.2528,0,14.5055,0,21.7583,0c0.2455,0,0.4911,0,0.7366,0c0-2.5914,0-5.092,0-7.6178
		c-5.7189,0-11.4055,0-17.0929,0C25.3621,57.4149,22.4488,60.2692,18.4094,59.4633z M14.9987,22.1734
		c-0.9942-0.0039-2.0062,0.6523-2.4557,1.6717c-0.4751,1.0772-0.2586,2.264,0.6344,3.1676
		c1.8674,1.8896,3.7419,3.7724,5.6367,5.6344c1.2519,1.2302,2.8676,1.2457,4.0346,0.0899c1.1663-1.1552,1.1714-2.7887-0.049-4.0337
		c-1.8894-1.9274-3.8122-3.8222-5.7228-5.7287C16.5377,22.4364,15.871,22.2001,14.9987,22.1734z M15.0824,34.4323
		c-1.1497,0.0398-2.0296,0.5793-2.5337,1.6666c-0.4947,1.0671-0.2664,2.2636,0.6256,3.1666c1.8669,1.89,3.7427,3.7716,5.6362,5.6349
		c1.2505,1.2306,2.8648,1.2502,4.0349,0.096c1.1676-1.1517,1.1749-2.7921-0.0425-4.0337c-1.8896-1.9272-3.8123-3.8221-5.7228-5.7289
		C16.5413,34.696,15.8757,34.457,15.0824,34.4323z M14.0573,45.6675c-1.1277,0.0329-2.0116,0.5653-2.523,1.6496
		c-0.4934,1.0462-0.2898,2.2566,0.5632,3.1226c1.894,1.923,3.7996,3.835,5.7262,5.7253c1.2227,1.1997,2.8278,1.2083,3.9876,0.0796
		c1.1749-1.1435,1.1948-2.7943-0.0175-4.0334c-1.8875-1.9292-3.8121-3.8222-5.7216-5.73
		C15.5338,45.9433,14.8731,45.6952,14.0573,45.6675z M15.8294,18.351c0-2.5931,0.0032-5.0974-0.0079-7.6017
		c-0.0007-0.1504-0.0782-0.3368-0.1834-0.4446C15,9.6513,14.372,8.9833,13.6867,8.3816c-1.1171-0.9809-2.7379-0.8847-3.8099,0.1743
		c-1.021,1.0087-1.15,2.6927-0.1315,3.7496C11.7026,14.3365,13.7431,16.2875,15.8294,18.351z"/>
	<path class="st0" d="M35.5192,19.2537c0.5483,0.0631,1.0627,0.0696,1.5499,0.1883c1.4479,0.3528,2.436,1.6677,2.4091,3.1374
		c-0.0135,0.7378-0.4472,1.2594-1.108,1.3327c-0.7006,0.0777-1.2636-0.3554-1.4146-1.0882
		c-0.1893-0.9184-0.2317-0.9542-1.1606-0.9554c-0.8725-0.0011-1.7452-0.0104-2.6175,0.0028
		c-1.1135,0.0168-1.9074,0.787-1.8909,1.8118c0.0162,0.9984,0.7995,1.7279,1.883,1.7601c0.955,0.0284,1.9281-0.0439,2.8611,0.1159
		c2.0718,0.3549,3.5299,2.1623,3.5496,4.2332c0.0202,2.113-1.4119,3.896-3.4977,4.3561c-0.1835,0.0405-0.3656,0.0873-0.54,0.1291
		c-0.1605,1.5166-0.5064,2.0284-1.3471,2.0125c-0.8192-0.0155-1.1367-0.4955-1.3089-2.0398c-0.3033,0-0.6162,0.0081-0.9285-0.0013
		c-1.7543-0.053-3.1412-1.4335-3.1998-3.1803c-0.0284-0.8475,0.4717-1.4714,1.2166-1.5177c0.7168-0.0445,1.243,0.4633,1.327,1.3197
		c0.0555,0.5659,0.3272,0.8391,0.9064,0.8314c0.9787-0.013,1.9581,0.0119,2.9366-0.0085c1.0848-0.0226,1.8822-0.824,1.8798-1.8502
		c-0.0024-1.0271-0.8003-1.8144-1.8871-1.8442c-0.8928-0.0244-1.7984,0.0583-2.6767-0.0629
		c-2.15-0.2967-3.7008-2.0957-3.7296-4.2049c-0.0291-2.137,1.4324-3.91,3.5782-4.3392c0.1867-0.0373,0.3748-0.0674,0.3919-0.0704
		c0.2714-0.6521,0.4547-1.2435,0.7649-1.7585c0.1137-0.1887,0.5278-0.2712,0.8055-0.2725
		C35.0968,17.2872,35.4445,17.8548,35.5192,19.2537z"/>
	<path class="st0" d="M34.5161,58.8923c-1.0214,0-2.0428,0.0067-3.0641-0.0021c-0.8609-0.0074-1.4442-0.5392-1.4354-1.2866
		c0.0086-0.7224,0.5789-1.256,1.3996-1.2603c2.0852-0.0109,4.1706-0.0109,6.2558-0.0001c0.8321,0.0043,1.388,0.5238,1.3977,1.2568
		c0.0101,0.7601-0.5569,1.2825-1.4258,1.2902C36.6014,58.8993,35.5587,58.8923,34.5161,58.8923z"/>
</g>
<g class="st1">
	<path class="st2" d="M60.6414,19.1536c-0.344-0.4586-0.344-1.0319,0-1.4905l1.4905-1.6051c0.344-0.344,0.344-0.9172,0.1147-1.3758
		l-2.293-4.0128c-0.2293-0.4586-0.6879-0.6879-1.2612-0.5733l-2.1784,0.4586c-0.5733,0.1147-1.1465-0.2293-1.2612-0.8026
		l-0.6879-2.0637c-0.2293-0.4586-0.6879-0.8026-1.1465-0.8026h-4.5861c-0.4586,0-0.9172,0.344-1.0319,0.8026l-0.8026,2.0637
		c-0.1147,0.5733-0.6879,0.9172-1.2612,0.8026l-2.1784-0.4586c-0.4586-0.1147-0.9172,0.1147-1.2612,0.5733l-2.293,4.0128
		c-0.2293,0.344-0.1147,0.9172,0.2293,1.2612l1.4905,1.6051c0.344,0.4586,0.344,1.0319,0,1.4905l-1.4905,1.6051
		c-0.344,0.344-0.344,0.9172-0.1147,1.3758l2.293,4.0128c0.2293,0.4586,0.6879,0.6879,1.2612,0.5733l2.1784-0.4586
		c0.5733-0.1147,1.1465,0.2293,1.2612,0.8026l0.6879,2.0637c0.1147,0.4586,0.5733,0.8026,1.0319,0.8026h4.5861
		c0.4586,0,0.9172-0.344,1.0319-0.8026l0.6879-2.0637c0.2293-0.5733,0.8026-0.9172,1.2612-0.8026l2.1784,0.4586
		c0.4586,0.1147,1.0319-0.1147,1.2612-0.5733l2.293-4.0128c0.2293-0.4586,0.2293-0.9172-0.1147-1.3758L60.6414,19.1536z
		 M51.1253,21.7906c-1.9491,0-3.4396-1.4905-3.4396-3.4395s1.4905-3.4396,3.4396-3.4396s3.4395,1.4905,3.4395,3.4396
		S53.0744,21.7906,51.1253,21.7906z"/>
</g>
</svg>
