<?xml version="1.0" encoding="utf-8"?>
<!-- Generator: Adobe Illustrator 24.0.2, SVG Export Plug-In . SVG Version: 6.00 Build 0)  -->
<svg version="1.1" id="Capa_1" xmlns="http://www.w3.org/2000/svg" xmlns:xlink="http://www.w3.org/1999/xlink" x="0px" y="0px"
	 width="64px" height="64px" viewBox="0 0 64 64" style="enable-background:new 0 0 64 64;" xml:space="preserve">
<style type="text/css">
	.st0{fill:#001959;}
	.st1{opacity:0.89;fill:#E0C434;}
</style>
<g>
	<path class="st0" d="M46.25,0c2.5833,0,5.1667,0,7.75,0c0.0873,0.0458,0.1707,0.1028,0.2626,0.1358
		c1.461,0.5239,2.2368,1.6103,2.2576,3.1703c0.004,0.304,0.0006,0.6081,0.0006,0.957c1.1511,0,2.2117-0.0209,3.2713,0.0046
		c1.8457,0.0444,3.3922,1.1875,3.9727,2.9011C63.8444,7.4039,63.9217,7.6396,64,7.875c0,5.4167,0,10.8333,0,16.25
		c-1.0415,2.8485-2.1454,3.6154-5.2045,3.6154c-4.8925,0-9.785,0-14.6775,0c-0.2395,0-0.479,0-0.6938,0
		c1.1329,7.0289-1.3659,12.227-7.4866,15.7438c1.5206,1.5643,1.9453,3.4264,1.1866,5.6549
		c0.6905-0.0886,1.2744-0.1086,1.8283-0.2481c0.7438-0.1874,1.4651-0.4649,2.1948-0.7076c5.837-1.9419,11.6705-3.8944,17.512-5.8226
		c2.3127-0.7634,4.5164,0.4165,5.2064,2.735C63.9061,45.2317,63.955,45.3653,64,45.5c0,0.4167,0,0.8333,0,1.25
		c-0.3589,1.5287-1.3753,2.4688-2.6851,3.2572c-6.2374,3.7542-12.4543,7.5427-18.6564,11.355
		c-1.7579,1.0806-3.6125,1.5885-5.6764,1.5807c-8.4739-0.0321-16.948-0.0145-25.422-0.0082
		c-0.2605,0.0002-0.55,0.0183-0.7757,0.1298C10.2159,63.3453,9.6762,63.6843,9.125,64c-2.1667,0-4.3333,0-6.5,0
		C1.2637,63.6113,0.3851,62.7399,0,61.375C0,53.5,0,45.625,0,37.75c0.6551-1.9464,2.0445-2.6733,4.0407-2.5577
		c1.4323,0.0829,2.8732,0.0227,4.3102,0.0145c1.379-0.0079,2.386,0.5876,3.0557,1.7949c0.0878,0.1583,0.3332,0.3286,0.5037,0.3266
		c2.061-0.0242,4.1109,0.0002,6.2065,0.9952c-2.0198-3.4406-2.5851-6.9223-1.7305-10.6213
		c-0.335-0.1452-0.6413-0.2659-0.9373-0.4082c-4.6577-2.2389-7.2797-6.05-8.445-10.9733C6.0953,12.4809,6.4234,8.5722,6.422,4.6863
		C6.4216,3.5976,7.3389,2.8271,8.4319,2.7482c0.519-0.0375,1.0397-0.0644,1.5557-0.1278c1.9195-0.2359,3.7582-0.7078,5.3716-1.8459
		C15.7626,0.4899,16.2021,0.2568,16.625,0c0.2917,0,0.5833,0,0.875,0c0.6498,0.4045,1.2878,0.8297,1.9517,1.2095
		c1.8741,1.0722,3.9419,1.4064,6.057,1.5288c1.4021,0.0811,2.2211,0.9115,2.2293,2.3199c0.0086,1.4791,0.0335,2.9592-0.0064,4.4372
		c-0.0433,1.6011-0.1027,3.2051-0.2521,4.7987c-0.0957,1.0198-0.3672,2.0231-0.5716,3.095
		c3.2612-0.6732,6.3529-0.2635,9.3512,1.2349c0-0.3312,0-0.5592,0-0.7872c0-3-0.0092-6,0.0089-8.9999
		c0.0031-0.5142,0.0579-1.0463,0.1998-1.5382c0.5207-1.8056,2.132-2.9976,4.058-3.0337c1.0542-0.0197,2.1091-0.0035,3.2144-0.0035
		c0-0.391,0.0008-0.6997-0.0001-1.0083c-0.0035-1.1231,0.4497-2.0238,1.3653-2.6637C45.4538,0.3461,45.8665,0.1939,46.25,0z
		 M11.7684,60.7915c0.2338,0,0.3994,0,0.5651,0c8.3729,0,16.7459-0.006,25.1188,0.0056c1.4437,0.002,2.7277-0.4243,3.9482-1.1725
		c4.8962-3.0015,9.8055-5.9818,14.7103-8.9695c1.5994-0.9743,3.2037-1.9407,4.7977-2.9238c0.6991-0.4312,1.0479-1.0678,0.929-1.8983
		c-0.1109-0.7748-0.6863-1.4182-1.452-1.5241c-0.4124-0.057-0.8754,0.0132-1.2759,0.1458
		c-6.1389,2.032-12.2749,4.0731-18.4022,6.1399c-1.2389,0.4179-2.4799,0.6431-3.7915,0.6251
		c-2.728-0.0374-5.4569,0.0011-8.1853-0.016c-1.5538-0.0097-3.0157,0.3193-4.3728,1.074c-0.4537,0.2523-0.8711,0.5689-1.3161,0.838
		c-0.5867,0.3548-1.1996,0.2344-1.5334-0.2818c-0.3145-0.4865-0.1885-1.0934,0.3403-1.4777
		c1.8419-1.3384,3.8652-2.2092,6.1734-2.2556c1.8737-0.0377,3.7485-0.0238,5.6229-0.0293c1.2113-0.0035,1.5094-0.2395,1.6888-1.4487
		c0.0508-0.3423,0.0368-0.7125-0.0347-1.0516c-0.3209-1.522-1.9563-2.7816-3.7042-2.8156c-1.853-0.036-3.7074,0.0034-5.5608-0.0231
		c-0.7049-0.0101-1.4161-0.0659-2.1112-0.1806c-1.823-0.3008-3.4475-1.068-4.894-2.2132c-2.1409-1.6949-4.6076-2.0622-7.2603-1.8078
		C11.7684,46.6071,11.7684,53.6584,11.7684,60.7915z M29.8818,19.1702c-0.6204,0.0607-1.2454,0.0912-1.8603,0.1868
		c-4.9697,0.7725-8.7745,4.5372-9.7258,9.6069c-0.8833,4.7072,1.4673,9.7229,5.7406,12.1224
		c0.5514,0.3096,1.2467,0.4752,1.8833,0.4997c1.7463,0.067,3.4972,0.0013,5.2454,0.0348c0.6592,0.0126,1.3142,0.1749,1.9745,0.2269
		c0.3727,0.0294,0.7921,0.0731,1.1225-0.0592c5.2509-2.1029,8.1965-7.6067,7.1003-13.2148
		C40.3078,23.1784,35.4818,19.2405,29.8818,19.1702z M50.1188,6.3906c-3.0822,0-6.1644-0.002-9.2466,0.0008
		c-1.6254,0.0015-2.4799,0.844-2.4813,2.4499c-0.0032,3.5404-0.0108,7.0808,0.0167,10.621c0.0023,0.3001,0.1768,0.687,0.4022,0.883
		c1.548,1.3462,2.7845,2.9226,3.6301,4.789c0.1809,0.3993,0.4056,0.4835,0.8026,0.4826c5.3938-0.0114,10.7877-0.0059,16.1816-0.0088
		c1.6087-0.0009,2.4443-0.853,2.4448-2.484c0.0016-4.7483,0.0016-9.4965,0-14.2448c-0.0006-1.6561-0.8365-2.4869-2.5034-2.4881
		C56.2832,6.389,53.201,6.3906,50.1188,6.3906z M8.5072,4.9014c0.0963,3.9797-0.309,7.9469,0.7867,11.8209
		c0.7348,2.5978,1.9898,4.8858,4.0473,6.6815c1.0864,0.9482,2.2862,1.7128,3.6459,2.2078c0.0687-0.0837,0.1192-0.1246,0.1432-0.1775
		c1.4482-3.1962,3.7367-5.5678,6.9118-7.0818c0.1603-0.0764,0.3217-0.2828,0.3626-0.4568c0.3798-1.6146,0.9088-3.2201,1.0522-4.8582
		c0.2028-2.3158,0.1158-4.6571,0.1508-6.9875c0.0055-0.3693,0.0008-0.7388,0.0008-1.14c-3.1208-0.225-6.0784-0.7787-8.5657-2.7697
		C14.5543,4.1547,11.6054,4.6752,8.5072,4.9014z M9.609,49.6489c0-3.6422,0.0019-7.2843-0.0013-10.9265
		c-0.0009-1.006-0.3564-1.3728-1.3364-1.3767c-1.6025-0.0064-3.2051-0.0062-4.8077,0c-0.985,0.0038-1.3331,0.3642-1.3333,1.3734
		c-0.0016,7.2635-0.0018,14.5271,0.0003,21.7906c0.0003,0.984,0.3754,1.3567,1.361,1.3596
		c1.5401,0.0046,3.0802,0.0023,4.6203,0.0009c1.1511-0.001,1.4958-0.3407,1.4963-1.4821C9.61,56.8084,9.609,53.2287,9.609,49.6489z
		 M45.8709,4.2211c2.8819,0,5.6757,0,8.517,0c0-0.3449,0.0098-0.6531-0.002-0.9605c-0.0271-0.708-0.4195-1.1201-1.1369-1.1251
		c-2.077-0.0144-4.1541-0.0141-6.2311-0.0002c-0.7191,0.0048-1.1166,0.4164-1.1449,1.1204
		C45.8606,3.5633,45.8709,3.8718,45.8709,4.2211z"/>
	<path class="st0" d="M25.6215,34.593c-0.0236-1.0068,0.3382-1.4697,0.9796-1.5057c0.6473-0.0363,1.0629,0.3746,1.141,1.1283
		c0.1343,1.2961,1.0585,2.1176,2.2921,2.0374c1.0924-0.071,1.965-1.0158,1.9627-2.1251c-0.0025-1.1791-0.9071-2.0705-2.1594-2.1279
		c-2.1764-0.0997-3.8467-1.5321-4.1848-3.5885c-0.3268-1.9882,0.7737-3.8431,2.7432-4.6769c0.185-0.0783,0.366-0.3059,0.4302-0.5029
		c0.1716-0.5264,0.5143-0.8238,1.0446-0.8211c0.5301,0.0027,0.8621,0.307,1.0382,0.8304c0.0696,0.2068,0.2892,0.4275,0.4944,0.5141
		c1.6163,0.6823,2.7258,2.2305,2.7219,3.8547c-0.0018,0.7461-0.4641,1.2163-1.1475,1.1669
		c-0.5876-0.0425-0.9063-0.417-0.9818-1.1538c-0.1468-1.4327-1.4392-2.3358-2.7534-1.9242
		c-1.0078,0.3156-1.6127,1.2564-1.4891,2.3162c0.1141,0.9788,0.9522,1.743,1.9799,1.8571c0.5738,0.0637,1.1699,0.1143,1.7041,0.3113
		c1.6034,0.5912,2.6632,2.1634,2.6871,3.8585c0.0248,1.7513-0.9807,3.3169-2.5929,3.9865c-0.3644,0.1513-0.57,0.3225-0.7176,0.735
		c-0.1092,0.305-0.5733,0.5956-0.927,0.6721c-0.4493,0.0972-0.8943-0.1924-0.9906-0.6673c-0.09-0.4437-0.3415-0.5856-0.7031-0.7446
		C26.6001,37.3231,25.7765,36.0631,25.6215,34.593z"/>
	<path class="st0" d="M57.6056,16.0235c-0.0108,4.0976-3.4195,7.4793-7.5118,7.4524c-4.0798-0.0268-7.4283-3.389-7.4362-7.4666
		c-0.0079-4.0967,3.383-7.49,7.4795-7.4851C54.2324,8.5293,57.6165,11.9273,57.6056,16.0235z M55.4707,16.0153
		c0.0163-2.9115-2.3728-5.3216-5.3064-5.3531c-2.9083-0.0313-5.3203,2.3454-5.3675,5.2891
		c-0.0469,2.9219,2.3957,5.3892,5.3331,5.387C53.0469,21.336,55.4543,18.9366,55.4707,16.0153z"/>
	<path class="st0" d="M14.8622,15.3832c1.3396-1.7851,2.686-3.5793,4.0324-5.3735c0.4992-0.6652,0.9913-1.3359,1.4997-1.9939
		c0.4448-0.5756,1.0789-0.7005,1.5735-0.3318c0.4996,0.3725,0.5697,1.0139,0.1296,1.6035
		c-2.0644,2.7659-4.1345,5.5276-6.2147,8.2817c-0.5536,0.7329-1.1785,0.7594-1.8446,0.1102
		c-0.6256-0.6096-1.2429-1.228-1.8529-1.8533c-0.5449-0.5585-0.5759-1.1924-0.1004-1.6451
		c0.4617-0.4396,1.0472-0.3948,1.6002,0.1327c0.3461,0.3301,0.6812,0.6715,1.0238,1.0053
		C14.7353,15.3448,14.7816,15.3505,14.8622,15.3832z"/>
	<path class="st0" d="M49.0328,17.1142c-0.8617-0.1276-2.0405,0.2181-2.0574-1.093c-0.0176-1.3675,1.2006-1.0015,2.0607-1.1353
		c0.1165-0.8508-0.249-2.1025,1.1665-2.0416c1.2481,0.0537,0.9338,1.1904,1.0449,2.0905c0.3265,0,0.6504-0.0176,0.9718,0.0037
		c0.6674,0.0441,1.0947,0.4551,1.1084,1.0389c0.0141,0.6012-0.4346,1.0421-1.1269,1.0852
		c-0.3058,0.0191-0.6139,0.0032-0.9434,0.0032c-0.1387,0.8841,0.2083,2.0996-1.1343,2.0941
		C48.8138,19.1546,49.1389,17.9798,49.0328,17.1142z"/>
</g>
<circle class="st1" cx="34.1252" cy="32.483" r="12.7196"/>
</svg>
