<?xml version="1.0" encoding="utf-8"?>
<!-- Generator: Adobe Illustrator 24.0.2, SVG Export Plug-In . SVG Version: 6.00 Build 0)  -->
<svg version="1.1" id="Capa_1" xmlns="http://www.w3.org/2000/svg" xmlns:xlink="http://www.w3.org/1999/xlink" x="0px" y="0px"
	 width="199.9171px" height="61.2474px" viewBox="0 0 199.9171 61.2474" style="enable-background:new 0 0 199.9171 61.2474;"
	 xml:space="preserve">
<style type="text/css">
	.st0{fill:#82027E;}
	.st1{fill:#009193;}
</style>
<g id="Logo">
	<g>
		<g>
			<path class="st0" d="M48.0108,40.51c-1.3862,0.2829-2.2453,1.0453-6.4805,2.3274c-4.1009,1.0453-11.155,0.7537-16.7985-1.7093
				c-4.3634-1.8218-10.9564-4.6507-10.9564-4.6507l-4.6269-2.0699l-0.9519,3.0409c0,0,7.2633,2.7616,13.0869,6.6282
				c2.6388,1.7518,9.9423,6.3543,9.9423,6.3543s3.4725,2.5376,5.0532,2.5279c1.3755-0.0241,2.5303-1.488,4.3641-3.2458
				c2.2406-2.0086,3.2649-3.1336,5.7041-5.1429c1.6246-1.4545,2.4523-2.2125,2.6475-2.5641
				C49.4656,41.1589,48.805,40.3513,48.0108,40.51"/>
			<path class="st0" d="M28.9151,34.4882c-3.9583,0.0013-10.2587-1.7967-10.2587-13.3943
				c-0.0027-7.3976,2.8838-13.2255,10.253-13.4023c8.2209,0.1691,10.2597,5.7486,10.2634,13.3973
				C39.3489,28.6392,36.7141,34.6566,28.9151,34.4882 M48.6185,21.1261c0.006-7.4297-5.0197-16.4412-19.6759-16.6123
				C16.0056,4.8653,9.278,11.9636,9.2837,21.1405c0.3496,13.0973,12.0858,16.6113,19.6759,16.6096
				C41.3963,37.7454,48.9566,30.4998,48.6185,21.1261"/>
			<rect y="59.3472" class="st0" width="1.8911" height="1.8985"/>
			<rect x="4.6206" y="59.3472" class="st0" width="1.8901" height="1.8985"/>
			<rect x="9.2421" y="59.3472" class="st0" width="1.8921" height="1.8985"/>
			<rect x="13.8657" y="59.3472" class="st0" width="1.8901" height="1.8985"/>
			<rect x="18.4863" y="59.3472" class="st0" width="1.8911" height="1.8985"/>
			<rect x="23.1079" y="59.3472" class="st0" width="1.8901" height="1.8985"/>
			<rect x="27.7295" y="59.3472" class="st0" width="1.8908" height="1.8985"/>
			<rect x="32.351" y="59.3472" class="st0" width="1.8918" height="1.8985"/>
			<rect x="36.9726" y="59.3472" class="st0" width="1.8887" height="1.8985"/>
			<rect x="41.5942" y="59.3472" class="st0" width="1.8901" height="1.8985"/>
			<rect x="46.2144" y="59.3472" class="st0" width="1.8931" height="1.8985"/>
			<rect x="50.8377" y="59.3472" class="st0" width="1.8894" height="1.8985"/>
			<rect x="55.4546" y="59.3512" class="st0" width="1.8921" height="1.8961"/>
			<path class="st0" d="M0,57.5392h57.3544V0H0V57.5392z M55.47,55.6484H1.8857V1.8924H55.47V55.6484L55.47,55.6484z"/>
		</g>
		<g>
			<path class="st1" d="M198.2306,57.8472c-0.2133,0-0.4175,0.0546-0.6164,0.1647c-0.2069,0.1092-0.3656,0.2665-0.4748,0.4698
				c-0.1135,0.2012-0.1698,0.4145-0.1698,0.6332c0,0.2173,0.0556,0.4272,0.1671,0.6268c0.1115,0.2006,0.2658,0.3569,0.4691,0.4698
				c0.1972,0.1102,0.4075,0.1664,0.6255,0.1634c0.2163,0.0013,0.4259-0.0526,0.6281-0.1634
				c0.2043-0.1138,0.3589-0.2689,0.4718-0.4704c0.1068-0.2006,0.1647-0.4098,0.1647-0.6295
				c-0.003-0.2163-0.0596-0.4296-0.1728-0.6308c-0.1098-0.2032-0.2695-0.3613-0.4718-0.4708
				C198.6474,57.9015,198.4429,57.8489,198.2306,57.8472 M198.2306,57.5938c0.2568,0,0.5039,0.0646,0.7497,0.1959
				c0.2384,0.1312,0.4289,0.3187,0.5659,0.5588c0.1346,0.2444,0.2029,0.5019,0.2029,0.7644c0,0.2642-0.067,0.5116-0.1945,0.7544
				c-0.1396,0.2431-0.3261,0.4296-0.5679,0.5655c-0.2394,0.1323-0.4902,0.1996-0.753,0.2002
				c-0.2622-0.0013-0.5146-0.067-0.7554-0.2006c-0.2404-0.1323-0.4299-0.3218-0.5625-0.5615
				c-0.1356-0.2431-0.1999-0.4935-0.2022-0.7577c-0.0017-0.2625,0.0666-0.517,0.2022-0.7644
				c0.1389-0.2401,0.3271-0.4276,0.5709-0.5585C197.7277,57.6601,197.9778,57.5938,198.2306,57.5938"/>
			<path class="st1" d="M197.8221,59.0332l0.3248,0.0017c0.1534,0,0.2575-0.0251,0.3117-0.07
				c0.0593-0.0442,0.0854-0.1071,0.0854-0.1805c0-0.0492-0.01-0.0917-0.0365-0.1296c-0.0268-0.0382-0.067-0.0666-0.1172-0.0867
				c-0.0465-0.0167-0.1359-0.0271-0.2662-0.0275h-0.3024v0.4925L197.8221,59.0332L197.8221,59.0332z M197.5656,59.9516
				l-0.0027-1.6299l0.5582,0.0037c0.1922,0,0.3328,0.0107,0.4162,0.0419c0.084,0.0311,0.1534,0.0834,0.2059,0.1594
				c0.0506,0.0737,0.0753,0.1527,0.0753,0.2377c0,0.1175-0.0412,0.2223-0.1266,0.3121c-0.0864,0.0881-0.1982,0.1373-0.3409,0.148
				c0.0599,0.0251,0.1048,0.0526,0.1406,0.0881c0.0653,0.0629,0.1467,0.1701,0.2401,0.3187l0.2009,0.3211l-0.3238-0.0007
				l-0.146-0.2571c-0.1142-0.2012-0.2049-0.3265-0.2746-0.3773c-0.0479-0.0402-0.1185-0.0562-0.2096-0.0569h-0.1567v0.6907
				L197.5656,59.9516z"/>
		</g>
		<g>
			<path class="st1" d="M69.9277,55.9635v1.1411c-0.7587,0.4152-1.6346,0.6231-2.6277,0.6231c-0.8073,0-1.4913-0.1631-2.0535-0.4875
				c-0.5625-0.3255-1.0075-0.7734-1.3353-1.3443c-0.3271-0.5709-0.4912-1.1886-0.4912-1.8522c0-1.0557,0.3753-1.9426,1.1253-2.6622
				c0.75-0.7195,1.6751-1.0795,2.775-1.0795c0.7587,0,1.6018,0.1989,2.5296,0.5967v1.116
				c-0.8451-0.4845-1.6708-0.7266-2.4777-0.7266c-0.8277,0-1.5151,0.2618-2.0615,0.7858c-0.5468,0.5243-0.82,1.1809-0.82,1.9698
				c0,0.7955,0.2689,1.4491,0.8069,1.9614c0.5381,0.5123,1.2261,0.7681,2.0639,0.7681
				C68.2375,56.7728,69.093,56.5032,69.9277,55.9635z"/>
			<path class="st1" d="M75.6254,50.2916c1.1163,0,2.0461,0.3546,2.7891,1.0634c0.7426,0.7092,1.114,1.5984,1.114,2.6675
				c0,1.0688-0.3747,1.9537-1.1247,2.6545c-0.749,0.7005-1.6945,1.0507-2.835,1.0507c-1.0892,0-1.9966-0.3506-2.7218-1.0507
				c-0.7252-0.7008-1.0882-1.5787-1.0882-2.6334c0-1.0832,0.3653-1.9795,1.0959-2.6886
				C73.5853,50.6462,74.5087,50.2916,75.6254,50.2916z M75.6669,51.277c-0.827,0-1.5067,0.2598-2.0391,0.7788
				c-0.532,0.5186-0.7986,1.1813-0.7986,1.9879c0,0.7818,0.2672,1.4317,0.8016,1.951c0.5337,0.5186,1.2024,0.7781,2.0053,0.7781
				c0.8063,0,1.4789-0.2648,2.0183-0.7939c0.5394-0.5297,0.8089-1.1886,0.8089-1.9775c0-0.7681-0.2695-1.414-0.8089-1.938
				C77.115,51.5395,76.4524,51.277,75.6669,51.277z"/>
			<path class="st1" d="M87.4276,50.3954h0.9673v7.2493h-1.04v-5.6408l-2.2219,2.8025h-0.1912l-2.2477-2.8025v5.6408h-1.0349
				v-7.2493h0.9794l2.4017,2.9773L87.4276,50.3954z"/>
			<path class="st1" d="M90.7742,57.6446V50.385h2.2915c0.6897,0,1.2399,0.1862,1.6504,0.5602
				c0.4102,0.374,0.6157,0.8752,0.6157,1.505c0,0.4222-0.1055,0.7955-0.3157,1.121c-0.2106,0.3255-0.4982,0.5612-0.8638,0.7088
				c-0.3656,0.1467-0.8896,0.2203-1.5727,0.2203h-0.7654v3.1447h-1.04V57.6446z M92.8849,51.3081h-1.0708v2.2681h1.1324
				c0.4209,0,0.7453-0.0994,0.9727-0.2983c0.2277-0.1989,0.3412-0.4835,0.3412-0.8538
				C94.2607,51.6801,93.8023,51.3081,92.8849,51.3081z"/>
			<path class="st1" d="M98.5702,50.3539h0.7269l3.2404,7.2908h-1.0584l-0.9636-2.1482h-3.0831l-0.903,2.1482h-1.0631
				L98.5702,50.3539z M100.0903,54.5726l-1.1659-2.6257l-1.0815,2.6257H100.0903z"/>
			<path class="st1" d="M109.9505,50.3954h0.9827v7.2493h-0.89l-4.8312-5.5832v5.5832h-0.9727v-7.2493h0.8384l4.873,5.6307v-5.6307
				H109.9505z M109.2313,48.4233c-0.0033,0.4189-0.1001,0.746-0.2896,0.9807c-0.145,0.1835-0.3258,0.2749-0.5431,0.2749
				c-0.1898,0-0.445-0.069-0.7657-0.2073c-0.3208-0.1383-0.5622-0.2079-0.7242-0.2079c-0.0897,0-0.1674,0.0348-0.233,0.1041
				c-0.0656,0.069-0.1048,0.1731-0.1185,0.3111h-0.4346c0.0553-0.4875,0.1554-0.8136,0.3-0.9777
				c0.1446-0.1647,0.3275-0.2468,0.5481-0.2468c0.1999,0,0.526,0.0917,0.9777,0.2749c0.2307,0.0934,0.3964,0.1403,0.4965,0.1403
				c0.0961,0,0.1785-0.0335,0.2458-0.1011c0.0673-0.067,0.1128-0.1821,0.1369-0.3452
				C108.8275,48.4233,109.2313,48.4233,109.2313,48.4233z"/>
			<path class="st1" d="M113.3698,50.3954h1.0346v7.2493h-1.0346V50.3954z M115.3355,48.3037l-1.1685,1.5569h-0.5799l0.6984-1.5569
				H115.3355z"/>
			<path class="st1" d="M119.1947,50.3539h0.7269l3.2404,7.2908h-1.0587l-0.9633-2.1482h-3.0831l-0.903,2.1482h-1.0634
				L119.1947,50.3539z M120.7148,54.5726l-1.1662-2.6257l-1.0811,2.6257H120.7148z"/>
			<path class="st1" d="M128.6662,57.6343V50.395h2.4365c0.9827,0,1.7605,0.148,2.3327,0.4433
				c0.5725,0.296,1.0276,0.7316,1.3658,1.3055c0.3378,0.5746,0.5069,1.2007,0.5069,1.8787c0,0.4842-0.0931,0.9479-0.2799,1.3905
				c-0.1858,0.4433-0.4513,0.832-0.7962,1.1675c-0.3519,0.3462-0.7604,0.6074-1.2261,0.7835
				c-0.2719,0.1078-0.5223,0.1791-0.7497,0.2156c-0.2277,0.0365-0.6619,0.0546-1.3038,0.0546h-2.2862L128.6662,57.6343
				L128.6662,57.6343z M130.9939,51.3192h-1.2931v5.3917h1.3242c0.5173,0,0.9191-0.0355,1.205-0.1068
				c0.2859-0.0706,0.5253-0.1604,0.7165-0.2695c0.1915-0.1092,0.3663-0.2431,0.525-0.4021
				c0.5106-0.5193,0.7657-1.1749,0.7657-1.9668c0-0.7788-0.2625-1.4133-0.7865-1.9051c-0.1932-0.1832-0.4149-0.3338-0.6646-0.451
				c-0.2501-0.1175-0.4872-0.1952-0.7112-0.2337C131.8507,51.3382,131.4904,51.3192,130.9939,51.3192z"/>
			<path class="st1" d="M137.4804,50.3954h4.0972v0.9238h-3.0623v2.2105h2.9588v0.9291h-2.9588v2.252h3.1604v0.9238h-4.1953V50.3954
				z"/>
			<path class="st1" d="M149.2692,54.6075l-0.7861-0.4791c-0.4932-0.302-0.8441-0.599-1.0527-0.8913s-0.3131-0.6291-0.3131-1.0095
				c0-0.5709,0.1975-1.0346,0.5923-1.3909c0.3948-0.3566,0.9077-0.5344,1.5388-0.5344c0.603,0,1.1572,0.1701,1.6604,0.5099v1.1779
				c-0.521-0.5019-1.0811-0.7537-1.6812-0.7537c-0.3382,0-0.6157,0.0783-0.8327,0.2354c-0.2173,0.157-0.3261,0.3576-0.3261,0.602
				c0,0.217,0.08,0.4205,0.2401,0.6097c0.16,0.1898,0.4175,0.3887,0.7721,0.5973l0.7902,0.4691
				c0.8816,0.5277,1.3222,1.2007,1.3222,2.0163c0,0.5816-0.1942,1.0537-0.5819,1.417c-0.3877,0.3636-0.8926,0.5451-1.5131,0.5451
				c-0.7135,0-1.3641-0.22-1.9503-0.6603v-1.3185c0.5588,0.7105,1.2054,1.0651,1.94,1.0651c0.3241,0,0.594-0.0904,0.8096-0.2715
				c0.2156-0.1808,0.3234-0.4075,0.3234-0.68C150.2212,55.4214,149.9037,55.0032,149.2692,54.6075z"/>
			<path class="st1" d="M153.2111,50.3954h4.0972v0.9238h-3.0623v2.2105h2.9592v0.9291h-2.9592v2.252h3.1604v0.9238h-4.1953V50.3954
				z"/>
			<path class="st1" d="M163.2934,54.0748h2.4265v3.072c-0.89,0.3871-1.7726,0.5813-2.6488,0.5813
				c-1.1967,0-2.1529-0.3506-2.8681-1.0507c-0.7159-0.7008-1.0734-1.5646-1.0734-2.5922c0-1.0832,0.3706-1.9842,1.1123-2.7037
				c0.741-0.7195,1.6708-1.0795,2.7881-1.0795c0.4068,0,0.7932,0.0442,1.1585,0.1323s0.8277,0.2498,1.3865,0.4852v1.0587
				c-0.8625-0.5016-1.7177-0.7524-2.5661-0.7524c-0.7899,0-1.4555,0.2695-1.9969,0.8093c-0.5411,0.5397-0.812,1.2024-0.812,1.9879
				c0,0.823,0.2709,1.4963,0.812,2.019c0.5417,0.5223,1.2382,0.7835,2.09,0.7835c0.4138,0,0.9087-0.0951,1.485-0.2856l0.0981-0.0311
				v-1.5104h-1.3919V54.075h0.0002L163.2934,54.0748L163.2934,54.0748z"/>
			<path class="st1" d="M173.1375,50.3954h1.0396v4.115c0,0.5572-0.0405,0.9777-0.1212,1.2609
				c-0.0814,0.2839-0.1811,0.52-0.3003,0.7088c-0.1189,0.1882-0.2645,0.3569-0.4373,0.5056
				c-0.5722,0.4949-1.3209,0.7423-2.245,0.7423c-0.9415,0-1.6966-0.2458-2.2658-0.7369c-0.1728-0.152-0.3184-0.3228-0.4373-0.5109
				c-0.1189-0.1888-0.2173-0.4199-0.295-0.6931c-0.077-0.2732-0.1158-0.7021-0.1158-1.2867v-4.1049h1.0396v4.115
				c0,0.6817,0.0777,1.1555,0.233,1.4223c0.155,0.2658,0.3911,0.4798,0.7088,0.6405c0.3171,0.161,0.6914,0.2414,1.1223,0.2414
				c0.6137,0,1.1136-0.1604,1.5-0.4821c0.2032-0.1731,0.3499-0.3773,0.4393-0.6127c0.0901-0.2347,0.1349-0.6382,0.1349-1.209
				v-4.1155C173.1373,50.3954,173.1375,50.3954,173.1375,50.3954z"/>
			<path class="st1" d="M176.5206,57.6446v-7.2493h1.8107c0.7309,0,1.3115,0.1815,1.7401,0.5444
				c0.4296,0.3636,0.6442,0.8548,0.6442,1.4742c0,0.4219-0.1051,0.7865-0.3154,1.0945c-0.2106,0.308-0.5123,0.5381-0.9054,0.6901
				c0.2304,0.1527,0.4567,0.3599,0.6774,0.6231c0.2206,0.2628,0.531,0.7212,0.9311,1.3748
				c0.2521,0.4122,0.4534,0.7219,0.6054,0.9291l0.3827,0.5186h-1.2312l-0.3154-0.4775c-0.0104-0.0174-0.0311-0.0469-0.062-0.0881
				l-0.2012-0.2859l-0.3204-0.5297l-0.3462-0.5662c-0.214-0.2977-0.4095-0.5344-0.587-0.7105
				c-0.1778-0.1761-0.3385-0.303-0.4818-0.381s-0.384-0.1169-0.7225-0.1169h-0.2692v3.1554h-1.0339L176.5206,57.6446
				L176.5206,57.6446z M177.8652,51.277h-0.3104v2.2889h0.3934c0.5237,0,0.8836-0.0449,1.0785-0.1353
				c0.1949-0.0897,0.3465-0.2253,0.455-0.4075c0.1088-0.1815,0.1631-0.3881,0.1631-0.6201c0-0.2283-0.0603-0.4349-0.1808-0.6201
				c-0.1205-0.1852-0.2906-0.3157-0.5096-0.3917C178.7354,51.3155,178.3722,51.277,177.8652,51.277z"/>
			<path class="st1" d="M186.6775,50.2916c1.1166,0,2.0461,0.3546,2.7891,1.0634c0.743,0.7092,1.114,1.5984,1.114,2.6675
				c0,1.0688-0.3747,1.9537-1.1243,2.6545c-0.7493,0.7005-1.6952,1.0507-2.8356,1.0507c-1.0889,0-1.9959-0.3506-2.7218-1.0507
				c-0.7249-0.7008-1.0878-1.5787-1.0878-2.6334c0-1.0832,0.3653-1.9795,1.0959-2.6886
				C184.6374,50.6462,185.5605,50.2916,186.6775,50.2916z M186.719,51.277c-0.827,0-1.5067,0.2598-2.0391,0.7788
				c-0.5324,0.5186-0.7986,1.1813-0.7986,1.9879c0,0.7818,0.2668,1.4317,0.8012,1.951c0.534,0.5186,1.202,0.7781,2.0053,0.7781
				c0.8063,0,1.4789-0.2648,2.0183-0.7939c0.5391-0.5297,0.8086-1.1886,0.8086-1.9775c0-0.7681-0.2695-1.414-0.8086-1.938
				C188.1668,51.5395,187.5042,51.277,186.719,51.277z"/>
			<path class="st1" d="M194.5224,54.6075l-0.7862-0.4791c-0.4932-0.302-0.8441-0.599-1.053-0.8913
				c-0.2083-0.2923-0.3127-0.6291-0.3127-1.0095c0-0.5709,0.1975-1.0346,0.5923-1.3909c0.3944-0.3566,0.9077-0.5344,1.5388-0.5344
				c0.6033,0,1.1572,0.1701,1.6604,0.5099v1.1779c-0.5206-0.5019-1.0808-0.7537-1.6811-0.7537
				c-0.3382,0-0.6157,0.0783-0.8327,0.2354c-0.2173,0.157-0.3261,0.3576-0.3261,0.602c0,0.217,0.08,0.4205,0.2401,0.6097
				c0.16,0.1898,0.4175,0.3887,0.7721,0.5973l0.7902,0.4691c0.8816,0.5277,1.3222,1.2007,1.3222,2.0163
				c0,0.5816-0.1939,1.0537-0.5819,1.417c-0.388,0.3636-0.8923,0.5451-1.5131,0.5451c-0.7139,0-1.3641-0.22-1.9504-0.6603v-1.3185
				c0.5588,0.7105,1.2054,1.0651,1.94,1.0651c0.3244,0,0.594-0.0904,0.8093-0.2715c0.216-0.1808,0.3238-0.4075,0.3238-0.68
				C195.4743,55.4214,195.1569,55.0032,194.5224,54.6075z"/>
		</g>
		<g>
			<path class="st1" d="M93.3597,40.5542l-4.1609,4.052c-1.2974-0.0693-2.6535-0.3007-4.0678-0.6961
				c-1.415-0.3944-2.85-0.9388-4.3058-1.6316c-1.4562-0.6927-3.3988-1.877-5.8279-3.5535
				c-3.5197-0.6372-6.4219-2.3136-8.7058-5.0294c-2.2848-2.7154-3.4269-5.8467-3.4269-9.3938c0-4.3366,1.4702-7.925,4.41-10.7653
				s6.6593-4.261,11.1587-4.261c4.4719,0,8.1881,1.4106,11.149,4.2298c2.9605,2.8192,4.4408,6.3627,4.4408,10.63
				c0,3.5883-1.118,6.741-3.3539,9.4564c-2.2363,2.7154-5.1282,4.4264-8.675,5.1329l1.0972,0.4155
				c3.4092,1.3162,5.8661,1.9738,7.3708,1.9738C91.2891,41.1151,92.2551,40.9282,93.3597,40.5542z M78.4329,13.2256
				c-3.2562,0-5.9468,1.053-8.0719,3.1591c-2.1255,2.106-3.1875,4.7589-3.1875,7.9594c0,3.1175,1.0691,5.7124,3.2083,7.7833
				c2.1389,2.0709,4.8225,3.1068,8.0512,3.1068c3.1875,0,5.8715-1.0594,8.0515-3.1802c2.18-2.1191,3.2706-4.7311,3.2706-7.8345
				c0-3.1728-1.0694-5.7988-3.2083-7.8771C84.4075,14.2638,81.7034,13.2256,78.4329,13.2256z"/>
			<path class="st1" d="M109.543,38.7254v-2.4523c-0.8009,0.8792-1.7163,1.5633-2.7449,2.0521
				c-1.0293,0.4882-2.0545,0.7326-3.0767,0.7326c-1.2017,0-2.3096-0.3017-3.3251-0.9037c-1.0149-0.603-1.7816-1.4207-2.2992-2.4523
				C97.5788,34.67,97.32,32.9554,97.32,30.5577V19.6056h3.7705v10.8965c0,2.0066,0.2863,3.4085,0.8598,4.2037
				c0.5729,0.7955,1.5774,1.1933,3.0141,1.1933c1.795,0,3.3215-0.8792,4.5784-2.6391V19.6056h3.7705v19.1198
				C113.3132,38.7254,109.543,38.7254,109.543,38.7254z"/>
			<path class="st1" d="M131.0441,27.2322v8.1265c0,0.6512,0.2206,0.9774,0.6629,0.9774c0.4557,0,1.1672-0.3398,2.1338-1.0189
				v2.3066c-0.8568,0.5551-1.5435,0.9325-2.0612,1.1327c-0.5183,0.2006-1.06,0.3017-1.6266,0.3017
				c-1.6159,0-2.5688-0.6372-2.8591-1.9118c-1.6025,1.2469-3.3077,1.8703-5.1171,1.8703c-1.3259,0-2.4312-0.4393-3.3148-1.3195
				c-0.8839-0.8803-1.3259-1.9855-1.3259-3.3154c0-1.2047,0.4313-2.2822,1.2948-3.2314c0.8632-0.9486,2.0893-1.7002,3.6774-2.255
				l4.8268-1.6627v-1.0179c0-2.2999-1.1468-3.45-3.439-3.45c-2.0582,0-4.0604,1.0667-6.0078,3.2006V21.829
				c1.4635-1.731,3.5702-2.5976,6.3185-2.5976c2.0578,0,3.7082,0.5404,4.9514,1.6212c0.4145,0.3462,0.7872,0.8076,1.1186,1.3822
				c0.3315,0.5746,0.5417,1.1501,0.6322,1.7247C130.9989,24.5346,131.0441,25.6258,131.0441,27.2322z M127.3356,34.9429v-5.6733
				l-2.5276,0.9763c-1.2844,0.5126-2.1928,1.0286-2.7241,1.5486c-0.532,0.5193-0.7979,1.1672-0.7979,1.943
				c0,0.7899,0.2518,1.4344,0.7564,1.9333c0.5036,0.4989,1.1565,0.7483,1.9574,0.7483
				C125.2018,36.4191,126.3134,35.9266,127.3356,34.9429z M130.0909,9.2355l-4.6818,6.2348h-2.3203l2.7968-6.2348H130.0909z"/>
			<path class="st1" d="M136.5704,9.6918h3.7704v29.0336h-3.7704V9.6918z"/>
			<path class="st1" d="M148.1707,11.5631c0.6214,0,1.1528,0.2143,1.5951,0.6439c0.442,0.4296,0.663,0.9559,0.663,1.5794
				c0,0.6097-0.221,1.1361-0.663,1.5794c-0.4423,0.4433-0.9737,0.665-1.5951,0.665c-0.5799,0-1.0912-0.225-1.5332-0.6757
				c-0.4423-0.45-0.6629-0.973-0.6629-1.569c0-0.5819,0.2206-1.0979,0.6629-1.5486
				C147.0795,11.7878,147.5904,11.5631,148.1707,11.5631z M146.3061,19.6056h3.7704v19.1198h-3.7704V19.6056z"/>
			<path class="st1" d="M152.8716,22.6398l7.0852-6.9831v3.9486h6.0285v3.4082h-6.0285v9.358c0,2.1851,0.9044,3.2779,2.7138,3.2779
				c1.3534,0,2.7831-0.45,4.2884-1.3513v3.5337c-1.4501,0.8173-3.0318,1.2258-4.7441,1.2258c-1.7267,0-3.1628-0.5052-4.3092-1.5174
				c-0.3596-0.304-0.6559-0.6472-0.891-1.0286c-0.2351-0.3807-0.4319-0.8792-0.5906-1.4963
				c-0.1587-0.6161-0.2381-1.7906-0.2381-3.5223v-8.4791h-3.3148v-0.374h0.0004V22.6398z"/>
			<path class="st1" d="M182.3733,27.2322v8.1265c0,0.6512,0.2206,0.9774,0.663,0.9774c0.4557,0,1.1669-0.3398,2.1338-1.0189v2.3066
				c-0.8568,0.5551-1.5435,0.9325-2.0612,1.1327c-0.5183,0.2006-1.0604,0.3017-1.6266,0.3017c-1.6159,0-2.5688-0.6372-2.8591-1.9118
				c-1.6025,1.2469-3.3077,1.8703-5.1171,1.8703c-1.3259,0-2.4312-0.4393-3.3148-1.3195c-0.8839-0.8803-1.3259-1.9855-1.3259-3.3154
				c0-1.2047,0.4313-2.2822,1.2948-3.2314c0.8632-0.9486,2.0893-1.7002,3.6774-2.255l4.8272-1.6627v-1.0179
				c0-2.2999-1.1468-3.45-3.439-3.45c-2.0582,0-4.0604,1.0667-6.0078,3.2006V21.829c1.4635-1.731,3.5702-2.5976,6.3185-2.5976
				c2.0578,0,3.7082,0.5404,4.9514,1.6212c0.4142,0.3462,0.7872,0.8076,1.1187,1.3822s0.5417,1.1501,0.6321,1.7247
				C182.3281,24.5346,182.3733,25.6258,182.3733,27.2322z M178.6651,34.9429v-5.6733l-2.5276,0.9763
				c-1.2844,0.5126-2.1928,1.0286-2.7241,1.5486c-0.532,0.5193-0.7979,1.1672-0.7979,1.943c0,0.7899,0.2518,1.4344,0.7564,1.9333
				c0.5036,0.4989,1.1565,0.7483,1.9574,0.7483C176.5313,36.4191,177.6426,35.9266,178.6651,34.9429z"/>
			<path class="st1" d="M187.0103,37.3536v-4.0735c1.0634,0.748,2.1509,1.3544,3.2625,1.8181
				c1.1119,0.4647,2.0478,0.6961,2.8075,0.6961c0.7872,0,1.4635-0.1932,2.0304-0.5819c0.5662-0.3871,0.8494-0.8518,0.8494-1.3919
				c0-0.5541-0.1832-1.0145-0.5491-1.3822c-0.366-0.3666-1.1568-0.8963-2.3719-1.5894c-2.4312-1.3577-4.0229-2.5182-4.7749-3.4818
				c-0.753-0.9626-1.1294-2.0123-1.1294-3.1484c0-1.4685,0.5695-2.6665,1.7093-3.595c1.1391-0.9281,2.6066-1.3929,4.4019-1.3929
				c1.8646,0,3.7775,0.5263,5.7386,1.5794v3.741c-2.2373-1.3577-4.0678-2.0367-5.4898-2.0367c-0.7323,0-1.3226,0.1564-1.7715,0.4688
				c-0.449,0.3114-0.673,0.7246-0.673,1.2372c0,0.4443,0.2032,0.8679,0.6097,1.2697c0.4065,0.4028,1.1217,0.8866,2.1436,1.4548
				l1.347,0.7684c3.1775,1.801,4.7666,3.7956,4.7666,5.9836c0,1.5646-0.6114,2.85-1.8332,3.8542
				c-1.2228,1.0041-2.7938,1.506-4.7133,1.506c-1.1324,0-2.1412-0.1215-3.0248-0.3636
				C189.4619,38.4525,188.3496,38.0049,187.0103,37.3536z"/>
		</g>
	</g>
</g>
<g id="Comentarios">
</g>
</svg>
