<?xml version="1.0" encoding="utf-8"?>
<!-- Generator: Adobe Illustrator 24.0.2, SVG Export Plug-In . SVG Version: 6.00 Build 0)  -->
<svg version="1.1" id="Capa_1" xmlns="http://www.w3.org/2000/svg" xmlns:xlink="http://www.w3.org/1999/xlink" x="0px" y="0px"
	 width="64px" height="64px" viewBox="0 0 64 64" style="enable-background:new 0 0 64 64;" xml:space="preserve">
<style type="text/css">
	.st0{fill:#FFFFFF;}
	.st1{opacity:0.79;fill:#008F93;}
</style>
<g>
	<path class="st0" d="M56.3105,6.1144l-38.613,6.9479c-1.8492,0.3327-3.0823,2.1112-2.7488,3.9642l0.4268,2.3722
		c0.0007,0.0042-0.001,0.0081-0.0003,0.0124c0.0179,0.0991,1.568,8.6992,1.4693,8.1517L2.7989,30.0901
		c-1.8463,0.3322-3.0776,2.1093-2.7445,3.9609l0.0335,0.1864c0.001,0.0068-0.0016,0.0131-0.0004,0.0198l3.643,20.2463
		c0.1668,0.927,0.695,1.6995,1.4127,2.1984c0.7163,0.5013,1.6218,0.7287,2.5453,0.5625l38.5532-6.9371
		c1.8897-0.34,3.1507-2.1543,2.8106-4.0445l-1.8841-10.4711l13.9699-2.5137c1.8868-0.3395,3.1462-2.1515,2.8066-4.0389
		L60.276,8.8705C59.9426,7.0174,58.1636,5.781,56.3105,6.1144z M17.9641,14.544l38.613-6.9479
		c1.036-0.1864,2.0308,0.505,2.2172,1.541l0.2957,1.6433l-42.364,7.6228l-0.2957-1.6433
		C16.2439,15.7239,16.9319,14.7297,17.9641,14.544z M2.0978,36.906l15.8939-2.8599c0.0188,0.1013,0.6761,3.6426,0.6367,3.4307
		c0.0197,0.1094,0.0602,0.2086,0.0896,0.3135L2.7732,40.6594L2.0978,36.906z M16.9926,19.8849l42.3631-7.6226l0.6752,3.7524
		l-42.3631,7.6226L16.9926,19.8849z M3.0655,31.5718l14.0456-2.5273l0.6328,3.5166L1.8312,35.4243l-0.2951-1.6399
		C1.3499,32.7494,2.0362,31.757,3.0655,31.5718z M47.5706,46.5494c0.1931,1.0732-0.5228,2.1032-1.5955,2.2963l-0.1074,0.0193
		c-0.0101,0.0014-0.0195-0.0025-0.0297-0.0006L7.4194,55.7772c-0.514,0.0925-1.0177-0.0332-1.4168-0.3105
		c-0.3995-0.2809-0.6937-0.7148-0.7873-1.2349L3.0398,42.1411l16.4444-2.9589c0.7644,0.8279,1.9156,1.2661,3.1026,1.0525
		l23.0997-4.1565L47.5706,46.5494L47.5706,46.5494z M60.8715,31.8163L22.3202,38.753c-0.8927,0.1606-1.7525-0.3368-2.0899-1.1443
		c-3.1462-17.116-2.0611-11.2127-2.2959-12.4898l42.364-7.6228l2.1645,12.0295C62.6556,30.5959,61.9412,31.6238,60.8715,31.8163z"/>
	<path class="st0" d="M30.7868,25.5869c-0.8022,0.1443-1.5448,0.5235-2.1574,1.0724c-0.7572-0.306-1.5694-0.4018-2.3848-0.2551
		c-2.369,0.4263-3.9496,2.7005-3.5234,5.0695c0.4262,2.3686,2.7004,3.9491,5.0694,3.5229c0.8136-0.1464,1.5396-0.5177,2.1418-1.0658
		c0.751,0.3002,1.5816,0.3958,2.4004,0.2485c2.3633-0.4252,3.9395-2.6987,3.5134-5.0672
		C35.4199,26.743,33.15,25.1616,30.7868,25.5869z M27.5253,33.5219c-1.5558,0.28-3.0494-0.7577-3.3294-2.3135
		c-0.28-1.5558,0.7582-3.0495,2.314-3.3295c0.3874-0.0697,0.7748-0.0596,1.1479,0.0279c-0.3943,0.7761-0.5677,1.8438-0.4044,2.7514
		c0.1668,0.9271,0.7203,1.8668,1.339,2.4372C28.2727,33.3076,27.9127,33.4521,27.5253,33.5219z M32.0675,32.7045
		c-1.6145,0.2905-3.0664-0.7945-3.3395-2.3117c-0.2801-1.5567,0.7535-3.0487,2.3241-3.3313c1.5506-0.279,3.0394,0.76,3.3194,2.3158
		C34.6514,30.9332,33.618,32.4255,32.0675,32.7045z"/>
	<circle class="st1" cx="51.0392" cy="46.4877" r="11.4522"/>
</g>
</svg>
