<?xml version="1.0" encoding="utf-8"?>
<!-- Generator: Adobe Illustrator 24.0.2, SVG Export Plug-In . SVG Version: 6.00 Build 0)  -->
<svg version="1.1" id="Capa_1" xmlns="http://www.w3.org/2000/svg" xmlns:xlink="http://www.w3.org/1999/xlink" x="0px" y="0px"
	 width="64px" height="64px" viewBox="0 0 64 64" style="enable-background:new 0 0 64 64;" xml:space="preserve">
<style type="text/css">
	.st0{fill:#89105D;}
	.st1{opacity:0.71;fill:#008F94;enable-background:new    ;}
</style>
<g>
	<g>
		<g>
			<path class="st0" d="M63.8783,52.5038c-0.3843,0.9913-1.1187,1.3524-2.1595,1.3002c-1.0365-0.052-2.078,0.0023-3.1167-0.0187
				c-0.3581-0.0072-0.5442,0.1041-0.7119,0.4371c-1.3438,2.6671-3.5091,4.1383-6.5095,4.1286
				c-2.9722-0.0096-5.1261-1.4728-6.4523-4.118c-0.205-0.4088-0.4604-0.4445-0.8311-0.4442
				c-6.0893,0.0055-12.1786,0.0041-18.2679,0.0037c-1.0047-0.0001-1.4643-0.3053-1.442-0.9539
				c0.0215-0.6233,0.4771-0.9163,1.4366-0.9164c5.8815-0.0007,11.7629-0.0004,17.6444-0.0004c0.2435,0,0.487,0,0.7618,0
				c0-0.4984,0-0.9236,0-1.3893c-8.2782,0-16.5385,0-24.8365,0c0,0.4283,0,0.8545,0,1.3898c0.431,0,0.8765-0.0085,1.3215,0.0019
				c0.7517,0.0176,1.1475,0.3442,1.1529,0.9343c0.0055,0.601-0.3903,1.0016-1.1343,0.9152
				c-1.2322-0.1432-1.9086,0.2682-2.6174,1.3843c-2.9532,4.6499-9.89,4.1601-12.3266-0.7944
				c-0.2193-0.446-0.4501-0.6037-0.934-0.5821c-0.8919,0.0397-1.7891-0.0286-2.6799,0.0217
				c-1.0404,0.0588-1.7768-0.3054-2.1598-1.2992c0-0.8731,0-1.7462,0-2.6193c0.3313-0.7522,0.8572-1.2539,1.7742-1.2914
				c0-0.2843,0-0.5296,0-0.775c0-4.0529-0.0008-8.1057,0.0004-12.1586c0.0005-1.6458,0.7138-2.3637,2.343-2.3641
				c1.2877-0.0004,2.5754-0.0001,3.9667-0.0001c0-0.2674,0-0.5057,0-0.7441c0-4.5932-0.0008-9.1865,0.0005-13.7797
				c0.0004-1.6163,0.7001-2.3236,2.3024-2.3238c7.9602-0.0012,15.9205-0.0013,23.8807,0.0001
				c1.5702,0.0003,2.2907,0.7162,2.2912,2.2741c0.0015,4.5932,0.0006,9.1865,0.0006,13.7797c0,0.2435,0,0.4869,0,0.7616
				c1.3437,0,2.6212,0,3.9706,0c0-0.867-0.0009-1.7122,0.0003-2.5574c0.0013-0.8955,0.3128-1.3229,0.9519-1.3098
				c0.6105,0.0125,0.9181,0.4406,0.9183,1.2916c0.001,5.6948,0.0005,11.3896,0.0005,17.0844c0,0.2485,0,0.4969,0,0.8445
				c0.723,0,1.4199,0.0186,2.114-0.0172c0.1247-0.0064,0.2756-0.2183,0.3505-0.3674c1.3552-2.6989,3.5394-4.1858,6.5544-4.174
				c2.9879,0.0116,5.1482,1.4985,6.5002,4.1708c0.093,0.1838,0.3797,0.3503,0.5938,0.3754c0.4714,0.0552,0.954,0.0161,1.4319,0.0117
				c0.0596-0.0005,0.119-0.0241,0.2238-0.0467c0-1.2317,0-2.4676,0-3.8139c-0.7466,0-1.504,0.0005-2.2615-0.0001
				c-1.4432-0.0011-1.9131-0.4648-1.9146-1.8901c-0.0007-0.6651-0.0093-1.3303,0.003-1.9952
				c0.0172-0.9296,0.5362-1.4661,1.4648-1.5096c0.4563-0.0214,0.9143-0.0064,1.3715-0.007
				c0.4322-0.0006,0.8644-0.0001,1.3784-0.0001c0-1.2417,0.0122-2.418-0.0228-3.5929c-0.0029-0.096-0.3258-0.257-0.5029-0.2612
				c-1.0594-0.0248-2.1197-0.0126-3.1797-0.0126c-3.2423-0.0001-6.4846,0.0012-9.7269-0.0006
				c-1.4076-0.0008-1.8829-0.4708-1.8833-1.8563c-0.001-3.0345-0.0023-6.0689,0.0007-9.1034
				c0.0014-1.4238,0.7677-2.1923,2.1961-2.1955c2.3901-0.0054,4.7803-0.0016,7.1705-0.0016c0.223,0,0.4459,0,0.7493,0
				c-0.3282-0.7972-0.616-1.5259-0.9347-2.2407c-0.0516-0.1156-0.2402-0.2419-0.366-0.2423
				c-3.7381-0.0129-7.4763-0.0104-11.3108-0.0104c0,0.258,0,0.4766,0,0.6952c0,1.6419,0.0001,3.2839-0.0002,4.9258
				c0,0.1662,0.0092,0.3336-0.0066,0.4985c-0.0544,0.567-0.4636,0.9453-0.9814,0.918c-0.5021-0.0264-0.872-0.3926-0.8752-0.9493
				c-0.0121-2.0575-0.0292-4.1156,0.0098-6.1725c0.0199-1.0488,0.9192-1.7821,2.0903-1.7849
				c3.2007-0.0077,6.4014-0.0029,9.6022-0.0029c0.5196,0,1.0392-0.0034,1.5588,0.0015c0.9498,0.009,1.6138,0.4371,1.9833,1.3277
				c2.0358,4.9059,4.0824,9.8073,6.1062,14.7182c0.1449,0.3515,0.19,0.766,0.1912,1.1514
				c0.0131,4.2191,0.0082,8.4382,0.0082,12.6574c0,0.2453,0,0.4906,0,0.7751c0.9196,0.034,1.4437,0.5375,1.7742,1.2902
				C63.8783,50.7576,63.8783,51.6307,63.8783,52.5038z M40.4998,48.6216c0-4.5196,0-8.9714,0-13.4043
				c-12.2962,0-24.5454,0-36.7941,0c0,1.3905,0,2.7295,0,4.1392c0.9324,0,1.8223-0.0215,2.7106,0.0059
				c0.9278,0.0287,1.4471,0.5784,1.4649,1.5079c0.0127,0.6649,0.0038,1.3302,0.0031,1.9953
				c-0.0015,1.4246-0.4719,1.8883-1.9162,1.8894c-0.7574,0.0006-1.5147,0.0001-2.2595,0.0001c0,1.3477,0,2.5837,0,3.8667
				c0.3556,0,0.6701-0.0378,0.9719,0.008c0.6001,0.091,0.8911-0.1541,1.1789-0.6931c1.3597-2.5468,3.5294-3.9088,6.4124-3.8816
				c2.8811,0.0272,5.0212,1.4252,6.3478,3.9923c0.2195,0.4248,0.4325,0.5889,0.9248,0.5875
				c6.7549-0.0195,13.5098-0.0131,20.2647-0.0131C40.0321,48.6216,40.2549,48.6216,40.4998,48.6216z M9.9963,33.2615
				c2.701,0,5.3299,0,7.9829,0c0-4.9837,0-9.9336,0-14.8973c-2.682,0-5.3254,0-7.9829,0
				C9.9963,23.3466,9.9963,28.2828,9.9963,33.2615z M26.6882,33.255c2.6826,0,5.3283,0,7.9718,0c0-4.9922,0-9.9439,0-14.9046
				c-2.6749,0-5.3047,0-7.9718,0C26.6882,23.3332,26.6882,28.2837,26.6882,33.255z M46.8181,33.5508c4.3075,0,8.5631,0,12.8262,0
				c-0.0128-0.1054-0.0087-0.1501-0.024-0.1869c-1.2145-2.9297-2.4365-5.8563-3.6382-8.7911
				c-0.1426-0.3482-0.3639-0.3786-0.6758-0.3776c-2.3878,0.0079-4.7757,0.0043-7.1635,0.0043c-0.4307,0-0.8613,0-1.3246,0
				C46.8181,27.3511,46.8181,30.4366,46.8181,33.5508z M19.9241,33.252c1.6322,0,3.2181,0,4.8031,0c0-4.9948,0-9.9462,0-14.9007
				c-1.6245,0-3.1962,0-4.8031,0C19.9241,23.3215,19.9241,28.2586,19.9241,33.252z M17.4951,51.2165
				c0.004-2.936-2.3656-5.3146-5.2929-5.313c-2.9073,0.0016-5.3183,2.4225-5.3015,5.3231c0.0168,2.8941,2.3917,5.2656,5.2804,5.2727
				C15.1239,56.5066,17.4912,54.1532,17.4951,51.2165z M56.6972,51.2147c0.0061-2.908-2.35-5.2908-5.2517-5.3111
				c-2.9289-0.0205-5.3267,2.3592-5.3333,5.2931c-0.0066,2.9102,2.3496,5.2888,5.2525,5.3025
				C54.3108,56.513,56.691,54.1543,56.6972,51.2147z M61.9884,50.5519c-1.1785,0-2.3019,0-3.4126,0c0,0.4688,0,0.8779,0,1.3196
				c1.1502,0,2.2722,0,3.4126,0C61.9884,51.4108,61.9884,51.0003,61.9884,50.5519z M1.919,51.8645c1.0699,0,2.089,0,3.0842,0
				c0-0.4819,0-0.9048,0-1.341c-1.0454,0-2.049,0-3.0842,0C1.919,50.9783,1.919,51.4028,1.919,51.8645z M3.7012,41.2623
				c0,0.5447,0,1.0505,0,1.5871c0.7756,0,1.5113,0,2.2778,0c0-0.542,0-1.0494,0-1.5871
				C5.2088,41.2623,4.4732,41.2623,3.7012,41.2623z M57.9069,42.841c0.7961,0,1.5312,0,2.2783,0c0-0.5489,0-1.0541,0-1.5718
				c-0.7834,0-1.5182,0-2.2783,0C57.9069,41.807,57.9069,42.2995,57.9069,42.841z"/>
		</g>
		<path class="st1" d="M47.2485,7.0051v19.1398c0,0.9137,1.3078,1.1971,2.0689,1.1129c0.617-0.0683,1.2021-0.3096,1.7063-0.6716
			l11.9983-8.6165c2.164-1.7793,0-3.0241,0-3.0241L50.2782,6.0433C47.6814,4.6968,47.2485,7.0051,47.2485,7.0051z"/>
	</g>
	<path class="st0" d="M14.2889,51.1763c0.0033,1.1503-0.915,2.0845-2.0536,2.0892c-1.1217,0.0046-2.0809-0.9475-2.0882-2.0727
		c-0.0074-1.1366,0.9213-2.065,2.071-2.0703C13.3785,49.1172,14.2856,50.0168,14.2889,51.1763z"/>
	<path class="st0" d="M53.4756,51.1763c0.0033,1.1503-0.915,2.0845-2.0536,2.0892c-1.1217,0.0046-2.0809-0.9475-2.0882-2.0727
		c-0.0074-1.1366,0.9213-2.065,2.071-2.0703C52.5652,49.1172,53.4723,50.0168,53.4756,51.1763z"/>
</g>
</svg>
