<?xml version="1.0" encoding="utf-8"?>
<!-- Generator: Adobe Illustrator 24.0.2, SVG Export Plug-In . SVG Version: 6.00 Build 0)  -->
<svg version="1.1" id="Capa_1" xmlns="http://www.w3.org/2000/svg" xmlns:xlink="http://www.w3.org/1999/xlink" x="0px" y="0px"
	 width="64px" height="64px" viewBox="0 0 64 64" style="enable-background:new 0 0 64 64;" xml:space="preserve">
<style type="text/css">
	.st0{fill:#89105D;}
	.st1{opacity:0.71;fill:#008F94;}
</style>
<g>
	<g>
		<path class="st0" d="M64,48.2645c-0.3724,0.5221-0.8818,0.66-1.5086,0.6407c-1.2258-0.0378-2.4536-0.0111-3.7174-0.0111
			c-0.3785,2.0807-1.371,3.7588-3.1087,4.9481c-1.2747,0.8724-2.6998,1.2826-4.2419,1.2428
			c-3.0974-0.0801-6.2343-2.1914-6.9697-6.1548c-8.2936,0-16.5938,0-24.8895,0c-0.8724,4.3113-4.2246,6.15-7.1493,6.1614
			c-3.0654,0.012-6.4191-2.0128-7.2115-6.1975c-1.2795,0-2.5685,0.0019-3.8575-0.0006c-1.0096-0.002-1.3426-0.3348-1.3428-1.3505
			c-0.0014-6.728-0.0066-13.4561,0.0012-20.1841c0.0061-5.2072,3.8985-9.2337,9.1057-9.4289
			c0.7488-0.0281,1.4993-0.0128,2.2489-0.0128c11.5586-0.0006,23.1173-0.0314,34.6757,0.0112
			c6.9139,0.0255,12.1919,3.0376,15.7228,9.0066c1.2013,2.0309,1.8684,4.2574,2.1285,6.6043
			c0.0177,0.16,0.0752,0.3157,0.1142,0.4733C64,38.7633,64,43.5139,64,48.2645z M19.5836,46.8192c8.2753,0,16.5595,0,24.8348,0
			c1.2323-3.9465,3.4239-6.0486,6.7224-6.1374c4.216-0.1135,6.668,2.1644,7.6757,6.1122c1.0396,0,2.0476,0,3.1636,0
			c-0.1067-0.8236-0.1463-1.5944-0.3124-2.3368c-1.2088-5.4026-5.7024-8.9616-11.3278-8.9643
			c-15.8515-0.0076-31.7031-0.0027-47.5546-0.0027c-0.2214,0-0.4428,0-0.717,0c0,1.6251,0,3.1635,0,4.7019
			c0,2.0208-0.0029,4.0417,0.0042,6.0625c0.0009,0.2449-0.1097,0.5884,0.3363,0.5895c0.9326,0.0022,1.8653,0.0007,2.7772,0.0007
			c1.3716-4.208,3.7339-6.2173,7.2392-6.2005C15.9087,40.6608,18.2885,42.7067,19.5836,46.8192z M2.125,33.4032
			c0.2868,0,0.5525,0,0.8182,0c15.6229,0,31.2459-0.0001,46.8688,0.0006c0.3749,0,0.7504-0.0036,1.1245,0.0151
			c4.4375,0.2227,7.9806,2.1107,10.6054,5.706c0.0876,0.12,0.1927,0.2272,0.3744,0.4394c0-1.551,0.0513-2.9657-0.0167-4.3747
			c-0.0519-1.0757-0.2692-2.1425-0.3843-3.2163c-0.0536-0.5002-0.2894-0.6214-0.7733-0.6197
			c-4.9993,0.0178-9.9986,0.0129-14.998,0.0091c-1.002-0.0008-1.359-0.3622-1.3605-1.3573
			c-0.0033-2.1667-0.002-4.3335-0.0007-6.5002c0.0007-1.1284,0.3202-1.4506,1.4488-1.4517c2.458-0.0025,4.916,0,7.374-0.0023
			c0.2077-0.0002,0.4154-0.0206,0.6231-0.0316c-0.255-0.2576-0.5089-0.3963-0.7696-0.5208
			c-2.1986-1.0501-4.5187-1.5065-6.9526-1.5032c-9.7903,0.0136-19.5807,0.0052-29.3711,0.0059
			c-2.583,0.0002-5.1665-0.0305-7.7488,0.0135c-3.4587,0.059-6.6,2.911-6.8323,6.35C1.9991,28.6652,2.125,30.9844,2.125,33.4032z
			 M60.5751,29.2498c-0.0794-0.2032-0.1329-0.3777-0.2129-0.5392c-0.7828-1.5805-1.7795-3.0111-3.0686-4.2185
			c-0.2122-0.1988-0.5674-0.3428-0.8579-0.3451c-3.0819-0.0245-6.1641-0.0152-9.2462-0.0152c-0.2229,0-0.4457,0-0.6864,0
			c0,1.7445,0,3.4175,0,5.118C51.2027,29.2498,55.8599,29.2498,60.5751,29.2498z M12.369,42.7199
			c-2.8699,0.0121-5.1406,2.3066-5.1289,5.1827c0.0116,2.8558,2.3302,5.1392,5.1978,5.1191
			c2.8283-0.0198,5.0975-2.3159,5.0969-5.157C17.5342,44.9958,15.2367,42.7077,12.369,42.7199z M46.4669,47.8671
			c-0.0028,2.8655,2.2935,5.1597,5.1594,5.1546c2.8315-0.005,5.123-2.2902,5.1354-5.1212c0.0126-2.8736-2.2626-5.1705-5.1318-5.1807
			C48.7609,42.7097,46.4698,44.9938,46.4669,47.8671z"/>
		<path class="st0" d="M9.2509,39.6224c-1.6437-0.0002-3.2874,0.0076-4.931-0.0037c-0.7401-0.0051-1.1764-0.3824-1.2037-0.9895
			c-0.03-0.667,0.424-1.087,1.2248-1.0902c2.1222-0.0085,4.2444-0.0031,6.3666-0.0032c1.1651,0,2.3303-0.0054,3.4954,0.0021
			c0.7932,0.0051,1.2908,0.4211,1.2833,1.0499c-0.0074,0.6267-0.5036,1.0296-1.3045,1.0327
			C12.5382,39.627,10.8945,39.6225,9.2509,39.6224z"/>
		<path class="st0" d="M18.5329,39.6157c-0.3317,0-0.6654,0.0236-0.9946-0.0051c-0.6065-0.053-1.0312-0.5059-1.0214-1.0499
			c0.0094-0.5257,0.4149-0.9786,0.9929-1.0077c0.7236-0.0365,1.4525-0.0396,2.1754,0.0045
			c0.5833,0.0356,0.9563,0.4913,0.9479,1.0367c-0.008,0.5173-0.3696,0.9156-0.9191,1.0112
			c-0.0407,0.0071-0.0824,0.0118-0.1237,0.0119c-0.3524,0.0009-0.7049,0.0005-1.0573,0.0005
			C18.5329,39.6171,18.5329,39.6164,18.5329,39.6157z"/>
		<path class="st0" d="M37.6849,22.0528c1.4367-0.0001,2.8734-0.0045,4.3101,0.0014c1.0094,0.0042,1.3656,0.3551,1.3674,1.3464
			c0.0041,2.2075,0.0044,4.4149-0.0002,6.6224c-0.002,0.9594-0.3671,1.3366-1.3177,1.3388c-2.915,0.0068-5.83,0.007-8.745-0.0003
			c-0.9257-0.0023-1.295-0.377-1.2968-1.2889c-0.0044-2.2491-0.0044-4.4982,0.0001-6.7473
			c0.0018-0.8861,0.3627-1.2614,1.2472-1.2688C34.7282,22.0439,36.2066,22.053,37.6849,22.0528z M41.253,24.1804
			c-2.4331,0-4.7904,0-7.1301,0c0,1.7191,0,3.3889,0,5.0471c2.4129,0,4.7696,0,7.1301,0C41.253,27.52,41.253,25.8628,41.253,24.1804
			z"/>
		<path class="st0" d="M12.9135,31.3645c-1.4365,0-2.8729,0.0042-4.3094-0.0014c-1.0184-0.0039-1.3646-0.3441-1.3661-1.3385
			c-0.0034-2.2279-0.004-4.4559,0.0004-6.6838c0.0018-0.9241,0.3545-1.2832,1.2869-1.2854
			c2.9145-0.0069,5.8291-0.0065,8.7437-0.0002c0.957,0.0021,1.3176,0.3668,1.3206,1.3311c0.0069,2.2071,0.0066,4.4142,0.0001,6.6213
			c-0.0029,0.9911-0.369,1.3509-1.3668,1.3552C15.7864,31.3691,14.3499,31.3644,12.9135,31.3645z M16.4866,24.1718
			c-2.4215,0-4.7835,0-7.1591,0c0,1.7143,0,3.3882,0,5.065c2.4088,0,4.772,0,7.1591,0
			C16.4866,27.537,16.4866,25.8777,16.4866,24.1718z"/>
		<path class="st0" d="M25.298,31.3645c-1.4158,0-2.8316,0.0025-4.2473-0.0008c-1.0981-0.0026-1.4295-0.3286-1.4303-1.4037
			c-0.0017-2.1865-0.0022-4.373,0.0002-6.5595c0.0011-0.9862,0.3337-1.3427,1.2928-1.3451
			c2.9148-0.0072,5.8297-0.0067,8.7445-0.0002c0.9571,0.0021,1.3172,0.3698,1.3196,1.3326c0.0055,2.2073,0.0054,4.4146,0.0001,6.622
			c-0.0024,0.9864-0.3706,1.3487-1.3697,1.353C28.1712,31.369,26.7346,31.3644,25.298,31.3645z M28.8707,24.1772
			c-2.4292,0-4.788,0-7.1479,0c0,1.7172,0,3.3885,0,5.0545c2.4118,0,4.7721,0,7.1479,0
			C28.8707,27.5275,28.8707,25.8693,28.8707,24.1772z"/>
		<path class="st0" d="M12.4222,44.7709c1.6974,0.0186,3.0856,1.4356,3.0668,3.1303c-0.0189,1.6939-1.4468,3.0918-3.1334,3.0676
			c-1.6991-0.0244-3.0962-1.4515-3.0682-3.134C9.3157,46.1306,10.7259,44.7524,12.4222,44.7709z M13.4009,47.8778
			c0.0049-0.5874-0.4337-1.0256-1.022-1.0208c-0.5612,0.0045-0.9913,0.4205-1.0087,0.9756
			c-0.0182,0.5805,0.4189,1.0456,0.9944,1.0582C12.9452,48.9034,13.396,48.4627,13.4009,47.8778z"/>
		<path class="st0" d="M54.7141,47.8871c-0.0129,1.6962-1.4345,3.1002-3.1205,3.0818c-1.7013-0.0186-3.093-1.428-3.0807-3.1199
			c0.0123-1.698,1.4202-3.0874,3.1191-3.078C53.3277,44.7802,54.7269,46.195,54.7141,47.8871z M52.6318,47.8399
			c-0.0144-0.579-0.4759-1.0053-1.0639-0.9829c-0.557,0.0213-0.9679,0.4518-0.9671,1.0135c0.0008,0.586,0.4475,1.0292,1.0283,1.0203
			C52.2042,48.8819,52.6462,48.4186,52.6318,47.8399z"/>
	</g>
	<path class="st1" d="M37.1574,31.0739h25.35c1.2101,0,1.5855-1.7321,1.474-2.7402c-0.0904-0.8172-0.41-1.5922-0.8895-2.26
		L51.6796,10.1823c-2.3566-2.8662-4.0054,0-4.0054,0L35.8835,27.0611C34.1,30.5005,37.1574,31.0739,37.1574,31.0739z"/>
</g>
</svg>
