<?xml version="1.0" encoding="utf-8"?>
<!-- Generator: Adobe Illustrator 24.0.2, SVG Export Plug-In . SVG Version: 6.00 Build 0)  -->
<svg version="1.1" id="Capa_1" xmlns="http://www.w3.org/2000/svg" xmlns:xlink="http://www.w3.org/1999/xlink" x="0px" y="0px"
	 width="488.5786px" height="83.0589px" viewBox="0 0 488.5786 83.0589" style="enable-background:new 0 0 488.5786 83.0589;"
	 xml:space="preserve">
<style type="text/css">
	.st0{fill:#FFFFFF;}
	.st1{fill:#FF0D6D;}
</style>
<path class="st0" d="M35.2812,7.1064c3.5868,0,7.0485,0.5352,10.3097,1.5302c1.5272,0.4659-1.8652,8.4705-0.4337,9.1303
	c2.2748,1.0485,9.2945-5.1058,11.2769-3.6184c8.5779,6.436,14.1274,16.6892,14.1274,28.2383
	c0,19.4851-15.7953,35.2804-35.2804,35.2804S0.0009,61.8719,0.0009,42.3868C0.0009,22.9025,15.7961,7.1064,35.2812,7.1064"/>
<g>
	<path class="st0" d="M94.645,23.9358c-0.3252-0.8843-0.8584-1.582-1.5835-2.0723c-0.7207-0.4897-1.4937-0.7227-2.3037-0.7354
		c-0.8989-0.0957-1.7495,0.1187-2.5308,0.6392c-0.7646,0.5127-1.3379,1.2383-1.7017,2.1494L71.0785,61.0926
		c-0.1377,0.4585-0.2075,0.9038-0.2075,1.3237c0,1.0327,0.3125,1.916,0.9272,2.623c0.6323,0.7344,1.5938,1.1069,2.8569,1.1069
		c0.8032,0,1.5586-0.251,2.2456-0.7471c0.6782-0.4927,1.1855-1.187,1.499-2.041l3.0854-7.27h17.8188l3.0864,7.2061
		c0.3628,0.8652,0.8848,1.5605,1.5518,2.0659c0.688,0.5215,1.4673,0.7861,2.3164,0.7861c0.9897,0,1.9062-0.3779,2.7246-1.1245
		c0.8271-0.7593,1.2466-1.7817,1.2466-3.0386c0-0.5186-0.1123-1.0645-0.3491-1.6841L94.645,23.9358z M84.9404,47.9461
		l5.4136-12.7554l5.4629,12.7554H84.9404z"/>
	<path class="st0" d="M137.0309,33.0354c-1.6338-1.3525-4.0244-2.0386-7.1045-2.0386c-1.4199,0-2.7515,0.2305-3.9561,0.6841
		c-1.1909,0.4453-2.2954,1.042-3.2817,1.7734c-0.855,0.6318-1.6069,1.3159-2.2397,2.0366V23.1756
		c0-1.2041-0.4019-2.2295-1.1953-3.0488c-0.7983-0.8218-1.8159-1.2388-3.0229-1.2388c-1.2061,0-2.2227,0.417-3.0225,1.2393
		c-0.793,0.8179-1.1948,1.8433-1.1948,3.0483v38.3721c0,1.208,0.4023,2.2339,1.1943,3.0479
		c0.7969,0.8228,1.8135,1.2397,3.0229,1.2397c1.2104,0,2.228-0.417,3.0229-1.2388c0.7935-0.8164,1.1953-1.8423,1.1953-3.0488
		V45.6541c0-1.2798,0.2637-2.4473,0.7832-3.4692c0.5107-1.0044,1.291-1.8237,2.3188-2.4346
		c1.0337-0.6138,2.3027-0.9248,3.7729-0.9248c1.4893,0,2.6387,0.3003,3.415,0.8921c0.7881,0.6035,1.3184,1.3838,1.6211,2.3848
		c0.3145,1.0488,0.4746,2.2437,0.4746,3.5518v15.8936c0,1.2075,0.4014,2.2329,1.1934,3.0479
		c0.7969,0.8228,1.8145,1.2397,3.0244,1.2397c1.2109,0,2.2275-0.417,3.0225-1.2388c0.793-0.8164,1.1953-1.8423,1.1953-3.0488
		V45.6541c0-2.6387-0.2969-5.0747-0.8838-7.2407C139.7829,36.1902,138.654,34.3811,137.0309,33.0354z"/>
	<path class="st0" d="M169.5624,33.2693c-2.6064-1.5078-5.5576-2.2725-8.7705-2.2725c-3.2119,0-6.1631,0.7646-8.7705,2.2725
		c-2.6045,1.5059-4.708,3.6138-6.2529,6.2646c-1.5479,2.6504-2.332,5.7539-2.332,9.2231c0,3.4678,0.7842,6.5718,2.332,9.2256
		c1.5449,2.6519,3.6494,4.7495,6.2549,6.2339c2.6064,1.4868,5.5566,2.2407,8.7686,2.2407c3.2129,0,6.1631-0.7539,8.7676-2.2402
		c2.6045-1.4829,4.7109-3.5806,6.2588-6.2349c1.5459-2.6533,2.3291-5.7573,2.3291-9.2251c0-3.4692-0.7832-6.5723-2.3291-9.2231
		C174.2704,36.8811,172.1659,34.7732,169.5624,33.2693z M169.7118,48.7571c0,1.9741-0.4062,3.7212-1.208,5.1924
		c-0.8037,1.4702-1.8906,2.6294-3.2305,3.4458c-1.3418,0.8169-2.8496,1.231-4.4814,1.231c-1.6328,0-3.1396-0.4141-4.4795-1.2305
		c-1.3428-0.8184-2.4297-1.9775-3.2305-3.4463c-0.8018-1.4683-1.208-3.2148-1.208-5.1924c0-2.0166,0.4062-3.7847,1.209-5.2554
		c0.7979-1.4648,1.8857-2.624,3.2305-3.4458c1.3389-0.8164,2.8457-1.2305,4.4785-1.2305c1.6318,0,3.1396,0.4141,4.4805,1.2305
		c1.3428,0.8198,2.4297,1.9795,3.2305,3.4453C169.3055,44.9759,169.7118,46.7439,169.7118,48.7571z"/>
	<path class="st0" d="M203.1233,32.1674c-0.9355-0.7764-2.0957-1.1704-3.4482-1.1704c-1.0684,0-2.1504,0.1304-3.2148,0.3872
		c-1.0703,0.2549-2.0938,0.6582-3.0439,1.1992c-0.9531,0.5444-1.8154,1.2231-2.5635,2.0166
		c-0.1807,0.1909-0.3535,0.3896-0.5195,0.5952c-0.1289-0.9019-0.5127-1.686-1.1445-2.3389
		c-0.7969-0.8228-1.8145-1.2397-3.0244-1.2397c-1.209,0-2.2256,0.417-3.0225,1.2393c-0.792,0.8179-1.1943,1.8433-1.1943,3.0483
		v25.6436c0,1.208,0.4023,2.2339,1.1943,3.0479c0.7969,0.8228,1.8135,1.2397,3.0225,1.2397c1.21,0,2.2275-0.417,3.0234-1.2388
		c0.793-0.8164,1.1953-1.8423,1.1953-3.0488V46.8333c0-1.4253,0.1885-2.6748,0.5596-3.7134
		c0.3701-1.0352,0.8604-1.9116,1.458-2.6045c0.5908-0.687,1.2422-1.1973,1.9365-1.5171c1.4756-0.6792,2.9707-0.5791,4.0449-0.0942
		c0.6982,0.3193,1.4873,0.481,2.3457,0.481c0.9453,0,1.8262-0.3433,2.6172-1.0205c0.8154-0.6953,1.2295-1.8154,1.2295-3.3291
		C204.5745,33.9324,204.0862,32.9676,203.1233,32.1674z"/>
	<path class="st0" d="M229.0168,32.1674c-0.9355-0.7764-2.0957-1.1704-3.4482-1.1704c-1.0684,0-2.1504,0.1304-3.2148,0.3872
		c-1.0703,0.2549-2.0938,0.6582-3.0439,1.1992c-0.9531,0.5444-1.8154,1.2231-2.5635,2.0171
		c-0.1807,0.1909-0.3535,0.3896-0.5186,0.5952c-0.1299-0.9019-0.5137-1.6865-1.1455-2.3394
		c-0.7969-0.8228-1.8135-1.2397-3.0234-1.2397s-2.2266,0.417-3.0234,1.2393c-0.792,0.8179-1.1943,1.8433-1.1943,3.0483v25.6436
		c0,1.208,0.4023,2.2339,1.1943,3.0479c0.7969,0.8228,1.8135,1.2397,3.0234,1.2397s2.2266-0.417,3.0225-1.2388
		c0.793-0.8164,1.1953-1.8423,1.1953-3.0488V46.8333c0-1.4253,0.1885-2.6748,0.5596-3.7134
		c0.3691-1.0337,0.8604-1.9097,1.458-2.6045c0.5908-0.687,1.2422-1.1973,1.9365-1.5171c1.4756-0.6792,2.9707-0.5791,4.0449-0.0942
		c0.6982,0.3193,1.4873,0.481,2.3457,0.481c0.9453,0,1.8262-0.3433,2.6172-1.0205c0.8154-0.6953,1.2295-1.8154,1.2295-3.3291
		C230.468,33.9324,229.9797,32.9676,229.0168,32.1674z"/>
	<path class="st0" d="M260.0312,30.9969c-1.209,0-2.2256,0.416-3.0244,1.2373c-0.5771,0.5957-0.9463,1.3032-1.1045,2.1104
		c-0.1602-0.1304-0.3252-0.2603-0.4961-0.3896c-1.1309-0.8555-2.4775-1.5693-4.0049-2.1221
		c-1.5391-0.5547-3.2432-0.8359-5.0645-0.8359c-2.8525,0-5.4873,0.769-7.832,2.2852c-2.3359,1.5098-4.2188,3.6206-5.5947,6.2734
		c-1.374,2.6455-2.0703,5.7417-2.0703,9.2017c0,3.4204,0.6963,6.4961,2.0703,9.1416c1.376,2.6538,3.2812,4.7656,5.6611,6.2764
		c2.3848,1.5142,5.0811,2.2822,8.0127,2.2822c1.6221,0,3.1523-0.2725,4.5498-0.8101c1.3828-0.5352,2.6006-1.1948,3.6211-1.9604
		c0.4346-0.3271,0.833-0.6582,1.1934-0.9922c0.1777,0.7222,0.5312,1.3584,1.0586,1.9009c0.7969,0.8228,1.8145,1.2397,3.0244,1.2397
		s2.2275-0.417,3.0234-1.2393c0.793-0.8169,1.1953-1.8428,1.1953-3.0483V35.2845c0-1.2485-0.4033-2.2866-1.2002-3.0859
		C262.2539,31.4012,261.2383,30.9969,260.0312,30.9969z M256.124,48.7571c0,1.8604-0.3691,3.5625-1.0977,5.0596
		c-0.7207,1.4858-1.7354,2.6729-3.0176,3.5283c-1.2734,0.8501-2.7852,1.2812-4.4951,1.2812c-1.6699,0-3.1602-0.4312-4.4316-1.2817
		c-1.2822-0.8555-2.2988-2.0425-3.0195-3.5283c-0.7275-1.4956-1.0957-3.1978-1.0957-5.0591c0-1.9004,0.3682-3.624,1.0947-5.1216
		c0.7217-1.4834,1.7383-2.6704,3.0205-3.5283c1.2754-0.8506,2.7656-1.2817,4.4316-1.2817c1.7061,0,3.2188,0.4312,4.4941,1.2812
		c1.2822,0.8579,2.2979,2.0454,3.0186,3.5283C255.7549,45.1341,256.124,46.8572,256.124,48.7571z"/>
	<path class="st0" d="M299.479,44.635c-1.2695-0.9751-2.8037-1.8037-4.5605-2.4629c-1.7217-0.6436-3.627-1.2236-5.6543-1.7217
		c-1.835-0.4893-3.5234-1.0562-5.0176-1.6851c-1.4531-0.6104-2.623-1.4028-3.4756-2.3569c-0.832-0.9263-1.2363-2.0859-1.2363-3.5454
		c0-1.2837,0.3691-2.3892,1.0967-3.2856c0.7451-0.9199,1.8115-1.6528,3.1699-2.1782c1.3779-0.5342,3.0059-0.8047,4.8389-0.8047
		c1.2256,0,2.46,0.1816,3.6689,0.5396c1.2129,0.3569,2.3652,0.8423,3.4268,1.4429c1.042,0.5933,1.9072,1.2695,2.6357,2.0728
		c0.459,0.3574,0.9785,0.5386,1.5459,0.5386c0.7959,0,1.5098-0.3096,2.1211-0.9219c0.6113-0.6152,0.9209-1.2881,0.9209-1.9995
		c0-0.9238-0.4697-1.8394-1.377-2.7012c-1.4082-1.498-3.2969-2.6895-5.6123-3.5415c-2.2979-0.8442-4.7637-1.2725-7.3301-1.2725
		c-2.9072,0-5.5293,0.5161-7.7959,1.5347c-2.2812,1.0244-4.0908,2.4697-5.3799,4.2969c-1.293,1.8384-1.9492,4.0142-1.9492,6.4668
		c0,1.9712,0.3389,3.7017,1.0068,5.1436c0.668,1.4492,1.6309,2.6992,2.8623,3.7144c1.208,1.0005,2.6494,1.8418,4.2822,2.4995
		c1.585,0.6426,3.3711,1.2046,5.3018,1.6689c2.1152,0.5308,3.998,1.1479,5.5938,1.8354c1.5566,0.6738,2.7891,1.5278,3.6621,2.5386
		c0.8564,0.9907,1.2725,2.2246,1.2725,3.7715c0,1.2559-0.3877,2.3286-1.1846,3.2798c-0.8076,0.9648-1.9082,1.7314-3.2715,2.2778
		c-1.3818,0.5522-2.9668,0.8325-4.7109,0.8325c-2.2803,0-4.3496-0.4033-6.1504-1.1992c-1.8184-0.8008-3.5303-1.9785-5.084-3.4971
		c-0.5508-0.5493-1.1914-0.8276-1.9033-0.8276c-0.8486,0-1.5674,0.3164-2.1318,0.9375c-0.5615,0.6079-0.8457,1.3174-0.8457,2.1079
		c0,0.4888,0.1113,0.9604,0.3311,1.4033c0.2158,0.4307,0.4961,0.7959,0.8203,1.0742c2.1855,2.02,4.4902,3.5156,6.8506,4.4453
		c2.3643,0.9297,5.1357,1.4009,8.2373,1.4009c2.8252,0,5.4092-0.5381,7.6787-1.6001c2.2793-1.0684,4.1064-2.5435,5.4316-4.3838
		c1.3369-1.8604,2.0146-4.0054,2.0146-6.376c0-2.2158-0.3594-4.1143-1.0693-5.6431
		C301.7964,46.9178,300.7768,45.6326,299.479,44.635z"/>
	<path class="st0" d="M332.0921,36.2327c-1.4238-1.4043-3.0635-2.4858-4.875-3.2144c-1.8086-0.7236-3.7363-1.0908-5.7314-1.0908
		c-2.6377,0-5.1729,0.7021-7.5352,2.0869c-2.3613,1.3853-4.2988,3.4116-5.7598,6.0225c-1.4609,2.6094-2.2021,5.7944-2.2021,9.4668
		c0,3.3027,0.7197,6.2573,2.1406,8.7798c1.4209,2.5317,3.4336,4.5488,5.9814,5.9956c2.542,1.4453,5.5449,2.1782,8.9238,2.1782
		c2.291,0,4.4902-0.4971,6.5371-1.4775c2.0322-0.9756,3.6689-2.1436,4.8115-3.4194c0.8193-0.6758,1.2344-1.4526,1.2344-2.3096
		c0-0.7139-0.2578-1.334-0.7656-1.8433c-0.9131-0.917-2.3389-1.0933-3.7373-0.1196l-0.0801,0.0703
		c-0.5137,0.5537-1.1553,1.1055-1.9072,1.6396c-0.7432,0.5293-1.6299,0.9785-2.6338,1.3345
		c-0.9971,0.3511-2.2236,0.5288-3.6445,0.5288c-2.1689,0-4.1045-0.5078-5.752-1.5098c-1.6494-1.0029-2.9541-2.3901-3.877-4.123
		c-0.7314-1.3696-1.1777-2.9351-1.334-4.6675h21.9297c0.7852,0,1.4805-0.2612,2.0664-0.7759
		c0.5967-0.5239,0.9238-1.1929,0.9756-2.0298c-0.043-2.4146-0.4951-4.6104-1.3438-6.5273
		C334.6644,39.3148,333.513,37.6346,332.0921,36.2327z M312.6576,43.7796c0.5479-1.4546,1.291-2.647,2.207-3.5444
		c0.9141-0.8979,1.96-1.5703,3.1084-1.999c2.5898-0.9663,5.2881-0.8438,7.665,0.2935c1.3096,0.6284,2.4395,1.5317,3.3564,2.6851
		c0.9043,1.1372,1.4414,2.521,1.5957,4.064h-18.3779C312.3324,44.7459,312.4818,44.2459,312.6576,43.7796z"/>
	<path class="st0" d="M368.3762,32.4256c-0.8828,0-1.6094,0.2925-2.1572,0.8682c-0.5439,0.5684-0.8203,1.2798-0.8203,2.1152V36.85
		c-0.4756-0.5391-1.0186-1.0654-1.627-1.5752c-1.1729-0.9829-2.5645-1.7944-4.1357-2.4116
		c-1.5801-0.6206-3.3105-0.9355-5.1406-0.9355c-2.9316,0-5.6162,0.7461-7.9785,2.2183c-2.3594,1.4697-4.2539,3.5288-5.6309,6.1196
		c-1.376,2.584-2.0732,5.5874-2.0732,8.9272c0,3.2983,0.6973,6.2808,2.0732,8.8647c1.3789,2.5928,3.2832,4.6616,5.6611,6.1489
		c2.3828,1.4937,5.0986,2.251,8.0723,2.251c1.4033,0,2.8203-0.2275,4.2139-0.6763c1.3838-0.4492,2.6484-1.0781,3.7607-1.8701
		c1.083-0.7729,2.0264-1.6689,2.8047-2.6646v1.8545c0,2.8662-0.8984,5.1997-2.6699,6.936
		c-1.7773,1.7402-4.3594,2.6221-7.6748,2.6221c-0.9404,0-1.9268-0.1104-2.9277-0.3291c-1.0117-0.2246-1.9199-0.4795-2.6963-0.7578
		c-0.8105-0.2939-1.4043-0.502-1.7471-0.6143c-0.9736-0.4014-1.7754-0.5957-2.4521-0.5957c-0.7676,0-1.416,0.3799-1.8711,1.0918
		c-0.4189,0.6299-0.5225,1.2783-0.3066,1.9248c0.1885,0.5693,0.6182,1.1123,1.2783,1.6152c0.373,0.5625,1.1445,1.0791,2.3516,1.5771
		c1.1777,0.4834,2.5527,0.8896,4.0859,1.2051c1.5293,0.3164,2.9502,0.4766,4.2227,0.4766c2.9902,0,5.75-0.5684,8.2012-1.6904
		c2.4766-1.1348,4.4766-2.8906,5.9473-5.2158c1.4707-2.3276,2.2158-5.269,2.2158-8.7437V35.409c0-0.8315-0.2754-1.543-0.8203-2.1152
		C369.9837,32.7176,369.2571,32.4256,368.3762,32.4256z M365.6458,49.1927c0,2.2671-0.4609,4.2988-1.3691,6.0396
		c-0.9062,1.7354-2.1611,3.123-3.7285,4.125c-1.5645,0.998-3.3711,1.5039-5.3711,1.5039c-2.04,0-3.8662-0.5161-5.4287-1.5342
		c-1.5693-1.0205-2.8242-2.4292-3.7324-4.1875c-0.9082-1.7578-1.3682-3.7583-1.3682-5.9468c0-2.229,0.46-4.252,1.3682-6.0117
		c0.9062-1.7539,2.1611-3.1509,3.7295-4.1528c1.5654-1,3.3926-1.5068,5.4316-1.5068c1.998,0,3.8066,0.4971,5.374,1.4761
		c1.5654,0.9824,2.8184,2.3691,3.7246,4.1206C365.1848,44.8807,365.6458,46.9246,365.6458,49.1927z"/>
	<path class="st0" d="M400.1819,32.7337c-0.8809,0-1.6064,0.2925-2.1582,0.8687c-0.5439,0.5693-0.8203,1.3022-0.8203,2.1772v16.8892
		c0,2.6655-0.6807,4.6982-2.0234,6.0425c-1.3398,1.3438-3.2852,2.0254-5.7803,2.0254c-2.4551,0-4.3789-0.6816-5.7197-2.0259
		c-1.3418-1.3428-2.0225-3.376-2.0225-6.042V35.7796c0-0.875-0.2764-1.6079-0.8203-2.1777
		c-0.5527-0.5762-1.2783-0.8682-2.1572-0.8682c-0.834,0-1.5479,0.2896-2.1201,0.8608c-0.5703,0.5693-0.8594,1.3047-0.8594,2.1851
		v16.8892c0,4.3013,1.2285,7.6904,3.6504,10.0742c2.4209,2.3818,5.8018,3.5898,10.0488,3.5898c4.2881,0,7.6895-1.208,10.1104-3.5898
		c2.4229-2.3843,3.6514-5.7739,3.6514-10.0742V35.7796c0-0.874-0.2754-1.6064-0.8213-2.1782
		C401.7854,33.0257,401.0598,32.7337,400.1819,32.7337z"/>
	<path class="st0" d="M425.9432,32.6448c-0.835-0.4761-1.7627-0.7173-2.7568-0.7173c-1.5928,0-3.0781,0.2964-4.4141,0.8804
		c-1.3252,0.5767-2.5225,1.3833-3.5586,2.3984c-0.8516,0.8374-1.585,1.7705-2.1865,2.7812v-2.208
		c0-0.875-0.2764-1.6079-0.8203-2.1777c-0.5527-0.5762-1.2783-0.8682-2.1572-0.8682c-0.834,0-1.5479,0.2896-2.1201,0.8608
		c-0.5703,0.5693-0.8594,1.3047-0.8594,2.1851v27.0098c0,0.835,0.2861,1.5576,0.8516,2.1479
		c0.5713,0.5957,1.2871,0.8979,2.1279,0.8979c0.8389,0,1.5537-0.3022,2.127-0.8989c0.5645-0.5913,0.8506-1.314,0.8506-2.147V47.702
		c0-1.4209,0.249-2.769,0.7402-4.0068c0.4922-1.2451,1.1533-2.3691,1.9629-3.3398c0.8057-0.9653,1.6982-1.7319,2.6533-2.2778
		c0.9307-0.5322,1.8799-0.8022,2.8203-0.8022c0.6602,0,1.2109,0.1069,1.6338,0.3174c1.2139,0.6089,2.6416,0.6147,3.6699-0.3652
		c0.5537-0.5327,0.835-1.312,0.835-2.3164C427.3426,33.951,426.8592,33.1678,425.9432,32.6448z"/>
	<path class="st0" d="M452.9402,34.1712c-2.4854-1.4888-5.334-2.2437-8.4678-2.2437c-3.0908,0-5.9287,0.7544-8.4355,2.2427
		c-2.502,1.4888-4.5117,3.5571-5.9727,6.1465c-1.4619,2.5884-2.2031,5.5747-2.2031,8.876s0.7412,6.2876,2.2031,8.8755
		c1.4619,2.5918,3.4717,4.6592,5.9727,6.144c2.5049,1.4897,5.3428,2.2451,8.4355,2.2451c3.1357,0,5.9844-0.7559,8.4678-2.2456
		c2.4795-1.4849,4.4688-3.5522,5.9121-6.146c1.4404-2.5884,2.1709-5.5737,2.1709-8.873s-0.7305-6.2847-2.1709-8.873
		C457.4099,37.7278,455.4206,35.6595,452.9402,34.1712z M455.0652,49.1927c0,2.2642-0.4697,4.2949-1.3975,6.0356
		c-0.9268,1.7368-2.2031,3.1255-3.792,4.1274c-1.584,0.999-3.4014,1.5054-5.4033,1.5054c-1.9629,0-3.7705-0.5068-5.373-1.5068
		c-1.6104-1.0024-2.8965-2.3906-3.8203-4.126c-0.9277-1.7383-1.3984-3.769-1.3984-6.0356c0-2.3062,0.4697-4.3472,1.3975-6.0664
		c0.9238-1.7144,2.21-3.0923,3.8213-4.0952c1.6055-1.002,3.4131-1.5098,5.373-1.5098c1.998,0,3.8164,0.5073,5.4033,1.5083
		c1.5898,1.0024,2.8662,2.3809,3.793,4.0962C454.5954,44.8475,455.0652,46.8885,455.0652,49.1927z"/>
	<path class="st0" d="M487.653,52.4056c-0.6123-1.1602-1.4551-2.1279-2.5068-2.877c-1.0205-0.7241-2.1768-1.3198-3.4365-1.77
		c-1.2119-0.4331-2.5098-0.8247-3.8428-1.1597c-1.4189-0.4038-2.7422-0.8281-3.9316-1.2603
		c-1.124-0.4082-2.0215-0.9434-2.668-1.5908c-0.6162-0.6167-0.9336-1.4009-0.9697-2.3789c0-1.0762,0.2686-1.877,0.8203-2.4468
		c0.5801-0.5991,1.3145-1.0469,2.1816-1.3311c0.8936-0.292,1.7998-0.4404,2.6953-0.4404c1.4951,0,2.8779,0.2686,4.1094,0.7983
		c1.2236,0.5239,2.2764,1.3022,3.1582,2.3442c0.4639,0.4653,1.0469,0.7129,1.7295,0.7363c0.6816,0.0283,1.2891-0.1626,1.8633-0.5854
		c0.7002-0.6021,1.0303-1.3047,0.9795-2.0903c-0.0498-0.7314-0.3008-1.3545-0.7305-1.8315
		c-0.9414-1.1597-2.0557-2.0903-3.3125-2.7661c-1.2334-0.6592-2.5176-1.1348-3.8193-1.4146
		c-3.6143-0.769-6.8428-0.4521-9.5693,0.7456c-1.7686,0.7793-3.2021,1.8989-4.2598,3.3276
		c-1.0723,1.4468-1.6162,3.1763-1.6162,5.1406c0,1.6992,0.3467,3.1519,1.0293,4.3174c0.6719,1.1543,1.5762,2.1274,2.6885,2.8931
		c1.0869,0.748,2.3262,1.3638,3.6826,1.8301c1.2881,0.4448,2.6533,0.8662,4.0654,1.2529c1.2734,0.3306,2.4746,0.7114,3.5732,1.1328
		c1.0615,0.4048,1.9326,0.9316,2.5869,1.5654c0.6084,0.5933,0.9033,1.3804,0.9033,2.4067c0,1.0776-0.29,1.9097-0.8877,2.5444
		c-0.6143,0.6533-1.3926,1.1187-2.3145,1.3823c-0.9756,0.2788-1.9268,0.4399-2.8057,0.478c-2.0557,0-3.8105-0.3872-5.2148-1.1514
		c-1.4248-0.7725-2.7109-1.8301-3.8359-3.1592c-0.5449-0.5913-1.168-0.9165-1.8506-0.9658
		c-0.6582-0.0464-1.2764,0.1025-1.8369,0.4595c-0.7969,0.5469-1.2139,1.2124-1.2402,1.9771
		c-0.0244,0.6973,0.1572,1.3657,0.54,1.9873l0.0283,0.0415c1.665,2.1797,3.6777,3.7285,5.9814,4.603
		c2.2852,0.8672,4.6182,1.3066,6.9336,1.3066c2.0723,0,4.0439-0.3784,5.8613-1.1255c1.8291-0.7554,3.3252-1.874,4.4492-3.3232
		c1.1377-1.4678,1.7148-3.2314,1.7148-5.2412C488.5787,55.0354,488.2672,53.5682,487.653,52.4056z"/>
</g>
<g>
	<g>
		<path class="st1" d="M64.6579,21.4751L58.0837,3.4702c-0.9264-2.5308-3.8052-4.01-6.4005-3.2866L33.4146,5.2745
			c-2.5943,0.723-5.7307,3.2722-6.97,5.6643l-4.5481,8.7883c0.4558-0.0536,0.9169-0.0964,1.389-0.1169
			c3.0921-0.133,6.282,0.4593,9.5673,1.778c2.9977,1.2033,5.6147,2.8107,7.8462,4.824c2.2327,2.0127,3.8316,4.1579,4.7979,6.4354
			c0.7264,1.4943,0.8526,2.8335,0.3774,4.018c-0.3558,0.8878-1.0345,1.5756-2.0303,2.0633
			c-0.9975,0.4883-1.9502,0.5491-2.8528,0.1864c-0.6684-0.2677-1.1607-0.6929-1.4778-1.2795
			c-0.4252-1.1442-1.1459-2.3071-2.1633-3.4883c-1.0186-1.1823-2.1645-2.2867-3.4377-3.3138
			c-1.2755-1.0265-2.5783-1.8075-3.9095-2.3418c-2.1429-0.8594-4.0993-1.2863-5.8704-1.2812
			c-1.7734,0.0057-3.2751,0.3757-4.5086,1.1118c-1.2368,0.7366-2.1395,1.8195-2.7135,3.2495
			c-0.673,1.6779-0.7639,3.2461-0.2706,4.7035c0.4934,1.458,1.4381,2.8534,2.8386,4.188c1.3971,1.3346,3.0591,2.7039,4.9837,4.1056
			c2.3805,1.6421,4.4585,3.2495,6.2308,4.8206c1.7745,1.5711,3.1433,3.2234,4.1073,4.9553c0.9606,1.7325,1.4778,3.615,1.5472,5.6471
			c0.0671,2.0332-0.4127,4.3318-1.4415,6.8964c-1.188,2.9602-3.0375,5.2247-5.5465,6.7958
			c-2.5089,1.5699-5.3316,2.443-8.4703,2.6158c-0.4064,0.0222-0.8138,0.031-1.222,0.0286l11.9474,6.1856
			c2.4032,1.2355,5.3531,0.2981,6.6022-2.098l25.872-49.9892C65.3256,28.0347,65.5844,24.0061,64.6579,21.4751z M53.4545,12.6387
			c-0.0004,0.0008-0.0008,0.0016-0.0012,0.0023c-0.9595,1.856-3.2419,2.5828-5.0979,1.6234
			c-0.0013-0.0007-0.0026-0.0014-0.0039-0.0021c-1.8575-0.9608-2.5845-3.2455-1.6236-5.103
			c0.9609-1.8575,3.2456-2.5844,5.103-1.6236C53.6884,8.4964,54.4153,10.7811,53.4545,12.6387z"/>
		<path class="st1" d="M2.8957,58.0471c1.1152,2.4527,3.094,4.7273,4.7128,6.4081c1.6177,1.6796,3.7751,2.4898,6.442,3.5601
			c1.903,0.7639,3.9787,0.8499,5.8317,0.8476c1.853,0,3.3317-0.594,4.7197-1.2977c1.388-0.702,2.3691-1.7689,2.9432-3.2001
			c0.7128-1.7763,0.8128-3.44,0.3035-4.9906c-0.5116-1.5506-1.5301-3.0762-3.0557-4.5768c-1.5256-1.5-3.465-3.0364-5.817-4.612
			c-2.2043-1.3994-4.0857-2.8704-5.6488-4.4142c-1.2051-1.1885-2.1917-2.4375-2.9712-3.7446L2.6243,56.555
			C2.8525,56.7975,2.7168,57.7251,2.8957,58.0471z"/>
	</g>
	<path class="st0" d="M19.5985,28.3736c1.2334-0.7361,2.7351-1.1061,4.5086-1.1118c1.7711-0.0051,3.7276,0.4218,5.8705,1.2812
		c1.3312,0.5343,2.634,1.3153,3.9095,2.3418c1.2732,1.0271,2.4191,2.1315,3.4377,3.3138c1.0174,1.1811,1.7382,2.3441,2.1633,3.4883
		c0.3172,0.5866,0.8094,1.0117,1.4778,1.2795c0.9026,0.3626,1.8553,0.3018,2.8528-0.1864c0.9958-0.4877,1.6745-1.1755,2.0303-2.0633
		c0.4752-1.1845,0.349-2.5237-0.3774-4.018c-0.9663-2.2776-2.5652-4.4227-4.7979-6.4354c-2.2315-2.0133-4.8485-3.6207-7.8462-4.824
		c-3.2854-1.3187-6.4752-1.911-9.5673-1.778c-0.4721,0.0205-0.9333,0.0633-1.3891,0.1169L10.3306,42.0777
		c0.7795,1.307,1.7661,2.5562,2.9712,3.7446c1.5631,1.5438,3.4445,3.0148,5.6488,4.4142c2.352,1.5756,4.2914,3.112,5.817,4.612
		c1.5256,1.5006,2.5442,3.0262,3.0557,4.5768c0.5093,1.5506,0.4093,3.2143-0.3035,4.9906
		c-0.5741,1.4312-1.5551,2.4981-2.9432,3.2001c-1.388,0.7037-3.0068,1.0572-4.8598,1.0572c-1.853,0.0023-3.731-0.3797-5.634-1.1436
		c-2.6669-1.0703-4.8098-2.4464-6.4275-4.126c-1.6188-1.6808-3.1612-3.2599-4.2764-5.7126
		c-0.1623-0.3662-0.5216-0.9122-0.6222-1.4177l-2.2226,4.701c-1.2195,2.4074-0.2822,5.3572,2.1137,6.6071l16.9941,8.7984
		c0.4082,0.0024,0.8155-0.0063,1.222-0.0286c3.1387-0.1728,5.9614-1.0459,8.4703-2.6158c2.5089-1.5711,4.3585-3.8356,5.5465-6.7958
		c1.0288-2.5646,1.5085-4.8632,1.4415-6.8964c-0.0693-2.032-0.5866-3.9146-1.5472-5.6471c-0.964-1.7319-2.3327-3.3843-4.1073-4.9553
		c-1.7723-1.5711-3.8504-3.1785-6.2308-4.8206c-1.9246-1.4017-3.5866-2.771-4.9837-4.1056c-1.4005-1.3346-2.3452-2.73-2.8386-4.188
		c-0.4934-1.4574-0.4024-3.0256,0.2706-4.7035C17.4591,30.193,18.3617,29.1102,19.5985,28.3736z"/>
</g>
</svg>
