<?xml version="1.0" encoding="utf-8"?>
<!-- Generator: Adobe Illustrator 24.0.2, SVG Export Plug-In . SVG Version: 6.00 Build 0)  -->
<svg version="1.1" id="Capa_1" xmlns="http://www.w3.org/2000/svg" xmlns:xlink="http://www.w3.org/1999/xlink" x="0px" y="0px"
	 width="400px" height="400px" viewBox="0 0 400 400" style="enable-background:new 0 0 400 400;" xml:space="preserve">
<style type="text/css">
	.st0{fill:#941B80;}
	.st1{fill:#0096AE;}
</style>
<g>
	<g>
		<path class="st0" d="M107.4945,217.549c-2.4681,0.502-3.9982,1.8555-11.5401,4.1314c-7.303,1.8555-19.8641,1.3375-29.9136-3.0338
			c-7.7704-3.2339-19.5102-8.2553-19.5102-8.2553l-8.2393-3.6743l-1.6953,5.398c0,0,12.9342,4.9021,23.3048,11.7654
			c4.6992,3.1093,17.7049,11.2799,17.7049,11.2799s6.1837,4.5045,8.9986,4.4877c2.4496-0.0427,4.5055-2.6415,7.7715-5.7615
			c3.9897-3.5657,5.8138-5.5629,10.1574-9.1293c2.8929-2.5821,4.3671-3.927,4.7145-4.5515
			C110.0847,218.701,108.9089,217.2674,107.4945,217.549"/>
		<path class="st0" d="M73.4897,206.8598c-7.0488,0.0022-18.2681-3.189-18.2681-23.7765
			c-0.0046-13.1311,5.1353-23.4764,18.2578-23.7904c14.6394,0.3001,18.2699,10.2047,18.2763,23.7819
			C92.0697,196.477,87.378,207.1588,73.4897,206.8598 M108.5771,183.1409c0.0107-13.1887-8.9392-29.1852-35.0375-29.4886
			c-23.0371,0.6241-35.0176,13.224-35.0076,29.5142c0.6226,23.2489,21.5216,29.4868,35.0375,29.4836
			C95.7162,212.6416,109.1787,199.7803,108.5771,183.1409"/>
		<rect x="22" y="250.987" class="st0" width="3.367" height="3.3699"/>
		<rect x="30.2282" y="250.987" class="st0" width="3.3656" height="3.3699"/>
		<rect x="38.4579" y="250.987" class="st0" width="3.3695" height="3.3699"/>
		<rect x="46.6907" y="250.987" class="st0" width="3.3656" height="3.3699"/>
		<rect x="54.919" y="250.987" class="st0" width="3.367" height="3.3699"/>
		<rect x="63.1493" y="250.987" class="st0" width="3.3656" height="3.3699"/>
		<rect x="71.3786" y="250.987" class="st0" width="3.3667" height="3.3699"/>
		<rect x="79.6086" y="250.987" class="st0" width="3.3688" height="3.3699"/>
		<rect x="87.8383" y="250.987" class="st0" width="3.3635" height="3.3699"/>
		<rect x="96.0683" y="250.987" class="st0" width="3.3656" height="3.3699"/>
		<rect x="104.2958" y="250.987" class="st0" width="3.371" height="3.3699"/>
		<rect x="112.5287" y="250.987" class="st0" width="3.3649" height="3.3699"/>
		<rect x="120.7501" y="250.9945" class="st0" width="3.3695" height="3.3656"/>
		<path class="st0" d="M22,247.7777h102.1332V145.6399H22V247.7777z M120.7775,244.4217H25.3574v-95.4229h95.4201V244.4217z"/>
	</g>
	<g>
		<path class="st1" d="M374.9979,248.3242c-0.3795,0-0.7433,0.0968-1.0972,0.2923c-0.3685,0.1937-0.6511,0.4731-0.8455,0.8338
			c-0.2018,0.3574-0.3019,0.7362-0.3019,1.1243c0,0.3859,0.0986,0.7583,0.298,1.1121c0.1983,0.356,0.4731,0.634,0.8352,0.8338
			c0.3514,0.1958,0.7259,0.2955,1.1139,0.2905c0.3852,0.0021,0.7583-0.0936,1.1185-0.2905c0.3635-0.2019,0.639-0.4774,0.8402-0.8348
			c0.1905-0.356,0.2933-0.7273,0.2933-1.1178c-0.0053-0.3841-0.1057-0.7622-0.3076-1.1196
			c-0.1958-0.3606-0.4799-0.6412-0.8398-0.8359C375.7401,248.421,375.3756,248.3277,374.9979,248.3242 M374.9979,247.8745
			c0.4571,0,0.8975,0.1146,1.3353,0.3475c0.4247,0.2328,0.764,0.5657,1.0075,0.9922c0.2396,0.4336,0.3617,0.8914,0.3617,1.3571
			c0,0.4692-0.1193,0.9085-0.3467,1.3386c-0.2489,0.4318-0.5807,0.7622-1.011,1.0039c-0.4265,0.235-0.8729,0.3542-1.341,0.3549
			c-0.4667-0.0022-0.9167-0.1193-1.3453-0.356c-0.4279-0.235-0.7658-0.571-1.0014-0.9964c-0.2414-0.4318-0.356-0.8765-0.3599-1.3453
			c-0.0028-0.4657,0.1186-0.9174,0.3599-1.3567c0.2478-0.4265,0.5828-0.7594,1.0167-0.9911
			C374.1018,247.9927,374.5475,247.8745,374.9979,247.8745"/>
		<path class="st1" d="M374.2702,250.4299l0.5785,0.0032c0.2734,0,0.4582-0.0445,0.555-0.1242c0.105-0.0787,0.152-0.1905,0.152-0.32
			c0-0.0872-0.0181-0.1627-0.0648-0.23c-0.0481-0.068-0.1193-0.1182-0.2083-0.1541c-0.0829-0.0296-0.2421-0.0477-0.4742-0.0491
			h-0.5383C374.2702,249.5556,374.2702,250.4299,374.2702,250.4299z M373.8131,252.06l-0.0046-2.8936l0.9939,0.0064
			c0.3425,0,0.5927,0.0192,0.7412,0.0744c0.1502,0.0552,0.2734,0.1477,0.3667,0.283c0.0897,0.1306,0.1342,0.2713,0.1342,0.4222
			c0,0.2083-0.0737,0.3945-0.2253,0.5539c-0.1534,0.1563-0.3531,0.2435-0.6067,0.2624c0.1068,0.0445,0.1866,0.0936,0.2506,0.1563
			c0.1164,0.1118,0.261,0.3019,0.4272,0.5657l0.3578,0.57l-0.5764-0.0011l-0.2603-0.4564c-0.2029-0.3571-0.3645-0.5796-0.4884-0.67
			c-0.0851-0.0712-0.2111-0.1-0.3731-0.1011h-0.2791v1.2261L373.8131,252.06z"/>
	</g>
	<g>
		<path class="st1" d="M146.5227,244.981v2.0256c-1.351,0.7369-2.911,1.1057-4.6796,1.1057c-1.4372,0-2.6557-0.2891-3.6565-0.8654
			c-1.0018-0.5774-1.7939-1.3727-2.3777-2.3863c-0.5828-1.0135-0.8747-2.1097-0.8747-3.288c0-1.874,0.6682-3.4486,2.0039-4.7259
			c1.3357-1.277,2.9829-1.916,4.9416-1.916c1.351,0,2.8526,0.3531,4.5045,1.0591v1.9811c-1.5048-0.8605-2.9754-1.2901-4.4119-1.2901
			c-1.4738,0-2.6978,0.4646-3.6707,1.3952c-0.9736,0.9306-1.4603,2.0958-1.4603,3.4966c0,1.4123,0.4792,2.5725,1.4368,3.4817
			c0.958,0.9089,2.1833,1.3631,3.6753,1.3631C143.5135,246.4178,145.0368,245.9389,146.5227,244.981z"/>
		<path class="st1" d="M156.6691,234.9126c1.9879,0,3.644,0.6294,4.9666,1.8875c1.3222,1.2592,1.984,2.837,1.984,4.7355
			c0,1.8971-0.6671,3.4678-2.0029,4.712c-1.3336,1.2431-3.0175,1.8651-5.0488,1.8651c-1.9395,0-3.5554-0.6219-4.8469-1.8651
			c-1.2912-1.2439-1.9377-2.8021-1.9377-4.675c0-1.9224,0.6504-3.5134,1.9516-4.7725
			C153.0361,235.542,154.6808,234.9126,156.6691,234.9126z M156.7435,236.662c-1.4728,0-2.6832,0.4614-3.6309,1.3823
			s-1.4226,2.0972-1.4226,3.5287c0,1.3877,0.476,2.5415,1.4272,3.4635c0.9505,0.921,2.141,1.3813,3.571,1.3813
			c1.4357,0,2.6333-0.4703,3.5938-1.409c0.9605-0.9398,1.4404-2.1096,1.4404-3.5102c0-1.3631-0.4799-2.5094-1.4404-3.44
			C159.3213,237.1276,158.1415,236.662,156.7435,236.662z"/>
		<path class="st1" d="M177.6859,235.0963h1.7227v12.8683h-1.8519v-10.0132l-3.9566,4.9744h-0.3403l-4.0029-4.9744v10.0132h-1.843
			v-12.8683h1.744l4.2766,5.2852L177.6859,235.0963z"/>
		<path class="st1" d="M183.6454,247.9646v-12.8865h4.0808c1.2286,0,2.2076,0.3307,2.9388,0.9943
			c0.7305,0.6636,1.0961,1.5536,1.0961,2.6711c0,0.7497-0.1876,1.4122-0.5621,1.9897c-0.3749,0.5774-0.8871,0.9961-1.5383,1.2581
			c-0.6511,0.2606-1.5845,0.3916-2.8007,0.3916h-1.3631v5.5817C185.4976,247.965,183.6454,247.965,183.6454,247.9646z
			 M187.404,236.7171h-1.9067v4.026h2.0168c0.7497,0,1.3272-0.1762,1.7323-0.5294c0.4051-0.3531,0.6077-0.8583,0.6077-1.5155
			C189.854,237.3775,189.0377,236.7171,187.404,236.7171z"/>
		<path class="st1" d="M197.5283,235.0233h1.2941l5.7701,12.9417h-1.8847l-1.7159-3.8135h-5.4902l-1.608,3.8135h-1.8929
			L197.5283,235.0233z M200.2353,242.5117l-2.0762-4.6608l-1.926,4.6608H200.2353z"/>
		<path class="st1" d="M217.7936,235.0963h1.7497v12.8683h-1.5849l-8.6031-9.911v9.911h-1.7323v-12.8683h1.4931l8.6775,9.9947
			C217.7936,245.0917,217.7936,235.0963,217.7936,235.0963z M216.5127,231.5957c-0.0057,0.7433-0.178,1.324-0.5159,1.7408
			c-0.2581,0.3254-0.5803,0.4881-0.9673,0.4881c-0.3382,0-0.7921-0.1221-1.3631-0.3681c-0.571-0.2456-1.0014-0.3692-1.2894-0.3692
			c-0.1599,0-0.2983,0.0616-0.4155,0.1848c-0.1171,0.1221-0.1865,0.3076-0.2111,0.5518h-0.7743
			c0.0983-0.8654,0.2766-1.4443,0.534-1.7355c0.2577-0.2923,0.5831-0.4382,0.9762-0.4382c0.356,0,0.937,0.1627,1.7416,0.4881
			c0.4108,0.1659,0.7059,0.2489,0.8843,0.2489c0.1712,0,0.3179-0.0595,0.4379-0.1798c0.1196-0.1193,0.2008-0.3236,0.2442-0.6123
			L216.5127,231.5957L216.5127,231.5957z"/>
		<path class="st1" d="M223.8823,235.0963h1.8423v12.8683h-1.8423V235.0963z M227.3824,231.3839l-2.0812,2.764h-1.0328l1.2439-2.764
			H227.3824z"/>
		<path class="st1" d="M234.255,235.0233h1.2948l5.7701,12.942h-1.8854l-1.7152-3.8135h-5.4906l-1.608,3.8135h-1.8936
			L234.255,235.0233z M236.9617,242.5117l-2.0769-4.6608l-1.9252,4.6608H236.9617z"/>
		<path class="st1" d="M251.1209,247.9468v-12.8502h4.3389c1.7501,0,3.1349,0.2624,4.1542,0.7868
			c1.0192,0.5255,1.8295,1.2983,2.4318,2.3172c0.602,1.0196,0.9028,2.1314,0.9028,3.3347c0,0.8594-0.1659,1.6821-0.498,2.4682
			c-0.3307,0.7868-0.8038,1.4774-1.4179,2.0726c-0.6266,0.6145-1.3542,1.0783-2.1837,1.3913
			c-0.4845,0.1912-0.9302,0.3179-1.3354,0.3827c-0.4055,0.0652-1.1787,0.0968-2.3218,0.0968
			C255.1918,247.9468,251.1209,247.9468,251.1209,247.9468z M255.2658,236.7363h-2.303v9.5707h2.3581
			c0.921,0,1.6365-0.0627,2.146-0.1894c0.5094-0.1253,0.9352-0.2848,1.2759-0.4788c0.3407-0.1933,0.6522-0.4318,0.9349-0.7138
			c0.9092-0.922,1.3638-2.0854,1.3638-3.4909c0-1.3827-0.4674-2.5084-1.4005-3.3817c-0.3439-0.3254-0.7383-0.5924-1.1833-0.8006
			c-0.4457-0.2083-0.8679-0.3468-1.2667-0.4147C256.7923,236.7705,256.1505,236.7363,255.2658,236.7363z"/>
		<path class="st1" d="M266.8169,235.0963h7.2959v1.6397h-5.4532v3.9242h5.2692v1.6497h-5.2692v3.9972h5.628v1.6397h-7.471
			L266.8169,235.0963L266.8169,235.0963z"/>
		<path class="st1" d="M287.8099,242.5737l-1.3998-0.8508c-0.8782-0.5358-1.5031-1.0634-1.8751-1.5824
			c-0.3717-0.5187-0.5572-1.1168-0.5572-1.7917c0-1.0135,0.3521-1.8366,1.0552-2.4692c0.7031-0.633,1.6166-0.9484,2.7405-0.9484
			c1.074,0,2.0605,0.3019,2.9569,0.905v2.0908c-0.9277-0.8911-1.9253-1.3375-2.9933-1.3375c-0.6027,0-1.0965,0.1392-1.4831,0.4179
			c-0.387,0.2784-0.581,0.6351-0.581,1.0687c0,0.3852,0.1428,0.7465,0.4276,1.0826c0.2848,0.3371,0.7433,0.6903,1.3752,1.0602
			l1.4069,0.8327c1.5696,0.937,2.3542,2.1314,2.3542,3.5796c0,1.0327-0.3457,1.8704-1.0363,2.5151
			c-0.6906,0.6454-1.5892,0.9676-2.6942,0.9676c-1.2709,0-2.429-0.3902-3.4731-1.172v-2.341
			c0.9947,1.261,2.1467,1.8911,3.4546,1.8911c0.5775,0,1.0573-0.1606,1.4415-0.4817c0.3841-0.3211,0.5756-0.723,0.5756-1.2068
			C289.5052,244.0183,288.9402,243.2764,287.8099,242.5737z"/>
		<path class="st1" d="M294.8291,235.0963h7.2959v1.6397h-5.4532v3.9242h5.2692v1.6497h-5.2692v3.9972h5.628v1.6397h-7.471
			L294.8291,235.0963L294.8291,235.0963z"/>
		<path class="st1" d="M312.7833,241.6281h4.3208v5.4532c-1.5849,0.6871-3.1566,1.0317-4.7166,1.0317
			c-2.1314,0-3.8334-0.6219-5.1075-1.8651c-1.2745-1.2439-1.9114-2.7775-1.9114-4.6013c0-1.9224,0.6597-3.5219,1.9804-4.7992
			c1.3197-1.277,2.9751-1.916,4.9648-1.916c0.7241,0,1.4122,0.0787,2.063,0.235c0.6508,0.1563,1.4738,0.4436,2.4692,0.8615v1.879
			c-1.5358-0.89-3.0584-1.3357-4.5696-1.3357c-1.4066,0-2.5916,0.4788-3.5561,1.4368c-0.9633,0.958-1.4457,2.1342-1.4457,3.5287
			c0,1.4614,0.4824,2.6561,1.4457,3.5835c0.9644,0.9274,2.2047,1.3909,3.722,1.3909c0.7369,0,1.618-0.1691,2.6444-0.5073
			l0.1748-0.0552v-2.6807h-2.4781C312.7833,243.2675,312.7833,241.6281,312.7833,241.6281z"/>
		<path class="st1" d="M330.3134,235.0963h1.8516v7.3044c0,0.989-0.0723,1.7355-0.2158,2.2385
			c-0.1449,0.5041-0.3229,0.9231-0.5347,1.2581c-0.2118,0.3339-0.4713,0.634-0.7782,0.8975
			c-1.0192,0.8783-2.3521,1.3176-3.9979,1.3176c-1.6764,0-3.0214-0.4361-4.0345-1.308c-0.3076-0.2698-0.5671-0.5732-0.7789-0.9071
			c-0.2115-0.335-0.387-0.7451-0.5255-1.2303c-0.1371-0.4849-0.2065-1.2464-0.2065-2.2841v-7.2866h1.8516v7.3044
			c0,1.21,0.1382,2.0513,0.4147,2.5244c0.2763,0.4721,0.6967,0.8519,1.2624,1.1367c0.565,0.2859,1.231,0.4286,1.9989,0.4286
			c1.0929,0,1.9833-0.2848,2.6711-0.8562c0.3624-0.3076,0.623-0.67,0.7822-1.0879c0.1606-0.4169,0.2403-1.1328,0.2403-2.146
			L330.3134,235.0963L330.3134,235.0963z"/>
		<path class="st1" d="M336.3373,247.9646v-12.8683h3.2243c1.3015,0,2.3354,0.3222,3.099,0.9665
			c0.765,0.6454,1.1474,1.5173,1.1474,2.6169c0,0.7487-0.1873,1.3962-0.5614,1.9427c-0.3749,0.5468-0.9124,0.9551-1.612,1.225
			c0.4105,0.2713,0.8134,0.639,1.2061,1.1057c0.393,0.4667,0.9459,1.2805,1.6582,2.4404c0.4486,0.7316,0.8074,1.2816,1.078,1.6497
			l0.6817,0.921h-2.1926l-0.5614-0.8473c-0.0189-0.031-0.0552-0.083-0.1107-0.1563l-0.3585-0.5073l-0.5707-0.9398l-0.6162-1.005
			c-0.3806-0.5283-0.7295-0.9484-1.0452-1.261c-0.3168-0.3126-0.6031-0.5379-0.8583-0.676
			c-0.2552-0.1381-0.6835-0.2072-1.2866-0.2072h-0.4799v5.601C338.1789,247.9646,336.3373,247.9646,336.3373,247.9646z
			 M338.7321,236.662h-0.5529v4.0634h0.7006c0.9323,0,1.5732-0.0797,1.9206-0.2403c0.3467-0.1595,0.6169-0.3998,0.8103-0.723
			c0.1936-0.3222,0.2905-0.6892,0.2905-1.1008c0-0.4051-0.1071-0.7722-0.3222-1.1008c-0.215-0.3286-0.5176-0.5603-0.9078-0.6956
			C340.2814,236.7299,339.6349,236.662,338.7321,236.662z"/>
		<path class="st1" d="M354.4246,234.9126c1.9886,0,3.644,0.6294,4.9666,1.8875c1.3229,1.2592,1.984,2.837,1.984,4.7355
			c0,1.8971-0.6671,3.4678-2.0025,4.712c-1.3346,1.2431-3.0185,1.8651-5.0495,1.8651c-1.9391,0-3.5543-0.6219-4.847-1.8651
			c-1.2909-1.2439-1.937-2.8021-1.937-4.675c0-1.9224,0.6504-3.5134,1.9516-4.7725
			C350.7916,235.542,352.4353,234.9126,354.4246,234.9126z M354.4983,236.662c-1.4727,0-2.6828,0.4614-3.6308,1.3823
			c-0.948,0.921-1.4218,2.0972-1.4218,3.5287c0,1.3877,0.4753,2.5415,1.4265,3.4635c0.9512,0.921,2.1403,1.3813,3.571,1.3813
			c1.4357,0,2.6333-0.4703,3.5941-1.409c0.9598-0.9398,1.4397-2.1096,1.4397-3.5102c0-1.3631-0.4799-2.5094-1.4397-3.44
			C357.0768,237.1276,355.8967,236.662,354.4983,236.662z"/>
		<path class="st1" d="M368.394,242.5737l-1.4001-0.8508c-0.8783-0.5358-1.5031-1.0634-1.8751-1.5824
			c-0.3709-0.5187-0.5568-1.1168-0.5568-1.7917c0-1.0135,0.3514-1.8366,1.0552-2.4692c0.7024-0.633,1.6166-0.9484,2.7405-0.9484
			c1.0744,0,2.0605,0.3019,2.9569,0.905v2.0908c-0.9274-0.8911-1.9249-1.3375-2.9936-1.3375c-0.602,0-1.0961,0.1392-1.4831,0.4179
			c-0.387,0.2784-0.5806,0.6351-0.5806,1.0687c0,0.3852,0.1424,0.7465,0.4276,1.0826c0.2848,0.3371,0.7433,0.6903,1.3752,1.0602
			l1.4069,0.8327c1.5703,0.937,2.3542,2.1314,2.3542,3.5796c0,1.0327-0.3453,1.8704-1.0363,2.5151
			c-0.691,0.6454-1.5888,0.9676-2.6942,0.9676c-1.2713,0-2.429-0.3902-3.4731-1.172v-2.341
			c0.9947,1.261,2.1467,1.8911,3.4543,1.8911c0.5774,0,1.0573-0.1606,1.4407-0.4817c0.3845-0.3211,0.5764-0.723,0.5764-1.2068
			C370.089,244.0183,369.524,243.2764,368.394,242.5737z"/>
	</g>
	<g>
		<path class="st1" d="M188.2491,217.6277l-7.4094,7.1933c-2.3104-0.1228-4.7248-0.534-7.2435-1.2357
			c-2.5194-0.7003-5.0751-1.6664-7.6675-2.8964c-2.5931-1.2296-6.0524-3.3318-10.3777-6.3076
			c-6.2677-1.1314-11.4358-4.1072-15.5031-8.9278c-4.0687-4.8206-6.1022-10.3788-6.1022-16.6747
			c0-7.6981,2.6177-14.0677,7.8526-19.1097c5.235-5.042,11.8587-7.5632,19.8705-7.5632c7.9634,0,14.5807,2.5045,19.8531,7.5084
			c5.2717,5.0039,7.9078,11.2945,7.9078,18.8694c0,6.3699-1.9908,11.9659-5.9726,16.7865
			c-3.9819,4.8206-9.1318,7.8573-15.4479,9.1115l1.9537,0.7376c6.0712,2.3364,10.4461,3.5041,13.1254,3.5041
			C184.5624,218.6234,186.2823,218.292,188.2491,217.6277z M161.6688,169.1166c-5.7982,0-10.5899,1.869-14.3739,5.6074
			c-3.7846,3.7384-5.6761,8.4475-5.6761,14.1286c0,5.5337,1.9039,10.14,5.7131,13.816c3.8085,3.6764,8.5878,5.5148,14.3372,5.5148
			c5.6761,0,10.4554-1.8808,14.3379-5.6451c3.8822-3.7615,5.8238-8.398,5.8238-13.9075c0-5.6319-1.9046-10.2934-5.7127-13.9826
			C172.3078,170.9597,167.4922,169.1166,161.6688,169.1166z"/>
		<path class="st1" d="M217.0674,214.3817v-4.3532c-1.4265,1.5611-3.0563,2.7747-4.8875,3.6429
			c-1.8331,0.8665-3.6586,1.3005-5.4785,1.3005c-2.1399,0-4.1132-0.5351-5.9213-1.6041c-1.8067-1.0708-3.1727-2.5219-4.094-4.3532
			c-0.9231-1.8316-1.3841-4.8754-1.3841-9.1318v-19.4408h6.7142v19.3425c0,3.5618,0.5101,6.0502,1.5315,7.4621
			c1.0199,1.4119,2.8089,2.1178,5.3674,2.1178c3.1965,0,5.9149-1.5611,8.1531-4.6842v-24.2383h6.7142v33.94
			C223.7822,214.3813,217.0674,214.3813,217.0674,214.3817z"/>
		<path class="st1" d="M255.3555,193.98v14.4251c0,1.1559,0.393,1.7348,1.1805,1.7348c0.8117,0,2.078-0.6034,3.8-1.8085v4.094
			c-1.5255,0.9854-2.7491,1.655-3.67,2.011c-0.9231,0.3556-1.8878,0.5351-2.8964,0.5351c-2.8775,0-4.5742-1.1314-5.0908-3.3941
			c-2.8537,2.2133-5.8904,3.3201-9.1122,3.3201c-2.361,0-4.3293-0.7796-5.9025-2.3425c-1.5739-1.5625-2.361-3.524-2.361-5.885
			c0-2.1381,0.7682-4.0509,2.3051-5.7362c1.5372-1.6839,3.7202-3.0178,6.5486-4.0032l8.5956-2.9512v-1.8067
			c0-4.0826-2.042-6.1239-6.1239-6.1239c-3.6654,0-7.2307,1.8936-10.6985,5.6814v-7.3421
			c2.6063-3.0726,6.3578-4.6109,11.2517-4.6109c3.6643,0,6.6034,0.9591,8.8167,2.8775c0.7376,0.6148,1.4019,1.4336,1.9922,2.4536
			s0.9648,2.0413,1.1257,3.0612C255.2751,189.1915,255.3555,191.1281,255.3555,193.98z M248.7521,207.6675V197.597l-4.5009,1.7334
			c-2.2873,0.9099-3.9046,1.8259-4.8509,2.749c-0.9477,0.9217-1.4208,2.0716-1.4208,3.4489c0,1.4016,0.4482,2.5465,1.3467,3.4315
			c0.8971,0.8854,2.0595,1.3282,3.4859,1.3282C244.9521,210.2873,246.9311,209.4137,248.7521,207.6675z M253.6585,162.0337
			l-8.3372,11.0673h-4.1321l4.9804-11.0673H253.6585z"/>
		<path class="st1" d="M265.1964,162.8436h6.7142v51.5378h-6.7142V162.8436z"/>
		<path class="st1" d="M285.8533,166.1654c1.1068,0,2.053,0.3802,2.8409,1.1428c0.7867,0.7622,1.1805,1.6967,1.1805,2.8035
			c0,1.0819-0.3938,2.0164-1.1805,2.8035c-0.7878,0.7871-1.7341,1.1805-2.8409,1.1805c-1.0331,0-1.9431-0.3994-2.7298-1.1994
			c-0.7878-0.7989-1.1805-1.7273-1.1805-2.785c0-1.0331,0.393-1.9487,1.1805-2.749
			C283.911,166.5645,284.8206,166.1654,285.8533,166.1654z M282.5333,180.4417h6.7142v33.94h-6.7142V180.4417z"/>
		<path class="st1" d="M294.2246,185.8276l12.6166-12.3956v7.0093h10.7352v6.0499h-10.7352v16.6113
			c0,3.879,1.6106,5.8188,4.8327,5.8188c2.4101,0,4.9559-0.7989,7.6366-2.3984v6.2731c-2.5824,1.451-5.3991,2.1759-8.4482,2.1759
			c-3.0751,0-5.6323-0.8971-7.6732-2.6939c-0.6401-0.5397-1.1681-1.1488-1.5864-1.8259c-0.4186-0.6757-0.769-1.5611-1.0516-2.6561
			c-0.283-1.0936-0.424-3.1784-0.424-6.2528v-15.0517h-5.9028v-0.6639C294.2243,185.8276,294.2246,185.8276,294.2246,185.8276z"/>
		<path class="st1" d="M346.7599,193.98v14.4251c0,1.1559,0.393,1.7348,1.1805,1.7348c0.8116,0,2.078-0.6034,3.7999-1.8085v4.094
			c-1.5255,0.9854-2.749,1.655-3.67,2.011c-0.9231,0.3556-1.8878,0.5351-2.8964,0.5351c-2.8775,0-4.5742-1.1314-5.0908-3.3941
			c-2.8537,2.2133-5.8904,3.3201-9.1122,3.3201c-2.361,0-4.3293-0.7796-5.9025-2.3425c-1.5739-1.5625-2.361-3.524-2.361-5.885
			c0-2.1381,0.7682-4.0509,2.3051-5.7362c1.5372-1.6839,3.7202-3.0178,6.5482-4.0032l8.5956-2.9512v-1.8067
			c0-4.0826-2.042-6.1239-6.1239-6.1239c-3.6654,0-7.2307,1.8936-10.6985,5.6814v-7.3421
			c2.6063-3.0726,6.3574-4.6109,11.2517-4.6109c3.6643,0,6.6034,0.9591,8.8167,2.8775c0.7376,0.6148,1.4019,1.4336,1.9922,2.4536
			c0.5902,1.0199,0.9648,2.0413,1.1257,3.0612C346.6795,189.1915,346.7599,191.1281,346.7599,193.98z M340.1565,207.6675V197.597
			l-4.5009,1.7334c-2.2873,0.9099-3.9046,1.8259-4.8509,2.749c-0.9477,0.9217-1.4208,2.0716-1.4208,3.4489
			c0,1.4016,0.4482,2.5465,1.3468,3.4315c0.8971,0.8854,2.0594,1.3282,3.486,1.3282
			C336.3565,210.2873,338.3355,209.4137,340.1565,207.6675z"/>
		<path class="st1" d="M355.0173,211.9466v-7.2307c1.8936,1.3282,3.8302,2.4044,5.8099,3.2275
			c1.9797,0.8245,3.6461,1.2357,4.9993,1.2357c1.4016,0,2.6063-0.3428,3.6152-1.0331c1.0085-0.6871,1.5126-1.5116,1.5126-2.471
			c0-0.984-0.3261-1.801-0.9783-2.4536c-0.6515-0.6511-2.0602-1.5913-4.2236-2.821c-4.3293-2.4101-7.1631-4.4703-8.5034-6.1805
			c-1.3411-1.7088-2.011-3.5717-2.011-5.5885c0-2.607,1.0142-4.7337,3.0442-6.3817c2.0285-1.6479,4.6419-2.4724,7.8391-2.4724
			c3.3201,0,6.7267,0.9345,10.219,2.8035v6.6405c-3.9844-2.4101-7.2435-3.6152-9.7761-3.6152c-1.3044,0-2.3553,0.2777-3.1545,0.8316
			c-0.7992,0.5525-1.1987,1.2862-1.1987,2.1958c0,0.7885,0.3617,1.5408,1.0858,2.2538c0.7241,0.7145,1.9971,1.5739,3.8174,2.5824
			l2.3984,1.3642c5.6576,3.1972,8.4875,6.7373,8.4875,10.6216c0,2.7779-1.0887,5.0591-3.2645,6.8416
			c-2.1773,1.7821-4.9754,2.6736-8.393,2.6736c-2.0167,0-3.8128-0.2154-5.3859-0.6451
			C359.3826,213.8968,357.4022,213.1026,355.0173,211.9466z"/>
	</g>
</g>
</svg>
