<?xml version="1.0" encoding="utf-8"?>
<!-- Generator: Adobe Illustrator 24.0.2, SVG Export Plug-In . SVG Version: 6.00 Build 0)  -->
<svg version="1.1" id="Capa_1" xmlns="http://www.w3.org/2000/svg" xmlns:xlink="http://www.w3.org/1999/xlink" x="0px" y="0px"
	 width="64px" height="64px" viewBox="0 0 64 64" style="enable-background:new 0 0 64 64;" xml:space="preserve">
<style type="text/css">
	.st0{fill:#35343E;}
	.st1{opacity:0.89;fill:#273ABE;enable-background:new    ;}
</style>
<g>
	<g>
		<path class="st0" d="M30.4748,25.408L30.4748,25.408c1.3797-1.38,1.3795-3.6171-0.0005-4.9968s-3.6171-1.3795-4.9968,0.0005
			s-1.3795,3.6171,0.0005,4.9968c0.6625,0.6623,1.5608,1.0345,2.4975,1.0346C28.9128,26.4425,29.8116,26.0703,30.4748,25.408z
			 M26.6445,21.5755c0.736-0.7366,1.9298-0.7371,2.6664-0.0011s0.7371,1.9298,0.0011,2.6664s-1.9298,0.7371-2.6664,0.0011
			c-0.0004-0.0004-0.0007-0.0007-0.0011-0.0011c-0.736-0.7245-0.7453-1.9085-0.0208-2.6445
			C26.6306,21.5893,26.6375,21.5824,26.6445,21.5755z M39.7524,21.1751c-0.3225-0.3218-0.8446-0.3218-1.1671,0L26.243,33.5173
			c-0.3223,0.3223-0.3223,0.8448,0,1.1671s0.8448,0.3223,1.1671,0l12.3422-12.3466C40.0719,22.0161,40.0719,21.4968,39.7524,21.1751
			z M38.1904,29.5913c-1.952-0.0005-3.5348,1.5814-3.5353,3.5334s1.5814,3.5348,3.5334,3.5353s3.5348-1.5814,3.5353-3.5334
			c0.0003-0.9377-0.3722-1.8371-1.0353-2.5002C40.0274,29.9618,39.1279,29.589,38.1904,29.5913z M39.5214,34.4589
			c-0.736,0.7366-1.9298,0.7371-2.6664,0.0011s-0.7371-1.9298-0.0011-2.6664c0.736-0.7366,1.9298-0.7371,2.6664-0.0011
			c0.0004,0.0004,0.0007,0.0007,0.0011,0.0011c0.736,0.7245,0.7453,1.9085,0.0208,2.6446
			C39.5353,34.4451,39.5284,34.4521,39.5214,34.4589z M61.2435,27.9842v-0.0154c-0.0104-0.1779-0.0779-0.3476-0.1925-0.484
			L45.2833,2.7706l0,0c-0.0025-0.0046-0.0055-0.0091-0.0088-0.0132l-0.0242-0.033c-0.0044-0.0072-0.0092-0.0142-0.0143-0.0209l0,0
			l-0.0066-0.0077L45.203,2.665l-0.0187-0.0198l-0.0099-0.0099l-0.0275-0.0264L45.126,2.5902l-0.0121-0.0099l-0.0286-0.022
			l-0.0231-0.0176L45.049,2.5319l-0.0308-0.0187l-0.0253-0.0154l-0.0143-0.0077l-0.0319-0.0154L44.9313,2.467l-0.011-0.0055
			l-0.0165-0.0066h-0.0132c-3.2946-1.2793-3.3947-1.3112-3.4277-1.32c-0.1694-0.0627-4.1218-1.2782-8.38-1.2782
			c-15.5526,0-28.1605,12.6079-28.1605,28.1605c0,7.4713,2.9426,14.5291,8.2854,19.873s12.4016,8.2876,19.8752,8.2876
			s14.5269-2.9415,19.8697-8.281s8.281-12.3807,8.2909-19.8433v-0.0363C61.2435,28.0062,61.2435,27.9952,61.2435,27.9842z
			 M44.9346,5.2919l13.7899,21.6187c-2.7732-0.6072-7.0885-2.1923-10.3853-6.3196c-2.4629-3.0801-3.7335-6.797-3.7797-11.042
			C44.5466,8.1211,44.6722,6.6954,44.9346,5.2919z M52.4433,28.0172c0,10.6757-8.6847,19.3604-19.3604,19.3604
			s-19.3604-8.6847-19.3604-19.3604S22.4128,8.6568,33.083,8.6568c3.4901-0.0024,6.9156,0.9412,9.9123,2.7303
			c0.2959,3.1901,1.3541,6.8542,4.0547,10.2302c1.4697,1.8408,3.2697,3.3915,5.3076,4.5728
			C52.4136,26.7962,52.4433,27.4078,52.4433,28.0172z M51.7833,46.7297c-5.0282,5.0282-11.6701,7.7981-18.7004,7.7981
			s-13.6766-2.7721-18.7092-7.8047S6.5724,35.0486,6.5724,28.0172c0-14.6414,11.8692-26.5105,26.5105-26.5105
			c3.8919,0,7.6407,1.1187,7.874,1.1891c0.1705,0.0616,1.5026,0.5775,2.6334,1.0164c-0.4676,1.8723-0.6989,3.7958-0.6886,5.7256
			c-3.0257-1.599-6.3966-2.4336-9.8188-2.431c-11.5854,0-21.0104,9.425-21.0104,21.0104s9.425,21.0104,21.0104,21.0104
			s21.0104-9.425,21.0104-21.0104c0-0.3113-0.0077-0.6237-0.022-0.935c1.7527,0.8037,3.6068,1.3647,5.5111,1.6676
			C59.3977,35.5117,56.6454,41.8775,51.7833,46.7297z"/>
	</g>
	<circle class="st1" cx="16.2243" cy="50.6755" r="13.4678"/>
</g>
</svg>
