<?xml version="1.0" encoding="utf-8"?>
<!-- Generator: Adobe Illustrator 24.0.2, SVG Export Plug-In . SVG Version: 6.00 Build 0)  -->
<svg version="1.1" id="Capa_1" xmlns="http://www.w3.org/2000/svg" xmlns:xlink="http://www.w3.org/1999/xlink" x="0px" y="0px"
	 width="64px" height="64px" viewBox="0 0 64 64" style="enable-background:new 0 0 64 64;" xml:space="preserve">
<style type="text/css">
	.st0{fill:#A5A5A5;}
</style>
<g>
	<path class="st0" d="M50.8747,64c-12.5834,0-25.1667,0-37.7501,0c-0.2322-0.075-0.4616-0.16-0.697-0.2235
		c-2.5518-0.6885-4.4085-2.9835-4.415-5.6299C7.9891,48.7134,7.9867,39.2802,8.0137,29.847
		c0.0082-2.8538,2.1405-5.2862,4.9688-5.7294c0.9739-0.1526,1.9773-0.1189,3.0171-0.1728c0-0.2384-0.0002-0.4634,0-0.6885
		c0.0013-2.5197-0.0218-5.0397,0.0085-7.559c0.08-6.6808,4.5166-12.756,10.8648-14.8266C28.0889,0.4742,29.3723,0.285,30.6246,0
		c0.9166,0,1.8333,0,2.7501,0c0.3251,0.0558,0.6499,0.1134,0.9752,0.1674C42.4224,1.505,47.9904,8.0685,47.9992,16.26
		c0.0026,2.3531,0.0005,4.7062,0.0005,7.0594c0,0.2186,0,0.4371,0,0.6845c0.7816,0,1.4678-0.0147,2.1534,0.0026
		c3.1851,0.0798,5.8192,2.6546,5.8304,5.841c0.0331,9.4333,0.0253,18.8667,0.0029,28.3c-0.0059,2.4669-1.6186,4.6379-3.9405,5.4802
		C51.6611,63.767,51.2654,63.8766,50.8747,64z M21.3715,23.9643c7.1264,0,14.177,0,21.2102,0c0-3.1328,0.0013-6.2296-0.0035-9.3266
		c-0.0003-0.1643-0.0518-0.3285-0.0778-0.493c-0.8766-5.561-6.4843-9.6176-12.025-8.6984
		c-5.4286,0.9006-9.1011,5.1926-9.1296,10.6856c-0.0125,2.4155-0.0029,4.8314-0.0013,7.247
		C21.3448,23.5622,21.3609,23.7456,21.3715,23.9643z M29.3435,47.9326c0,0.2498-0.001,0.4997,0.0002,0.7494
		c0.0032,0.7286-0.0206,1.4587,0.017,2.1854c0.0722,1.3894,1.2611,2.4802,2.6517,2.4704c1.3723-0.0096,2.5768-1.0754,2.617-2.4334
		c0.0547-1.8514,0.0403-3.7056,0.0147-5.5579c-0.007-0.5056,0.128-0.8179,0.551-1.1302c1.9757-1.459,2.6586-4.0034,1.731-6.2448
		c-0.9203-2.2238-3.1819-3.5474-5.561-3.2541c-2.195,0.2706-3.9486,1.7973-4.5134,3.9294
		c-0.5578,2.1058,0.1874,4.2862,1.9734,5.5835c0.411,0.2986,0.5456,0.6002,0.5277,1.0794
		C29.32,46.1829,29.3435,47.0582,29.3435,47.9326z"/>
</g>
</svg>
