<?xml version="1.0" encoding="utf-8"?>
<!-- Generator: Adobe Illustrator 24.0.2, SVG Export Plug-In . SVG Version: 6.00 Build 0)  -->
<svg version="1.1" id="Capa_1" xmlns="http://www.w3.org/2000/svg" xmlns:xlink="http://www.w3.org/1999/xlink" x="0px" y="0px"
	 width="64px" height="64px" viewBox="0 0 64 64" style="enable-background:new 0 0 64 64;" xml:space="preserve">
<style type="text/css">
	.st0{fill-rule:evenodd;clip-rule:evenodd;fill:#FF5C1E;}
	.st1{opacity:0.71;fill:#004380;enable-background:new    ;}
</style>
<g>
	<g>
		<path class="st0" d="M30.9364,0.0885c-7.8616,0-14.2577,6.4237-14.2576,14.3084c0.0001,7.8847,6.3961,14.3084,14.2576,14.3084
			s14.2575-6.4237,14.2576-14.3084S38.798,0.0885,30.9364,0.0885z M30.9364,2.69c6.4499,0,11.6561,5.2225,11.656,11.7069
			s-5.2063,11.7069-11.656,11.7069s-11.656-5.2225-11.656-11.7069C19.2803,7.9126,24.4865,2.69,30.9364,2.69z M23.1827,31.3069
			c-10.7901,0-19.5115,8.7624-19.5115,19.5877v11.7475c0.0001,0.7184,0.5824,1.3007,1.3008,1.3008h10.0251
			c0.2483,0.0761,0.5138,0.0761,0.7622,0h30.4561c0.2483,0.0761,0.5138,0.0761,0.7622,0h10.0251
			c0.7184-0.0001,1.3007-0.5824,1.3008-1.3008V50.8946c0-10.8252-8.7213-19.5877-19.5115-19.5877L23.1827,31.3069z M23.1827,33.9084
			h15.6092c9.3882,0,16.9099,7.5514,16.9099,16.9862v10.4468h-7.8046V50.8742c0.0084-0.7184-0.5671-1.3076-1.2856-1.3161
			c-0.0118-0.0001-0.0237-0.0001-0.0355,0.0001c-0.7164,0.0112-1.2889,0.5996-1.2805,1.316v10.4671H16.6788V50.8742
			c0.0084-0.7184-0.5671-1.3076-1.2856-1.3161c-0.0118-0.0001-0.0237-0.0001-0.0355,0.0001
			c-0.7164,0.0112-1.2889,0.5996-1.2805,1.316v10.4671H6.2727V50.8946C6.2727,41.4598,13.7944,33.9084,23.1827,33.9084z"/>
	</g>
	<circle class="st1" cx="47.6877" cy="27.1165" r="12.7196"/>
</g>
</svg>
