<?xml version="1.0" encoding="utf-8"?>
<!-- Generator: Adobe Illustrator 24.0.2, SVG Export Plug-In . SVG Version: 6.00 Build 0)  -->
<svg version="1.1" id="Capa_1" xmlns="http://www.w3.org/2000/svg" xmlns:xlink="http://www.w3.org/1999/xlink" x="0px" y="0px"
	 width="64px" height="64px" viewBox="0 0 64 64" style="enable-background:new 0 0 64 64;" xml:space="preserve">
<style type="text/css">
	.st0{fill:#FFFFFF;}
</style>
<g>
	<path class="st0" d="M13.2978,0c1.2677,0.2744,2.486,0.6625,3.5005,1.5199c0.1428,0.1207,0.2929,0.2345,0.4249,0.3663
		c2.8739,2.8705,5.7598,5.7291,8.6132,8.6198c2.1197,2.1473,2.4876,5.0991,0.9946,7.5542c-0.6731,1.1068-1.6236,1.885-2.8431,2.3235
		c-1.763,0.6339-3.1241,1.7134-3.8822,3.4685c-0.5051,1.1693-0.5736,2.3617-0.2453,3.5969c0.8268,3.1109,2.512,5.739,4.572,8.1501
		c2.6224,3.0693,5.6388,5.6623,9.2842,7.4587c1.2911,0.6363,2.6278,1.225,4.1012,1.1584c2.7895-0.126,4.7491-1.4763,5.7352-4.1335
		c0.4736-1.2761,1.2653-2.2821,2.4415-2.9797c2.2302-1.3228,5.0581-1.1433,6.9731,0.6084c1.8426,1.6855,3.5742,3.4932,5.3403,5.2613
		c1.442,1.4436,2.9366,2.844,4.2753,4.3791c1.7899,2.0524,1.8433,5.2611,0.2555,7.4821c-0.3251,0.4547-0.6906,0.8878-1.0834,1.2856
		c-1.683,1.7046-3.411,3.3655-5.0687,5.094c-1.5108,1.5753-3.3245,2.4584-5.4797,2.6833c-0.0973,0.0101-0.1896,0.0676-0.2843,0.103
		c-0.875,0-1.75,0-2.625,0c-1.1586-0.2241-2.3316-0.3918-3.4733-0.6822c-4.7107-1.1983-8.9651-3.41-13.0175-6.0266
		c-6.7272-4.3437-12.6324-9.6407-17.905-15.6509C9.2662,36.3559,5.2546,30.6553,2.4906,24.1514
		c-1.2998-3.0585-2.2594-6.215-2.3555-9.575c-0.0848-2.9641,0.7006-5.5681,2.9782-7.6401c1.4771-1.3436,2.8689-2.7853,4.2454-4.234
		C8.6337,1.3604,10.0174,0.2531,11.9228,0C12.3812,0,12.8395,0,13.2978,0z"/>
</g>
</svg>
