<?xml version="1.0" encoding="utf-8"?>
<!-- Generator: Adobe Illustrator 24.0.2, SVG Export Plug-In . SVG Version: 6.00 Build 0)  -->
<svg version="1.1" id="Capa_1" xmlns="http://www.w3.org/2000/svg" xmlns:xlink="http://www.w3.org/1999/xlink" x="0px" y="0px"
	 width="64px" height="64px" viewBox="0 0 64 64" style="enable-background:new 0 0 64 64;" xml:space="preserve">
<style type="text/css">
	.st0{fill:#FFFFFF;}
</style>
<g>
	<path class="st0" d="M35.1685,15.0716l27.518,27.5186c1.7514,1.7506,1.7514,4.5886,0,6.3384c-1.7498,1.7498-4.5879,1.7498-6.3375,0
		L32,24.5789L7.6515,48.9279c-1.7506,1.7498-4.5883,1.7498-6.3381,0c-1.7506-1.7498-1.7506-4.5878,0-6.3384l27.5183-27.5186
		c0.8754-0.8749,2.0213-1.3118,3.1678-1.3118C33.1467,13.759,34.2936,14.1968,35.1685,15.0716z"/>
</g>
</svg>
