<?xml version="1.0" encoding="utf-8"?>
<!-- Generator: Adobe Illustrator 24.0.2, SVG Export Plug-In . SVG Version: 6.00 Build 0)  -->
<svg version="1.1" id="Capa_1" xmlns="http://www.w3.org/2000/svg" xmlns:xlink="http://www.w3.org/1999/xlink" x="0px" y="0px"
	 width="64px" height="64px" viewBox="0 0 64 64" style="enable-background:new 0 0 64 64;" xml:space="preserve">
<style type="text/css">
	.st0{fill:#76777A;}
	.st1{opacity:0.9;fill:#CF242A;enable-background:new    ;}
</style>
<g>
	<g>
		<path class="st0" d="M18.2395,31.7358c-0.8053,0.0014-1.2078,0.1932-1.2348,0.7074c-0.0166,0.3171,0.1403,0.7199,0.3587,0.9545
			c0.3123,0.3354,1.3728,0.327,1.6728-0.0123c0.2125-0.2404,0.3787-0.6558,0.3354-0.9603
			C19.2803,31.7832,18.7288,31.712,18.2395,31.7358z M32.0926,33.5981c0.8254,0.0032,1.3121-0.3793,1.2685-0.9967
			c-0.0395-0.5603-0.4539-0.8592-1.1997-0.8654c-0.8323-0.007-1.2271,0.2478-1.2827,0.8278
			C30.8167,33.2105,31.2679,33.5949,32.0926,33.5981z"/>
		<path class="st0" d="M0,37.6028c0.4091-0.9578,1.2465-1.0302,2.1931-0.9521c0-0.2965,0-0.5192,0-0.7419
			c0.0001-1.759-0.0033-3.5179,0.0011-5.2769c0.0045-1.7935,0.9276-2.7199,2.7057-2.7236c0.8484-0.0018,1.6981,0.0247,2.5446-0.0161
			c0.2446-0.0118,0.558-0.1499,0.7084-0.3362c4.3462-5.3862,9.9153-8.1072,16.8848-7.7295c2.31,0.1252,4.6405,0.213,6.9137,0.5998
			c3.5669,0.607,6.6509,2.3125,9.3172,4.7596c1.2043,1.1053,2.4175,2.2016,3.5991,3.3308c0.3308,0.3161,0.6602,0.3981,1.1018,0.401
			c1.5487,0.0104,3.0979,0.0575,4.6452,0.1279c0.5721,0.026,0.9395,0.4811,0.9007,0.9847c-0.0396,0.514-0.4585,0.8689-1.0276,0.8607
			c-2.2094-0.0318-4.4198-0.0353-6.628-0.1052c-9.2444-0.2927-18.4881-0.6053-27.732-0.9119
			c-0.3515-0.0117-0.7025-0.0391-1.0539-0.0547c-0.825-0.0366-1.4201-0.4319-1.7422-1.1842
			c-0.3253-0.7597-0.1585-1.4595,0.3736-2.0759c1.2536-1.4521,2.7225-2.6539,4.3213-3.7039
			c0.1636-0.1074,0.3241-0.2195,0.4861-0.3294c-0.026-0.0525-0.052-0.105-0.078-0.1575c-1.0228,0.468-2.0818,0.8711-3.0612,1.417
			c-2.4133,1.3449-4.5121,3.0682-6.0608,5.3941c-0.2786,0.4184-0.6413,0.6115-1.1452,0.5958
			c-0.6179-0.0192-1.2368-0.0046-1.9948-0.0046c0.5287,0.7549,0.9569,1.4543,1.4729,2.0815
			c0.6916,0.8406,0.9014,1.7757,0.8219,2.8335c-0.0908,1.208-0.9934,2.1396-2.2038,2.1755
			c-0.7008,0.0208-1.4026,0.0038-1.9688,0.0038c-0.2681,0.5635-0.3759,1.2118-0.7503,1.463
			c-0.4064,0.2722-1.0607,0.175-1.6446,0.2435c0,0.6837,0,1.3759,0,2.1107c0.1613,0.0137,0.3191,0.0385,0.4769,0.0387
			c2.2556,0.0026,4.5114,0.0138,6.7666-0.0147c0.2574-0.0032,0.5906-0.1686,0.756-0.3685c2.5373-3.0673,7.1127-3.1033,9.645-0.0382
			c0.2694,0.326,0.5374,0.431,0.941,0.4306c8.5258-0.0097,17.0516-0.0093,25.5773-0.0008c0.3789,0.0004,0.6312-0.0911,0.8863-0.4053
			c2.4794-3.0537,7.0767-3.0723,9.5856-0.0421c0.2626,0.3172,0.5172,0.458,0.9322,0.4505c1.3841-0.0253,2.769-0.0096,4.1996-0.0096
			c0-0.2863,0-0.5404,0-0.7098c-1.0842-0.1845-2.1703-0.298-3.2162-0.5676c-1.0156-0.2618-1.8929-0.8333-2.5254-1.7034
			c-1.0004-1.3763-0.5363-2.7704,1.1003-3.2178c0.612-0.1673,1.2609-0.2117,1.8966-0.2759
			c0.3809-0.0385,0.7689-0.0071,1.1536-0.0071c0.0165-0.0761,0.0329-0.1522,0.0494-0.2283
			c-0.9986-0.457-1.9861-0.9405-2.9993-1.3624c-0.7804-0.325-1.592-0.5755-2.3917-0.8536c-0.681-0.2369-0.9837-0.6993-0.7993-1.2363
			c0.1859-0.5413,0.7083-0.7768,1.3823-0.5147c1.7496,0.6803,3.5236,1.3183,5.2112,2.1322c2.0207,0.9745,3.02,2.6991,3.0427,4.9478
			c0.0216,2.1312,0.0155,4.2629,0.0013,6.3943c-0.0131,1.9663-1.4509,3.3894-3.4204,3.4098
			c-0.7656,0.0079-1.5317,0.0163-2.2968-0.0054c-0.326-0.0092-0.5085,0.0866-0.6861,0.3804
			c-2.5624,4.2388-8.2701,4.2399-10.8164-0.0051c-0.2244-0.3742-0.4844-0.3693-0.8131-0.3692
			c-5.6287,0.0012-11.2573,0.0009-16.886,0.0006c-0.1862,0-0.3734,0.0085-0.5585-0.007c-0.5386-0.0449-0.8386-0.3708-0.8643-0.8828
			c-0.0247-0.4915,0.2633-0.821,0.7444-0.9324c0.2177-0.0504,0.452-0.0387,0.6787-0.0388
			c5.3597-0.0018,10.7193-0.0014,16.079-0.0014c0.2476,0,0.4952,0,0.7753,0c0.0525-0.8146,0.1036-1.6071,0.1574-2.4418
			c-8.258,0-16.5236,0-24.8144,0c0.0561,0.792,0.1119,1.5809,0.1728,2.4423c0.8526,0,1.7205-0.0521,2.5767,0.0248
			c0.3577,0.0321,0.8127,0.2541,1.009,0.538c0.3817,0.5521-0.091,1.2701-0.807,1.2899c-0.9719,0.0269-1.9452,0.0206-2.9175,0.0027
			c-0.3436-0.0063-0.5473,0.0858-0.7366,0.4031c-1.2481,2.0926-3.1185,3.1933-5.5459,3.1288
			c-2.4792-0.0659-4.2924-1.3027-5.4619-3.5005c-0.1223-0.2298-0.418-0.4595-0.6707-0.5134
			c-2.3038-0.4909-4.6131-0.9569-6.9272-1.3971C0.8765,44.9187,0.339,44.6633,0,44.0597C0,41.9074,0,39.7551,0,37.6028z
			 M15.067,27.7741c0.0157,0.0637,0.0314,0.1274,0.0471,0.1911c4.4283,0.1499,8.8566,0.2999,13.2859,0.4498
			c0.5585-2.2367,0.5277-4.391-0.0199-6.6258C22.8939,21.6027,18.6677,24.0005,15.067,27.7741z M30.3672,22.0396
			c0.3949,2.1883,0.401,4.2781-0.0606,6.4397c4.0629,0.1368,8.0635,0.2715,12.1494,0.409
			C39.0907,25.3552,35.3995,22.6324,30.3672,22.0396z M10.4073,44.2607c0.006,2.3964,1.9365,4.3381,4.3318,4.3567
			c2.3909,0.0186,4.3867-1.9779,4.3816-4.3831c-0.0051-2.3809-1.9577-4.3366-4.346-4.3528
			C12.3668,39.8652,10.4013,41.836,10.4073,44.2607z M47.411,44.2683c0.0091,2.3959,1.9461,4.3373,4.3391,4.3491
			c2.3941,0.0117,4.3821-1.9839,4.3737-4.3905c-0.0083-2.3799-1.9673-4.3353-4.3531-4.3454
			C49.3601,39.8714,47.4017,41.842,47.411,44.2683z M58.0275,45.0534c0.8007,0,1.6179,0.0945,2.3963-0.0381
			c0.4168-0.071,0.9105-0.458,1.1092-0.8383c0.2256-0.4318,0.1603-1.0155,0.2225-1.5425c-1.3926,0-2.6576,0-3.9008,0
			C57.9124,43.4416,57.9667,44.2011,58.0275,45.0534z M8.6842,42.6304c-2.3057,0-4.5482,0-6.7683,0
			c-0.1643,0.4491,0.0333,0.5936,0.4058,0.6651c1.2174,0.2339,2.4303,0.4913,3.6461,0.734c0.8394,0.1676,1.6806,0.3259,2.5299,0.49
			C8.5641,43.8484,8.6225,43.2563,8.6842,42.6304z M4.1001,30.0648c0,1.753,0,3.3196,0,4.9377c0.6954,0,1.3525,0.0205,2.0066-0.0145
			c0.1616-0.0087,0.434-0.1842,0.4476-0.3063c0.0424-0.3794,0.1213-0.8554-0.0578-1.1412
			C5.7817,32.3988,4.9745,31.315,4.1001,30.0648z M57.2759,36.2961c0.7316,1.3027,2.9683,2.0431,4.431,1.5823
			c0-0.3242,0.0109-0.6538-0.0022-0.9826c-0.0319-0.8056-0.0617-0.8373-0.8487-0.8346c-0.5567,0.0019-1.1145,0.008-1.6696,0.0451
			C58.578,36.147,57.972,36.2252,57.2759,36.2961z"/>
		<path class="st0" d="M18.2395,31.7358c0.4894-0.0238,1.0408,0.0474,1.1321,0.6892c0.0433,0.3045-0.1229,0.72-0.3354,0.9603
			c-0.3,0.3393-1.3605,0.3477-1.6728,0.0123c-0.2184-0.2346-0.3754-0.6374-0.3587-0.9545
			C17.0317,31.929,17.4342,31.7371,18.2395,31.7358z"/>
		<path class="st0" d="M32.0926,33.5981c-0.8248-0.0032-1.2759-0.3876-1.2139-1.0344c0.0556-0.58,0.4504-0.8348,1.2827-0.8278
			c0.7458,0.0063,1.1602,0.3051,1.1997,0.8654C33.4047,33.2189,32.918,33.6013,32.0926,33.5981z"/>
		<path class="st0" d="M17.7874,44.2216c0.0124,1.6901-1.3257,3.0551-3.0055,3.066c-1.6745,0.0109-3.0537-1.3412-3.0748-3.0143
			c-0.0208-1.6581,1.3559-3.0555,3.023-3.0685C16.4112,41.1917,17.7751,42.5375,17.7874,44.2216z M14.7656,43.0707
			c-0.643-0.0051-1.1952,0.543-1.1914,1.1827c0.0038,0.6416,0.5586,1.1813,1.2027,1.1701c0.6296-0.011,1.132-0.5164,1.1437-1.1506
			C15.9329,43.612,15.4178,43.0759,14.7656,43.0707z"/>
		<path class="st0" d="M54.791,44.2576c-0.0044,1.6876-1.3558,3.0338-3.0418,3.0301c-1.6676-0.0036-3.0471-1.3879-3.0396-3.0503
			c0.0075-1.6661,1.3898-3.0361,3.0597-3.0324C53.4474,41.2088,54.7954,42.5705,54.791,44.2576z M51.7675,45.4236
			c0.653-0.0043,1.1679-0.5387,1.1565-1.2002c-0.011-0.6331-0.5141-1.1405-1.1428-1.1525
			c-0.6422-0.0123-1.1999,0.5296-1.2039,1.1701C50.5732,44.8816,51.1228,45.4278,51.7675,45.4236z"/>
	</g>
	<path class="st1" d="M62.9033,22.3432C63.5921,21.4218,64,20.2783,64,19.0394c0-3.0504-2.4728-5.5232-5.5232-5.5232
		c-1.2264,0-2.3591,0.4003-3.2756,1.0767l-0.0003-0.0003l-0.0015,0.0016c-0.5278,0.3898-0.9832,0.8717-1.3437,1.4215l-6.682,7.0687
		l-0.8113,0.8777l-0.7103-0.9014l-1.0745-1.4321c-0.9771-1.5548-2.7067-2.5891-4.6786-2.5891c-3.0504,0-5.5232,2.4728-5.5232,5.5232
		c0,1.2448,0.412,2.3932,1.1068,3.3168l0,0l0.0001,0.0001c0.3063,0.4073,0.6681,0.7702,1.0734,1.0789l5.7304,5.7602
		c1.0132,1.1979,2.5263,1.9593,4.2181,1.9593c1.3703,0,2.6231-0.5001,3.5884-1.3264h0.0011l0.0067-0.0068
		c0.2383-0.2047,0.4598-0.4283,0.6602-0.6704l11.0954-11.2679C62.2511,23.1006,62.6042,22.7434,62.9033,22.3432L62.9033,22.3432
		L62.9033,22.3432z"/>
</g>
</svg>
