<?xml version="1.0" encoding="utf-8"?>
<!-- Generator: Adobe Illustrator 24.0.2, SVG Export Plug-In . SVG Version: 6.00 Build 0)  -->
<svg version="1.1" id="Capa_1" xmlns="http://www.w3.org/2000/svg" xmlns:xlink="http://www.w3.org/1999/xlink" x="0px" y="0px"
	 width="64px" height="64px" viewBox="0 0 64 64" style="enable-background:new 0 0 64 64;" xml:space="preserve">
<style type="text/css">
	.st0{fill:#76777A;}
	.st1{opacity:0.9;fill:#CF242A;enable-background:new    ;}
</style>
<g>
	<path class="st0" d="M58.0309,40.9027c4.8543,3.2892,7.1066,7.7574,5.8835,13.5206c-1.0755,5.0675-4.3839,8.2604-9.4201,9.5008
		c-4.5526,1.1213-10.3165-0.5758-13.5597-5.9067c-7.976,2.9647-15.8939,2.8091-23.657-0.7354
		c-6.1514-2.8086-10.8378-7.2619-13.9901-13.245c-6.4562-12.2543-3.877-27.0543,6.2754-36.3806
		c10.0803-9.26,25.0831-10.5243,36.733-3.0752C57.5337,11.7668,63.504,26.5781,58.0309,40.9027z M51.8411,41.3806
		c-5.7654-0.0126-10.4358,4.6285-10.4485,10.383c-0.0127,5.7054,4.6431,10.3407,10.3981,10.3525
		c5.6015,0.0115,10.3164-4.6923,10.332-10.3077C62.1384,46.1431,57.4549,41.3929,51.8411,41.3806z M45.2203,17.5206
		c0.8142,3.4955,1.3257,7.1274,1.3779,10.8147c0.007,0.4958,0.2638,0.4925,0.6182,0.4919c3.358-0.0057,6.7159-0.0027,10.0739-0.0057
		c0.1663-0.0001,0.3326-0.0318,0.5941-0.0586c-0.2317-5.4906-1.9254-10.4205-4.9424-14.7793
		C50.3259,15.182,47.8172,16.3311,45.2203,17.5206z M6.9022,13.9765c-2.9255,4.2842-4.6437,9.0563-4.9133,14.3364
		c-0.0282,0.5522,0.2916,0.5138,0.6563,0.5133c3.3146-0.0042,6.6292-0.0018,9.9438-0.004c0.1893-0.0001,0.3785-0.023,0.624-0.039
		c0.0835-3.8618,0.5577-7.643,1.4142-11.2611C12.0484,16.3386,9.5232,15.1795,6.9022,13.9765z M14.6277,42.3016
		c-0.8646-3.6274-1.3277-7.4265-1.4208-11.2698c-0.2235-0.0147-0.3522-0.0306-0.4809-0.0306
		c-3.3795-0.0014-6.7591,0.009-10.1385-0.0121c-0.5112-0.0032-0.6191,0.1764-0.595,0.6445
		c0.1848,3.5893,1.0713,7.0029,2.6276,10.2301c0.6811,1.4123,1.5146,2.751,2.2161,4.0105
		C9.5173,44.6447,12.0429,43.4867,14.6277,42.3016z M28.8363,2.0123c-0.1972,0.0203-0.3009,0.0219-0.4006,0.0425
		c-1.7191,0.3552-3.1873,1.1955-4.4828,2.353c-2.3075,2.0617-3.8624,4.6459-5.0727,7.4513
		c-0.5433,1.2594-0.9888,2.5609-1.4925,3.8793c0.3125,0.1006,0.4918,0.172,0.6776,0.216c3.3083,0.7833,6.6547,1.2693,10.0595,1.35
		c0.5882,0.0139,0.726-0.1607,0.7234-0.7253c-0.0211-4.6331-0.0119-9.2664-0.0119-13.8997
		C28.8363,2.4721,28.8363,2.2649,28.8363,2.0123z M28.8001,57.8264c0.0165-0.2129,0.0347-0.3389,0.0347-0.465
		c0.0015-4.7413-0.005-9.4826,0.0109-14.2239c0.0016-0.4901-0.1477-0.6652-0.6331-0.6118c-2.6585,0.2923-5.3217,0.545-7.9757,0.8727
		c-0.9272,0.1145-1.8329,0.404-2.8748,0.6426c0.5374,1.3967,0.9881,2.6998,1.5345,3.9615c1.2144,2.8038,2.7729,5.3866,5.0883,7.4394
		C25.3482,56.6504,26.8904,57.5148,28.8001,57.8264z M42.4867,15.8199c-0.5132-1.3584-0.9273-2.5835-1.4335-3.7692
		c-1.234-2.8905-2.8104-5.5621-5.1956-7.6748c-1.3632-1.2075-2.9045-2.0714-4.7877-2.3752
		c-0.0225,0.2073-0.0555,0.3702-0.0556,0.5331c-0.0028,4.7198,0.0045,9.4396-0.0121,14.1594
		c-0.0018,0.5,0.1651,0.6497,0.6406,0.6049c2.1494-0.2024,4.3077-0.3304,6.448-0.6013
		C39.5162,16.5164,40.9169,16.1405,42.4867,15.8199z M16.8715,18.0553c-0.0363,0.0683-0.0951,0.1393-0.1137,0.2197
		c-0.7673,3.312-1.2212,6.6633-1.2764,10.0664c-0.007,0.4338,0.2119,0.4882,0.5659,0.4867c2.1855-0.009,4.3711,0.0032,6.5564-0.0157
		c0.2363-0.002,0.5074-0.109,0.7011-0.2509c1.5175-1.1122,3.1765-1.9258,4.9999-2.3825c0.4185-0.1048,0.5456-0.2872,0.5406-0.7078
		c-0.0214-1.7961-0.0076-3.5926-0.012-5.3889c-0.0004-0.1636-0.0391-0.327-0.0525-0.431c-2.044-0.1765-4.0318-0.2751-5.9974-0.5384
		C20.8228,18.8502,18.8841,18.4224,16.8715,18.0553z M31.0475,57.9656c1.0219-0.415,1.9554-0.6974,2.7945-1.1536
		c2.2904-1.2452,3.8981-3.1938,5.2625-5.3635c0.0864-0.1374,0.1239-0.3211,0.1364-0.4869c0.1845-2.4537,0.9761-4.6826,2.4393-6.668
		c0.0821-0.1115,0.1329-0.246,0.2049-0.3824c-0.1889-0.0641-0.3287-0.1269-0.4752-0.1589
		c-3.1933-0.6969-6.4141-1.1653-9.6896-1.2343c-0.5914-0.0125-0.7227,0.17-0.7202,0.731c0.0209,4.6351,0.0115,9.2703,0.0129,13.9054
		C31.0131,57.3458,31.0287,57.5372,31.0475,57.9656z M57.9169,31.0782c-0.2446-0.0489-0.3072-0.0723-0.3699-0.0723
		c-3.487-0.0031-6.974,0.0037-10.461-0.0146c-0.5106-0.0027-0.4562,0.2898-0.4863,0.626c-0.1966,2.1941-0.3953,4.3883-0.626,6.579
		c-0.0891,0.8458-0.2635,1.6826-0.4103,2.5938c0.1675-0.0564,0.2496-0.0729,0.3212-0.1098
		c3.1296-1.6182,6.3773-1.9129,9.7376-0.8505c0.3677,0.1162,0.5324-0.0056,0.6176-0.3285c0.4456-1.6891,0.9462-3.3667,1.3079-5.0737
		C57.7778,33.3427,57.7993,32.2134,57.9169,31.0782z M43.0283,18.0485c-2.0566,0.3743-3.9978,0.8022-5.9612,1.0639
		c-1.9843,0.2645-3.9906,0.3644-6.0041,0.5378c0,1.9988,0,3.9989,0,5.9955c0.6654,0,1.2779,0,1.9336,0
		c0-0.5991,0.0175-1.1395-0.0048-1.6783c-0.0233-0.5602,0.0767-1.05,0.6428-1.2966c0.5522-0.2406,0.9925-0.0072,1.4139,0.3572
		c1.7859,1.5448,3.6316,3.0246,5.3549,4.6358c0.9566,0.8944,1.9391,1.3209,3.2436,1.1848c0.5548-0.0579,0.7773-0.1575,0.7121-0.7427
		c-0.2917-2.6178-0.5408-5.2405-0.8491-7.8563C43.4208,19.4918,43.186,18.751,43.0283,18.0485z M31.0524,40.174
		c2.0167,0.1752,4.0017,0.2742,5.9643,0.5388c1.9815,0.2672,3.9409,0.6986,6.0188,1.0779c0.2806-1.5267,0.6374-3.0621,0.8295-4.6179
		c0.2301-1.8636,0.3264-3.7441,0.4585-5.6189c0.0122-0.1739-0.1467-0.5193-0.2069-0.515c-1.0132,0.0723-2.0566-0.3463-3.0054,0.5194
		c-2.0145,1.8379-4.1274,3.5677-6.1971,5.3453c-0.3981,0.3419-0.8349,0.4603-1.3169,0.2291
		c-0.4628-0.2219-0.6207-0.6216-0.6048-1.1242c0.019-0.6006,0.0045-1.2022,0.0045-1.9111c-0.7052,0.0604-1.3303,0.114-1.9444,0.1666
		C31.0524,36.3074,31.0524,38.2482,31.0524,40.174z M20.332,36.5276c0.0699-0.045,0.1458-0.083,0.2089-0.1361
		c3.7388-3.1404,8.0412-4.6298,12.9268-4.4639c1.4753,0.0501,1.6382,0.1569,1.7294,1.5946
		c0.0017,0.0272,0.0555,0.0511,0.1085,0.0968c1.4124-1.2183,2.8277-2.4392,4.3046-3.7131
		c-1.5137-1.2978-2.9261-2.5087-4.4288-3.7971c0,0.2804,0.0022,0.4095-0.0004,0.5384c-0.0176,0.8654-0.3719,1.2471-1.2168,1.2368
		c-2.4142-0.0294-4.7983,0.09-7.0402,1.1376C23.6384,30.557,21.4236,33.041,20.332,36.5276z M37.8748,3.1096
		c3.3549,3.3822,5.2868,7.552,6.7199,12.0461c2.4368-0.7465,4.6801-1.7757,6.8827-3.1138
		C47.7977,7.6791,43.2949,4.7117,37.8748,3.1096z M8.4203,47.7489c2.4041,3.5685,10.333,8.7618,13.5776,8.9142
		c-3.3819-3.3494-5.3101-7.4987-6.7412-11.9883C12.8268,45.4021,10.5896,46.441,8.4203,47.7489z M21.9694,3.1054
		c-5.4149,1.615-9.9252,4.5692-13.5975,8.9384c2.2107,1.3333,4.4479,2.3737,6.8829,3.104
		C16.6836,10.6495,18.6252,6.4897,21.9694,3.1054z M28.7663,40.1031c0-1.7614,0-3.5966,0-5.4455
		c-3.6136,0.7098-8.2811,3.971-9.479,6.4985C22.3762,40.813,25.5423,40.4613,28.7663,40.1031z M20.7184,30.9999
		c-1.627,0-3.0928,0.023-4.5572-0.0118c-0.5539-0.0132-0.7322,0.1673-0.6729,0.7064c0.2907,2.6396,0.5451,5.2834,0.8568,7.9205
		c0.0887,0.7503,0.3266,1.483,0.5,2.2408c0.672-0.164,1.2109-0.2955,1.7931-0.4376c-0.923-0.0866-1.282-0.4216-1.2296-1.2815
		c0.0629-1.0317,0.1458-2.0726,0.3502-3.0832C18.2036,34.854,19.2195,32.9048,20.7184,30.9999z M37.7599,56.7083
		c0.0219,0.0276,0.0439,0.0553,0.0658,0.0829c0.3456-0.111,0.695-0.2114,1.036-0.335c1.2744-0.4618,1.1692-0.1895,0.75-1.5337
		c-0.0098-0.0315-0.061-0.0501-0.1175-0.0938C38.9174,55.4539,38.3386,56.0811,37.7599,56.7083z"/>
	<path class="st0" d="M52.8605,46.4671v4.1555c2.699,0.5021,4.1368,2.0041,4.1289,4.287c-0.0077,2.2351-1.4588,3.7285-4.1528,4.2275
		v0.9046c0,0.5831-0.4727,1.0558-1.0558,1.0558h0c-0.5831,0-1.0558-0.4727-1.0558-1.0558v-0.9388
		c-1.4054-0.1018-2.533-0.622-3.3478-1.7073c-0.2533-0.3373-0.4567-0.6933-0.5979-1.075c-0.2558-0.6914,0.2523-1.4273,0.9895-1.4273
		h0.0562c0.4412,0,0.8235,0.2792,0.9894,0.688c0.2988,0.736,0.8672,1.2265,1.8443,1.3433v-4.0584
		c-1.3574-0.1179-2.5196-0.6478-3.3431-1.7933c-0.6216-0.8645-0.8494-1.8329-0.764-2.8848c0.1627-2.0049,1.781-3.5056,4.1402-3.7771
		v-0.9374c0-0.5885,0.477-1.0655,1.0655-1.0655l0,0c0.5885,0,1.0655,0.477,1.0655,1.0655v0.913
		c2.6552,0.423,3.9994,1.7706,4.1446,4.1692c0.0359,0.5935-0.4497,1.0895-1.0443,1.0895h-0.0407
		c-0.546,0-0.9869-0.4284-1.0241-0.9732c-0.0396-0.5779-0.1785-1.1252-0.6998-1.5352
		C53.8037,46.8581,53.3454,46.7111,52.8605,46.4671z M50.66,50.6515v-4.0424c-1.2346,0.1725-1.995,0.9672-1.9866,2.0392
		C48.6818,49.721,49.4831,50.5344,50.66,50.6515z M52.8499,52.8688v4.0179c1.1872-0.0838,2.03-0.9493,2.0068-2.0419
		C54.8338,53.7631,54.0128,52.9476,52.8499,52.8688z"/>
</g>
<g>
	<circle class="st1" cx="47.8983" cy="49.4734" r="12.7196"/>
</g>
</svg>
