<?xml version="1.0" encoding="utf-8"?>
<!-- Generator: Adobe Illustrator 24.0.2, SVG Export Plug-In . SVG Version: 6.00 Build 0)  -->
<svg version="1.1" id="Capa_1" xmlns="http://www.w3.org/2000/svg" xmlns:xlink="http://www.w3.org/1999/xlink" x="0px" y="0px"
	 width="64px" height="64px" viewBox="0 0 64 64" style="enable-background:new 0 0 64 64;" xml:space="preserve">
<style type="text/css">
	.st0{fill:#CF242A;}
</style>
<g>
	<g>
		<g>
			<path class="st0" d="M64,15.7474c-0.2647,2.1381-1.5681,3.6237-3.0282,5.0782C50.1842,31.572,39.4228,42.3448,28.6666,53.1227
				c-1.52,1.523-3.2925,2.301-5.4472,2.1098c-1.3637-0.121-2.5802-0.6261-3.6078-1.5469c-0.279-0.25-0.545-0.5149-0.81-0.7799
				C13.5428,47.6479,8.304,42.3698,3.0147,37.1428C1.5634,35.7086,0.2923,34.2267,0,32.1246c0-0.4584,0-0.9168,0-1.3752
				c0.3662-0.9605,0.5783-2.0212,1.1259-2.8638c2.1081-3.2439,6.653-3.7822,9.5398-1.195c0.7743,0.694,1.4907,1.4531,2.2271,2.1889
				c3.4762,3.4737,6.9513,6.9486,10.4212,10.4287c0.1595,0.1599,0.2644,0.3743,0.3947,0.5633
				c0.0916,0.0114,0.1832,0.0228,0.2748,0.0342c0.1363-0.2113,0.2921-0.4103,0.4136-0.6293
				c9.4614-9.4743,18.9341-18.9372,28.3897-28.4174c1.4687-1.4725,3.1805-2.2349,5.264-2.106
				c2.9636,0.1833,5.375,2.3903,5.843,5.3296C63.916,14.2229,63.964,14.3591,64,14.4972C64,14.914,64,15.3307,64,15.7474z"/>
		</g>
	</g>
</g>
</svg>
