<?xml version="1.0" encoding="utf-8"?>
<!-- Generator: Adobe Illustrator 24.0.2, SVG Export Plug-In . SVG Version: 6.00 Build 0)  -->
<svg version="1.1" id="Capa_1" xmlns="http://www.w3.org/2000/svg" xmlns:xlink="http://www.w3.org/1999/xlink" x="0px" y="0px"
	 width="64px" height="64px" viewBox="0 0 64 64" style="enable-background:new 0 0 64 64;" xml:space="preserve">
<style type="text/css">
	.st0{fill:#89105D;}
	.st1{opacity:0.71;fill:#008F94;enable-background:new    ;}
</style>
<g>
	<g>
		<path class="st0" d="M13.314,43.6535c-1.3825,0-2.5071,1.1247-2.5071,2.5071s1.1247,2.5071,2.5071,2.5071
			s2.5071-1.1247,2.5071-2.5071S14.6965,43.6535,13.314,43.6535z M13.314,46.7047c-0.3,0-0.5441-0.2441-0.5441-0.5441
			c0-0.3,0.244-0.5441,0.5441-0.5441c0.3,0,0.5441,0.2441,0.5441,0.5441S13.614,46.7047,13.314,46.7047z"/>
		<path class="st0" d="M63.997,36.8384c0.0696-2.687-1.0635-5.2243-3.1132-6.9654c-0.017-0.0144-0.0344-0.0282-0.0523-0.0414
			l-23.612-17.4418c-1.0007-0.8392-2.2692-1.3009-3.5758-1.3009H13.4493c-2.4633,0-4.6589,1.6505-5.3446,4.0152L0.2193,39.9512
			c-0.0027,0.0087-0.0054,0.0174-0.0079,0.0261c-0.3908,1.3612-0.2362,2.7977,0.4352,4.0446l1.4023,2.6041
			c0.2571,0.4773,0.8522,0.6558,1.3295,0.3989c0.4773-0.257,0.6559-0.8523,0.3989-1.3295L2.375,43.0912
			c-0.4249-0.7893-0.5243-1.698-0.2803-2.5602l0.5981-1.8845h2.8874c1.4255,0,2.7395-0.833,3.3476-2.1223
			c0.3299-0.6997,0.3478-1.5103,0.0489-2.2238c-0.2988-0.7135-0.8888-1.2693-1.6189-1.5252
			c-0.0987-0.0346-0.2022-0.0532-0.3068-0.0551l-2.4633-0.0446l5.392-16.9901c0.0027-0.0086,0.0054-0.0173,0.0079-0.026
			c0.4408-1.5353,1.8643-2.6076,3.4617-2.6076h20.1944c0.8532,0,1.6814,0.3042,2.3316,0.8566
			c0.017,0.0144,0.0344,0.0282,0.0523,0.0414L59.6374,31.39c1.3105,1.1236,2.1327,2.6679,2.3442,4.3493L55.53,35.0265
			l-1.6305-1.6479l1.2002-1.5752c0.3285-0.4312,0.2453-1.0471-0.186-1.3756c-0.4313-0.3287-1.0472-0.2452-1.3755,0.1859
			l-1.7173,2.2539c-0.2965,0.3892-0.2611,0.9374,0.0831,1.2853l2.475,2.5015c0.1581,0.1598,0.3664,0.2605,0.5899,0.2853
			l7.039,0.7777l-0.1657,5.6342l-3.64,1.5167c-0.6224-3.954-4.0526-6.9878-8.1788-6.9878c-4.5657,0-8.2801,3.7145-8.2801,8.2801
			c0,0.0283,0.0019,0.0561,0.0021,0.0844H21.5921c0.0003-0.0282,0.0021-0.0561,0.0021-0.0844c0-4.5657-3.7145-8.2801-8.2802-8.2801
			s-8.2802,3.7145-8.2802,8.2801c0,4.5658,3.7145,8.2803,8.2802,8.2803c3.8593,0,7.1099-2.6541,8.0236-6.2329H42
			c0.9137,3.5787,4.1643,6.2329,8.0235,6.2329c4.2929,0,7.8324-3.284,8.2402-7.4715l4.9185-2.0494
			c0.3561-0.1484,0.5922-0.4915,0.6036-0.8771l0.211-7.1728c0.0001-0.0046-0.0001-0.0091,0-0.0137
			C63.997,36.8503,63.997,36.8444,63.997,36.8384z M6.8252,34.6796c0.153,0.0832,0.2718,0.2145,0.3408,0.3792
			c0.0856,0.2046,0.0807,0.4278-0.0138,0.6283c-0.2856,0.6053-0.9026,0.9965-1.572,0.9965H3.3158l0.6524-2.0557L6.8252,34.6796z
			 M13.314,52.4779c-3.4833,0-6.3171-2.8339-6.3171-6.3172s2.8339-6.3171,6.3171-6.3171s6.3171,2.8338,6.3171,6.3171
			S16.7973,52.4779,13.314,52.4779z M50.0235,52.4779c-3.4833,0-6.3171-2.8339-6.3171-6.3172s2.8338-6.3171,6.3171-6.3171
			s6.3172,2.8338,6.3172,6.3171S53.5068,52.4779,50.0235,52.4779z"/>
		<path class="st0" d="M13.106,24.4116c2.0091-0.4367,3.5402-2.0254,3.9029-4.0488l0.9471-4.8795
			c0.1033-0.5321-0.2444-1.0472-0.7765-1.1506c-0.5323-0.1028-1.0473,0.2444-1.1506,0.7766l-0.9484,4.8866
			c-0.001,0.0052-0.0019,0.0103-0.0028,0.0154c-0.2194,1.2352-1.1502,2.2065-2.3735,2.4786l-3.0848,0.5632
			c-0.5334,0.0974-0.8868,0.6087-0.7894,1.142c0.0865,0.4737,0.4995,0.8054,0.9644,0.8054c0.0585,0,0.1178-0.0053,0.1775-0.0162
			l3.1019-0.5663C13.0846,24.4161,13.0953,24.4139,13.106,24.4116z"/>
		<path class="st0" d="M20.1836,14.315c-0.5421,0-0.9815,0.4395-0.9815,0.9815v6.6441c0,1.9036,1.5487,3.4524,3.4524,3.4524H41.884
			c1.0562,0,2.0787-0.2216,3.0399-0.6586l1.2714-0.5368c0.4995-0.2109,0.7333-0.7866,0.5225-1.286
			c-0.2109-0.4995-0.7866-0.7331-1.286-0.5225l-1.2843,0.5422c-0.0088,0.0038-0.0176,0.0076-0.0263,0.0116
			c-0.707,0.3232-1.4598,0.4871-2.2372,0.4871H22.6544c-0.8212,0-1.4893-0.6681-1.4893-1.4893v-6.6441
			C21.1651,14.7544,20.7256,14.315,20.1836,14.315z"/>
		<path class="st0" d="M18.0266,30.3557v6.4856c0,0.5421,0.4395,0.9815,0.9815,0.9815c0.5421,0,0.9815-0.4394,0.9815-0.9815v-6.321
			l1.1217-3.2499c0.1769-0.5124-0.0951-1.0712-0.6076-1.248c-0.5122-0.1771-1.0712,0.095-1.248,0.6076l-1.1754,3.4055
			C18.0448,30.1385,18.0266,30.2466,18.0266,30.3557z"/>
		<path class="st0" d="M24.7191,28.1857c-0.5421,0-0.9815,0.4395-0.9815,0.9815c0,0.5421,0.4395,0.9815,0.9815,0.9815h4.0305
			c0.5421,0,0.9815-0.4395,0.9815-0.9815c0-0.5421-0.4395-0.9815-0.9815-0.9815H24.7191z"/>
		<path class="st0" d="M50.0235,43.6535c-1.3825,0-2.5071,1.1247-2.5071,2.5071s1.1247,2.5071,2.5071,2.5071
			s2.5071-1.1247,2.5071-2.5071S51.406,43.6535,50.0235,43.6535z M50.0235,46.7047c-0.3,0-0.5441-0.2441-0.5441-0.5441
			c0-0.3,0.2441-0.5441,0.5441-0.5441s0.5441,0.2441,0.5441,0.5441S50.3235,46.7047,50.0235,46.7047z"/>
	</g>
	<path class="st1" d="M46.8078,10.9426v19.1398c0,0.9137,1.3078,1.1971,2.0689,1.1129c0.617-0.0683,1.2021-0.3096,1.7063-0.6716
		l11.9983-8.6165c2.164-1.7793,0-3.0241,0-3.0241L49.8375,9.9808C47.2407,8.6343,46.8078,10.9426,46.8078,10.9426z"/>
</g>
</svg>
