<?xml version="1.0" encoding="utf-8"?>
<!-- Generator: Adobe Illustrator 24.0.2, SVG Export Plug-In . SVG Version: 6.00 Build 0)  -->
<svg version="1.1" id="Capa_1" xmlns="http://www.w3.org/2000/svg" xmlns:xlink="http://www.w3.org/1999/xlink" x="0px" y="0px"
	 width="64px" height="64px" viewBox="0 0 64 64" style="enable-background:new 0 0 64 64;" xml:space="preserve">
<style type="text/css">
	.st0{fill:#89105D;}
	.st1{opacity:0.71;enable-background:new    ;}
	.st2{fill:#008F94;}
</style>
<g>
	<g>
		<path class="st0" d="M0.245,42.9367c0.1018-0.3534,0.1975-0.7088,0.3064-1.06c0.7439-2.3978,2.4661-3.8733,4.6536-4.8932
			c1.3857-0.6461,2.8609-0.9731,4.3768-1.1235c1.0532-0.1045,1.0537-0.0994,1.1304-1.2691
			c-0.2165-0.0103-0.4327-0.0292-0.649-0.0295c-1.7644-0.0025-3.5296,0.0284-5.2929-0.0167
			c-0.6734-0.0172-1.3798-0.1049-2.0059-0.3369c-1.376-0.5098-2.1181-1.5626-2.1529-3.0441
			c-0.0317-1.3485-0.0225-2.6985-0.0073-4.0475c0.0231-2.0469,1.2497-3.2714,3.3088-3.3266
			c0.3111-0.0083,0.6253,0.0241,0.9333-0.0075c1.444-0.1486,2.6565,0.2859,3.6242,1.3825c0.4821,0.5463,1.0728,0.7528,1.8217,0.7327
			c1.8046-0.0485,3.6115-0.0158,5.4174-0.0155c0.166,0,0.3332-0.0093,0.4979,0.0065c0.5631,0.0538,0.9504,0.4649,0.9295,0.975
			c-0.0204,0.4997-0.3848,0.8845-0.9374,0.8876c-2.2624,0.0128-4.5251,0.0163-6.7872-0.0097
			c-0.8121-0.0093-1.5155-0.4159-1.9989-1.0183c-1.1287-1.4066-2.6154-1.095-4.0622-0.9426
			c-0.5563,0.0586-0.848,0.5225-0.8553,1.0758c-0.0191,1.4527-0.0276,2.9062,0.0026,4.3585
			c0.0149,0.7184,0.5324,1.2314,1.3042,1.3705c0.3449,0.0621,0.7019,0.0798,1.0534,0.08
			c7.2237,0.0044,14.4475,0.0035,21.6712,0.0022c0.2028,0,0.4055-0.0172,0.6494-0.0283c0-1.6244,0-3.2097,0-4.876
			c-0.2462,0-0.4664,0-0.6866,0c-1.972-0.0001-3.944,0.0028-5.916-0.0016c-0.7878-0.0018-1.2051-0.3356-1.202-0.9386
			c0.0031-0.5939,0.4393-0.9388,1.2129-0.94c2.1796-0.0035,4.3593,0.012,6.5385-0.0175c0.2833-0.0038,0.6359-0.1586,0.8334-0.3625
			c1.2112-1.2505,2.7074-1.9739,4.3555-2.4063c3.4605-0.9077,6.8934-0.8721,10.2658,0.417
			c0.4951,0.1893,0.9566,0.4662,1.4752,0.7232c0-0.9813,0-1.9234,0-2.9317c-0.7794-0.0528-1.5588-0.1052-2.3381-0.1585
			c-0.5795-0.0396-1.1627-0.0511-1.7375-0.1262c-1.4233-0.186-2.4174-1.3936-2.3557-2.8226
			c0.0618-1.4295,1.1618-2.515,2.6326-2.5389c1.5955-0.026,3.1918-0.0059,4.8887-0.0059c-0.3879-0.8905-0.7332-1.726-1.1258-2.5387
			c-0.0594-0.1231-0.3379-0.1943-0.5165-0.197c-1.1414-0.0174-2.2833-0.0022-3.4249-0.0108
			c-1.4331-0.0108-2.2462-0.8087-2.2698-2.2285c-0.0124-0.7471-0.0214-1.4952,0.0035-2.2417
			c0.0505-1.5142,1.0466-2.3044,2.5215-2.0286c1.3856,0.259,2.772,0.5139,4.1579,0.7714c1.552,0.2883,2.1266,0.9619,2.098,2.559
			c-0.0121,0.6746,0.0932,1.5111-0.2522,1.9833c-0.5508,0.753-0.3431,1.2897-0.0047,1.9379
			c0.1436,0.2749,0.2657,0.5629,0.3751,0.8535c0.2647,0.7032,0.6142,1.2389,1.3772,1.6013
			c1.0952,0.5202,1.5327,1.5829,1.5566,2.7853c0.0161,0.8092,0.0042,1.6191,0.0047,2.4286c0.0001,0.2032,0,0.4065,0,0.4995
			c1.6482-0.0256,3.2335-0.0671,4.8189-0.0698c1.3626-0.0023,2.2157,0.8542,2.2259,2.2138c0.0129,1.702,0.0121,3.4043,0.0002,5.1064
			c-0.0093,1.3242-0.8395,2.2156-2.1573,2.2306c-1.5912,0.018-3.1834-0.0435-4.833-0.0717
			c-0.2149,1.5227-0.1301,3.1173,0.8417,4.547c0.0914,0.1344,0.4349,0.1625,0.6498,0.138c2.6474-0.3012,5.1744,0.1015,7.5496,1.3136
			c2.2022,1.1238,3.8476,2.8111,4.8056,5.1006c0.2655,0.6346,0.3997,1.3521,0.4485,2.042c0.0538,0.7606-0.2672,1.4713-0.9646,1.8298
			c-0.5083,0.2613-0.5095,0.5885-0.4863,1.0489c0.248,4.9223-2.9985,9.1324-7.8267,10.1723
			c-6.4056,1.3797-12.419-3.9934-11.7796-10.5246c0.0121-0.1232,0.0153-0.2472,0.0221-0.3619
			c-1.3579-1.054-1.6339-1.9002-1.1531-3.5684c0.605-2.0991,1.8805-3.7145,3.6953-5.0114
			c-0.2181-0.4645-0.4331-0.9226-0.6838-1.4565c-0.1761,0.2067-0.3101,0.3501-0.4288,0.5052
			c-2.7616,3.609-5.5267,7.2153-8.2793,10.8312c-1.0644,1.3982-2.4091,2.1708-4.2115,2.0872
			c-0.9735-0.0452-1.9509-0.0068-2.9265-0.0085c-0.8411-0.0015-1.283-0.3173-1.293-0.9194
			c-0.0103-0.6187,0.4552-0.9562,1.3272-0.9577c1.0171-0.0017,2.0354-0.0306,3.0511,0.0082c0.978,0.0374,1.756-0.3328,2.3307-1.0802
			c3.1242-4.0629,6.2307-8.1394,9.3416-12.2125c0.021-0.0275,0.0178-0.0734,0.0444-0.1958c-0.9194,0-1.8221-0.0303-2.7199,0.0232
			c-0.2019,0.012-0.4246,0.2888-0.5729,0.4912c-2.245,3.0622-4.5158,6.1066-6.6984,9.2129
			c-0.9016,1.2832-1.9994,1.8356-3.561,1.8197c-4.9814-0.0508-9.9637-0.0057-14.9454-0.0356
			c-0.6082-0.0037-0.8587,0.1781-0.9275,0.7556c-0.0459,0.3859-0.1703,0.7624-0.2718,1.1951
			c0.2237,0.0098,0.4221,0.0262,0.6204,0.0262c3.259-0.0002,6.5179-0.0024,9.7769-0.0042c0.1453-0.0001,0.2913-0.0101,0.4357,0.0009
			c0.5666,0.0432,0.9617,0.4411,0.9539,0.9523c-0.0079,0.5156-0.4006,0.9052-0.9806,0.9141
			c-1.1622,0.0178-2.3248,0.0098-3.4872,0.0122c-0.2266,0.0005-0.4532,0.0001-0.7069,0.0001
			c-0.4157,1.5689-1.0893,2.9741-2.1186,4.2077c-2.5656,3.0749-6.9363,4.2937-10.7232,2.9676
			c-3.8801-1.3587-6.532-4.9603-6.6237-8.9968c-0.0038-0.166-0.0071-0.3323-0.0015-0.4981
			c0.0306-0.9061,0.3663-1.8775-0.6438-2.5389c-0.1752-0.1147-0.2254-0.4203-0.3333-0.6377
			C0.245,43.9332,0.245,43.4349,0.245,42.9367z M29.114,32.6176c5.0154,0,9.9766,0,14.9724,0c0-1.4597-0.0751-2.8739,0.0208-4.2764
			c0.099-1.4482-0.5666-2.3217-1.7938-2.8795c-0.5068-0.2304-1.0294-0.4438-1.5655-0.5883
			c-2.3644-0.6373-4.751-0.6602-7.1439-0.1697c-1.4358,0.2943-2.8052,0.7579-3.92,1.7596
			c-0.2349,0.2111-0.5376,0.5155-0.5449,0.7841C29.0906,29.0265,29.114,30.8077,29.114,32.6176z M21.5863,44.159
			c1.9422,0,3.8402,0,5.7394,0c-0.1485-3.4315,3.647-5.3842,6.3748-2.9851c0.7653-1.0505,1.5285-2.0981,2.3548-3.2322
			c-0.3088-0.0183-0.5051-0.0395-0.7015-0.0401c-1.1417-0.0035-2.2836,0.0056-3.4252-0.0053
			c-0.7142-0.0068-1.1531-0.3843-1.1452-0.9499c0.0079-0.5643,0.4437-0.9121,1.1676-0.9295c0.166-0.004,0.3321-0.0012,0.4982-0.0012
			c1.4946-0.0001,2.9894,0.006,4.4839-0.0071c0.2124-0.0019,0.4984-0.0285,0.6216-0.1623c0.3294-0.3577,0.5889-0.7799,0.9197-1.2368
			c-0.1863-0.0241-0.2817-0.0472-0.3772-0.0473c-3.0516-0.002-6.1032-0.0104-9.1546,0.0144
			c-0.2435,0.002-0.5424,0.1815-0.7189,0.3693c-1.9473,2.0725-3.8357,4.2019-5.8275,6.2301
			c-0.8338,0.849-1.3801,1.6468-0.8548,2.8404C21.5576,44.0532,21.5659,44.0934,21.5863,44.159z M47.7509,26.458
			c0-1.2659,0.0003-2.5317-0.0001-3.7976c-0.0003-1.2451,0.0115-2.4904-0.0066-3.7352c-0.0117-0.8042-0.4069-1.3545-1.0741-1.3665
			c-2.1366-0.0383-4.2745-0.0399-6.4114-0.0132c-0.6421,0.008-0.9939,0.7233-0.6046,1.2086
			c0.1801,0.2245,0.544,0.3928,0.8391,0.4182c1.3636,0.1175,2.7327,0.17,4.0991,0.2571c1.1524,0.0735,1.37,0.3089,1.3701,1.4411
			c0.0004,4.3786-0.0049,8.7572,0.0102,13.1357c0.0012,0.3368,0.087,0.6998,0.2302,1.0053
			c0.9587,2.0448,1.9426,4.0778,2.9202,6.1138c1.0045,2.092,2.022,4.1778,3.0091,6.278c0.2507,0.5334,0.6114,0.6437,1.1047,0.4397
			c0.5304-0.2194,0.5322-0.6276,0.3274-1.0836c-0.0679-0.1512-0.1379-0.3014-0.2081-0.4514
			c-1.7477-3.7345-3.5073-7.4636-5.2291-11.21c-0.2249-0.4893-0.3507-1.0664-0.3595-1.6054
			C47.729,31.1482,47.7509,28.8029,47.7509,26.458z M44.8872,46.7106c-0.5494,2.9687,0.9874,6.2224,3.6964,7.8765
			c2.8146,1.7185,6.3671,1.5293,8.9915-0.4788c2.2971-1.7577,3.644-5.0998,2.9706-7.4001c-0.8174,0-1.6394,0-2.5075,0
			c0.2777,1.7372-0.0832,3.2909-1.2258,4.6039c-1.1603,1.3335-2.6435,1.9225-4.419,1.8648
			c-2.4207-0.0787-5.5709-2.3496-4.9886-6.4663C46.5778,46.7106,45.7546,46.7106,44.8872,46.7106z M3.2968,46.1029
			c-0.9989,4.4109,2.0569,8.8957,6.4359,9.5386c4.0873,0.6001,8.6776-2.3324,8.8903-5.7139c-0.644,0-1.2877,0.0279-1.9276-0.0093
			c-0.467-0.0271-0.7284,0.1118-0.9702,0.5453c-1.1349,2.0352-3.4904,3.0954-5.711,2.6289
			c-2.3778-0.4995-4.1049-2.3751-4.3108-4.772c-0.0623-0.7253,0.0522-1.4658,0.0865-2.2176
			C4.9724,46.1029,4.1489,46.1029,3.2968,46.1029z M51.5296,37.825c0.0197,0.1036,0.0193,0.1687,0.0442,0.222
			c0.9984,2.1413,1.9901,4.2859,3.0165,6.4137c0.0832,0.1725,0.4052,0.3225,0.6183,0.3252
			c1.9302,0.0249,3.8608,0.0153,5.7913,0.0143c1.1807-0.0006,1.3525-0.243,0.9783-1.3745c-0.0195-0.059-0.0455-0.1158-0.0687-0.1736
			C60.0591,38.6571,54.9788,37.3065,51.5296,37.825z M10.1171,37.6934c-2.954,0.3081-5.5916,1.067-7.2494,3.666
			c-0.415,0.6506-0.5283,1.5026-0.7319,2.2748c-0.0923,0.3499,0.0595,0.5695,0.4993,0.5652
			c1.9057-0.0186,3.8119,0.002,5.7174-0.0255c0.1632-0.0024,0.4133-0.225,0.4669-0.3947c0.1552-0.4907,0.2309-1.0065,0.3373-1.5126
			C9.4701,40.7749,9.7833,39.283,10.1171,37.6934z M12.7327,34.5868c-0.0534,0.1806-0.1043,0.3174-0.1341,0.4587
			c-0.5901,2.7966-1.1808,5.5931-1.7644,8.3911c-0.2325,1.1148-0.4833,2.2277-0.6584,3.3519
			c-0.1013,0.6504,0.2523,1.1055,0.7968,1.2297c0.5442,0.1241,1.108-0.1942,1.335-0.7678c0.0681-0.1721,0.1074-0.3567,0.149-0.5381
			c0.6576-2.8663,1.3152-5.7327,1.9688-8.6c0.2644-1.16,0.5191-2.3221,0.7876-3.5255
			C14.3466,34.5868,13.5641,34.5868,12.7327,34.5868z M16.5676,37.1796c1.5704,0.836,2.8205,1.9627,3.7812,3.4739
			c1.8772-2.0277,3.7079-4.0052,5.6404-6.0926c-2.9455,0-5.705-0.006-8.4643,0.0162c-0.1525,0.0012-0.3953,0.2114-0.4389,0.368
			C16.8871,35.6615,16.7441,36.3936,16.5676,37.1796z M54.8125,26.5615c0-0.7875-0.0183-1.5756,0.0073-2.3622
			c0.0139-0.4277-0.1241-0.5893-0.5663-0.5774c-0.994,0.0268-1.9897-0.0076-2.9837,0.0197
			c-0.3444,0.0095-0.6884,0.1171-1.028,0.1989c-0.4413,0.1062-0.625,0.3671-0.609,0.8516c0.0362,1.0971,0.0113,2.1963,0.0113,3.2947
			c0,1.0768,0.1579,1.3096,1.2509,1.3835c1.1555,0.0782,2.3187,0.039,3.4784,0.0596c0.3638,0.0065,0.4498-0.1795,0.4436-0.506
			C54.8022,28.1367,54.8122,27.349,54.8125,26.5615z M46.3321,39.6637c-0.3758,0.336-0.6837,0.5829-0.9586,0.8623
			c-0.9366,0.9522-1.5893,2.0679-1.8591,3.3855c-0.0821,0.4012-0.1201,0.8597,0.4694,0.8689
			c1.5692,0.0244,3.139,0.0083,4.8069,0.0083C47.9612,43.0593,47.1685,41.4071,46.3321,39.6637z M16.1281,39.0891
			c-0.3995,1.7601-0.7718,3.4003-1.1515,5.0734c1.5961,0,3.1196,0,4.693,0C19.267,41.9405,18.07,40.3343,16.1281,39.0891z
			 M55.698,46.6161c-0.0446,0.0414-0.0892,0.0827-0.1338,0.1241c0,0.1422-0.0002,0.2844,0,0.4266
			c0.0018,1.2736-0.8214,2.2956-2.0839,2.5869c-1.2677,0.2925-2.3676-0.2166-2.9585-1.3781
			c-0.2254-0.443-0.4259-0.8988-0.6565-1.3388c-0.0696-0.1329-0.2025-0.2327-0.3064-0.3476
			c-0.0895,0.1411-0.2242,0.2713-0.2615,0.4251c-0.3211,1.3234,0.2763,2.7795,1.451,3.5804
			c1.2228,0.8337,2.8255,0.8163,4.0264-0.0435c1.1461-0.8206,1.7406-2.3393,1.3755-3.6141
			C56.1018,46.8674,55.8537,46.755,55.698,46.6161z M39.6946,8.1995c0,0.8124,0.0138,1.5732-0.0058,2.3332
			c-0.0098,0.3793,0.1337,0.5062,0.5076,0.4999c1.055-0.0176,2.1104-0.0059,3.1657-0.0059c1.4679,0,1.4782-0.0009,1.3418-1.4957
			c-0.0151-0.1653-0.2095-0.4206-0.3582-0.451C42.83,8.7704,41.3066,8.4987,39.6946,8.1995z M8.3111,46.0548
			c-0.6176,0.2884-0.8731,1.1914-0.7244,2.2961c0.1924,1.4292,1.4029,2.663,2.8569,2.912c1.3009,0.2228,2.7684-0.3621,3.2514-1.3403
			c-0.8934,0-1.7617,0.0346-2.6262-0.0077c-1.4739-0.0722-2.5682-1.1008-2.75-2.5629C8.2686,46.9488,8.3111,46.5341,8.3111,46.0548z
			 M29.3237,44.1377c1.8246,0.3026,2.3659,0.0672,3.1519-1.3705c-0.5807-0.7476-1.3876-0.9731-2.1844-0.6105
			C29.5142,42.5103,29.1573,43.2411,29.3237,44.1377z"/>
	</g>
	<g class="st1">
		<path class="st2" d="M62.2438,20.9071c-0.344-0.4586-0.344-1.0319,0-1.4905l1.4905-1.6051c0.344-0.344,0.344-0.9172,0.1147-1.3758
			l-2.293-4.0128c-0.2293-0.4586-0.6879-0.6879-1.2612-0.5733l-2.1784,0.4586c-0.5733,0.1147-1.1465-0.2293-1.2612-0.8026
			l-0.6879-2.0637c-0.2293-0.4586-0.6879-0.8026-1.1465-0.8026h-4.5861c-0.4586,0-0.9172,0.344-1.0319,0.8026l-0.8026,2.0637
			c-0.1147,0.5733-0.6879,0.9172-1.2612,0.8026l-2.1784-0.4586c-0.4586-0.1147-0.9172,0.1147-1.2612,0.5733l-2.293,4.0128
			c-0.2293,0.344-0.1147,0.9172,0.2293,1.2612l1.4905,1.6051c0.344,0.4586,0.344,1.0319,0,1.4905l-1.4905,1.6051
			c-0.344,0.344-0.344,0.9172-0.1147,1.3758l2.293,4.0128c0.2293,0.4586,0.6879,0.6879,1.2612,0.5733l2.1784-0.4586
			c0.5733-0.1147,1.1465,0.2293,1.2612,0.8026l0.6879,2.0637c0.1147,0.4586,0.5733,0.8026,1.0319,0.8026h4.5861
			c0.4586,0,0.9172-0.344,1.0319-0.8026l0.6879-2.0637c0.2293-0.5733,0.8026-0.9172,1.2612-0.8026l2.1784,0.4586
			c0.4586,0.1147,1.0319-0.1147,1.2612-0.5733l2.293-4.0128c0.2293-0.4586,0.2293-0.9172-0.1147-1.3758L62.2438,20.9071z
			 M52.7277,23.5441c-1.9491,0-3.4396-1.4905-3.4396-3.4395s1.4905-3.4396,3.4396-3.4396s3.4395,1.4905,3.4395,3.4396
			S54.6768,23.5441,52.7277,23.5441z"/>
	</g>
</g>
</svg>
