<?xml version="1.0" encoding="utf-8"?>
<!-- Generator: Adobe Illustrator 24.0.2, SVG Export Plug-In . SVG Version: 6.00 Build 0)  -->
<svg version="1.1" id="Capa_1" xmlns="http://www.w3.org/2000/svg" xmlns:xlink="http://www.w3.org/1999/xlink" x="0px" y="0px"
	 width="64px" height="64px" viewBox="0 0 64 64" style="enable-background:new 0 0 64 64;" xml:space="preserve">
<style type="text/css">
	.st0{fill:#89105D;}
	.st1{opacity:0.71;fill:#008F94;}
</style>
<g>
	<g>
		<path class="st0" d="M0.0798,18.3969c0.3789-0.9047,1.0741-1.2448,2.0306-1.2001c0.7862,0.0367,1.5755,0.0075,2.452,0.0075
			c0-0.5374-0.0061-1.0287,0.0012-1.5198c0.0215-1.4425,1.0275-2.491,2.4686-2.5027c2.639-0.0216,5.2783-0.016,7.9173-0.0005
			c0.9724,0.0057,1.7601,0.4306,2.355,1.2037c0.5828,0.7574,1.1917,1.4967,1.7376,2.2798c0.2978,0.4272,0.6366,0.5515,1.1423,0.5503
			c6.6082-0.0162,13.2165-0.0112,19.8247-0.0091c0.2692,0.0001,0.5441-0.005,0.8064,0.045
			c0.5017,0.0956,0.7572,0.4509,0.7358,0.9368c-0.02,0.4536-0.2806,0.784-0.7607,0.8537c-0.2654,0.0385-0.5385,0.0322-0.8081,0.0323
			c-12.3853,0.0014-24.7705,0.0012-37.1558,0.0012c-0.2665,0-0.533,0-0.8378,0c0,3.3948,0,6.7314,0,10.1177
			c0.4907,0,0.9961,0,1.5916,0c0-0.2084,0-0.4277,0-0.647c0-1.9122-0.0011-3.8243,0.0004-5.7365
			c0.0011-1.3618,0.53-1.9016,1.8703-1.9018c9.85-0.0011,19.7001,0.0042,29.5501-0.0089c0.8654-0.0012,1.4357,0.3361,1.8674,1.0823
			c4.9382,8.5364,9.8962,17.0613,14.8289,25.6009c0.2767,0.479,0.5648,0.6559,1.1157,0.6395
			c1.4274-0.0427,2.8569-0.0143,4.3205-0.0143c0-0.9239,0-1.787,0-2.7441c-0.4956,0-0.9852,0.0063-1.4746-0.0012
			c-1.3274-0.0204-2.1756-0.8621-2.1969-2.1878c-0.0114-0.7065-0.0113-1.4134-0.0001-2.1199
			c0.0212-1.332,0.8688-2.1713,2.1943-2.1834c0.4749-0.0043,0.95-0.0007,1.4688-0.0007c0-0.6972,0-1.3504,0-2.1001
			c-0.2206,0-0.4397,0-0.6588,0c-2.0573,0-4.1147-0.0165-6.1718,0.0054c-1.4984,0.0159-2.573-0.6325-3.3155-1.9177
			c-2.2745-3.937-4.5644-7.8652-6.8431-11.7999c-0.7199-1.2431-0.138-2.2481,1.2987-2.2493
			c3.9068-0.0033,7.8135-0.0012,11.7203-0.0012c0.2215,0,0.4431,0,0.6646,0c-1.1752-1.0657-2.5454-1.6532-4.0778-1.7529
			c-1.4285-0.0929-2.8654-0.0566-4.2985-0.0802c-0.2279-0.0038-0.461,0.0032-0.6823-0.0415
			c-0.4428-0.0893-0.6805-0.3904-0.7023-0.8337c-0.0232-0.4694,0.1918-0.9011,0.6561-0.9215
			c3.6388-0.1603,7.3366-0.4668,10.3916,2.1253c0.8749,0.7423,1.5972,1.6756,2.3259,2.573
			c0.2528,0.3113,0.4631,0.4532,0.8566,0.4434c0.9968-0.025,1.9949-0.0198,2.9922-0.0051c1.6349,0.024,2.6297,1.0357,2.6375,2.6658
			c0.0041,0.8521-0.0022,1.7043,0.001,2.5565c0.0043,1.1318-0.4812,2.0454-1.2679,2.8158
			c-0.3945,0.3863-0.9215,0.4024-1.2873,0.0533c-0.3852-0.3678-0.4902-0.867-0.1211-1.2239c0.7968-0.7705,0.8581-1.7014,0.81-2.6998
			c-0.025-0.5184-0.0101-1.0391-0.0033-1.5586c0.0065-0.4942-0.2476-0.7328-0.7221-0.7373
			c-0.8924-0.0085-1.785-0.0025-2.7268-0.0025c0.0259,0.1665,0.0502,0.2977,0.0663,0.43c0.125,1.0275,0.3507,2.0547,0.3557,3.0829
			c0.0322,6.7339,0.0169,13.4681,0.0164,20.2022c-0.0001,1.5634-0.5215,2.0793-2.0968,2.0794
			c-3.8652,0.0002-7.7304,0.008-11.5956-0.0108c-0.4396-0.0021-0.6285,0.1451-0.8172,0.5354c-1.1445,2.368-3.0634,3.6664-5.684,3.67
			c-2.6202,0.0036-4.5448-1.2909-5.6937-3.6538c-0.2066-0.425-0.4184-0.5583-0.8767-0.5523
			c-2.0362,0.0267-4.0729,0.0131-6.1094,0.0107c-0.785-0.0009-1.2142-0.3363-1.2108-0.9339
			c0.0033-0.5916,0.4415-0.9334,1.221-0.9346c2.0975-0.0033,4.195-0.0011,6.3653-0.0011c0.053-2.2791,0.9376-4.1214,2.8279-5.4041
			c1.1714-0.7948,2.4828-1.1337,3.8975-1.0439c2.6637,0.1691,5.7214,2.2433,5.8751,6.4059c1.5442,0,3.0907,0,4.7123,0
			c-0.1047-0.2033-0.1873-0.3826-0.2859-0.5526c-3.0936-5.334-6.1915-10.6654-9.2771-16.004
			c-0.1951-0.3376-0.3866-0.5067-0.8124-0.5062c-12.3229,0.0137-24.6459,0.0111-36.9688,0.0111c-0.1621,0-0.3242,0-0.5232,0
			c0,5.7086,0,11.3691,0,17.0618c1.1963,0,2.3711,0,3.5965,0c0.0512-2.0449,0.7903-3.7688,2.3972-5.0587
			c1.1768-0.9447,2.5392-1.4087,4.0452-1.3689c3.4093,0.0902,5.5723,2.3417,6.1916,6.4602c1.0435,0,2.0978,0.0017,3.1522-0.0008
			c0.4826-0.0011,0.861,0.1737,1.0212,0.6521c0.2105,0.6286-0.2219,1.2019-0.9334,1.2126c-1.2041,0.0181-2.4088,0.005-3.6264,0.005
			c-0.0771,0.1681-0.1425,0.3185-0.2141,0.4659c-1.1598,2.3877-3.0694,3.7219-5.7176,3.7287
			c-2.6463,0.0067-4.5801-1.3015-5.7258-3.7001c-0.1796-0.376-0.365-0.5172-0.7839-0.5043
			c-1.0796,0.0331-2.1632-0.0335-3.2407,0.0243c-0.96,0.0515-1.6425-0.2822-2.0696-1.1401
			C0.0798,38.766,0.0798,28.5815,0.0798,18.3969z M50.4013,22.7778c0,4.0783,0,8.1274,0,12.1738c2.262,0,4.4919,0,6.717,0
			c0-2.8048,0.0341-5.5631-0.0155-8.3198c-0.0223-1.2401-0.461-2.3998-1.1156-3.4568c-0.1099-0.1775-0.36-0.3767-0.5486-0.3801
			C53.7789,22.7653,52.1184,22.7778,50.4013,22.7778z M11.334,22.8127c0,2.1557,0,4.2757,0,6.3965c2.5731,0,5.0958,0,7.635,0
			c0-2.1533,0-4.2734,0-6.3965C16.3953,22.8127,13.8728,22.8127,11.334,22.8127z M28.6012,22.8201c-2.5869,0-5.1252,0-7.6755,0
			c0,2.1498,0,4.2567,0,6.381c2.5741,0,5.1127,0,7.6755,0C28.6012,27.0689,28.6012,24.9775,28.6012,22.8201z M30.5408,22.7789
			c0,2.1842,0,4.304,0,6.4204c2.7848,0,5.5247,0,8.3434,0c-1.2216-2.1048-2.4016-4.1452-3.5961-6.1771
			c-0.0686-0.1167-0.2546-0.2314-0.3873-0.2329C33.4552,22.7727,32.0094,22.7789,30.5408,22.7789z M34.4455,48.0223
			c0.0045,2.4288,1.979,4.4055,4.3974,4.4025c2.4166-0.0031,4.3888-1.9879,4.3862-4.4145
			c-0.0025-2.4241-1.9832-4.4063-4.3983-4.4017C36.411,43.6131,34.441,45.5959,34.4455,48.0223z M16.2828,48.0408
			c0.0114-2.4141-1.9649-4.4149-4.3784-4.4328c-2.4026-0.0178-4.4109,1.9689-4.4313,4.3836
			c-0.0203,2.3986,1.9739,4.4161,4.3821,4.4333C14.2598,52.4421,16.2715,50.4501,16.2828,48.0408z M48.4176,33.6996
			c0-3.752,0-7.3218,0-10.8706c-2.1132,0-4.1697,0-6.3079,0C44.2119,26.4518,46.2708,29.9999,48.4176,33.6996z M5.4741,29.2096
			c1.3218,0,2.5952,0,3.8904,0c0-2.1512,0-4.2696,0-6.3864c-1.3224,0-2.5954,0-3.8904,0
			C5.4741,24.9582,5.4741,27.0474,5.4741,29.2096z M6.5034,17.1468c3.4995,0,6.9836,0,10.5601,0
			c-0.3989-0.5217-0.7569-0.9487-1.068-1.4075c-0.3492-0.5149-0.8033-0.7097-1.4224-0.7028
			c-2.0941,0.0233-4.1887,0.0104-6.2831,0.0084c-2.0228-0.0019-1.8925-0.2014-1.8397,2.0139
			C6.4507,17.0764,6.4704,17.0934,6.5034,17.1468z M57.144,40.84c-0.2447,0-0.428,0.0007-0.6112-0.0001
			c-1.2026-0.0056-1.2026-0.0057-1.2026,1.2155c0,1.614,0,1.6146,1.6288,1.5287c0.0558-0.0029,0.1098-0.0406,0.185-0.0701
			C57.144,42.6489,57.144,41.7892,57.144,40.84z"/>
		<path class="st0" d="M38.8069,50.8523c-1.5754-0.0127-2.8291-1.2883-2.8165-2.8657c0.0125-1.5679,1.2929-2.817,2.8758-2.8056
			c1.5711,0.0113,2.8498,1.3074,2.8262,2.8646C41.6685,49.6159,40.3844,50.8651,38.8069,50.8523z M38.8481,47.0564
			c-0.5587-0.0057-0.997,0.4299-0.9854,0.9795c0.011,0.5246,0.4321,0.9367,0.962,0.9415c0.5568,0.0051,1.004-0.4371,0.9917-0.9805
			C39.8046,47.4751,39.3791,47.0618,38.8481,47.0564z"/>
		<path class="st0" d="M11.8969,50.8522c-1.595,0.0075-2.8537-1.2419-2.8547-2.8338c-0.001-1.592,1.2554-2.8427,2.8503-2.8374
			c1.5666,0.0052,2.8081,1.2349,2.8284,2.8017C14.7414,49.5686,13.4855,50.8447,11.8969,50.8522z M12.8442,47.9986
			c-0.0094-0.5583-0.4487-0.9663-1.0141-0.9416c-0.5327,0.0232-0.9234,0.4407-0.9145,0.9771
			c0.0089,0.5317,0.4182,0.9387,0.9499,0.9445C12.4254,48.9848,12.8536,48.556,12.8442,47.9986z"/>
	</g>
	<path class="st1" d="M62.9021,17.0369c0.5703-0.7629,0.908-1.7097,0.908-2.7355c0-2.5257-2.0475-4.5733-4.5733-4.5733
		c-1.0155,0-1.9534,0.3315-2.7123,0.8915l-0.0003-0.0003l-0.0013,0.0014c-0.437,0.3228-0.8141,0.7218-1.1126,1.177l-5.5327,5.853
		l-0.6717,0.7268l-0.5881-0.7464l-0.8897-1.1858c-0.8091-1.2874-2.2412-2.1438-3.874-2.1438c-2.5257,0-4.5733,2.0475-4.5733,4.5733
		c0,1.0307,0.3411,1.9816,0.9165,2.7463l0,0l0.0001,0.0001c0.2536,0.3372,0.5532,0.6378,0.8888,0.8934l4.7448,4.7695
		c0.8389,0.9919,2.0918,1.6223,3.4926,1.6223c1.1346,0,2.1719-0.4141,2.9713-1.0982h0.0009l0.0055-0.0056
		c0.1973-0.1695,0.3807-0.3546,0.5466-0.5551l9.1871-9.3299C62.3619,17.6641,62.6543,17.3683,62.9021,17.0369L62.9021,17.0369
		L62.9021,17.0369z"/>
</g>
</svg>
