<?xml version="1.0" encoding="utf-8"?>
<!-- Generator: Adobe Illustrator 24.0.2, SVG Export Plug-In . SVG Version: 6.00 Build 0)  -->
<svg version="1.1" id="Capa_1" xmlns="http://www.w3.org/2000/svg" xmlns:xlink="http://www.w3.org/1999/xlink" x="0px" y="0px"
	 width="104px" height="104px" viewBox="0 0 104 104" style="enable-background:new 0 0 104 104;" xml:space="preserve">
<style type="text/css">
	.st0{fill:#859CA8;}
	.st1{fill:#FFFFFF;}
	.st2{fill:none;stroke:#FFFFFF;stroke-width:0.5;}
</style>
<g>
	<ellipse class="st0" cx="51.978" cy="52.053" rx="51.975" ry="51.835"/>
	<ellipse class="st1" cx="52.38" cy="52.053" rx="49.861" ry="49.728"/>
	<g>
		<path class="st0" d="M101.579,60.432c-2.586,14.035-9.575,25.32-21.331,33.503c-9.165,6.382-19.428,9.293-30.602,8.919
			c-24.13-0.809-44.152-18.75-48.14-42.174c-0.086,0.273-0.172,0.518-0.44,0.488c-0.294-0.034-0.247-0.318-0.28-0.519
			c-0.5772-3.2632-0.8085-6.5782-0.69-9.89c0.39-10.458,3.533-20.008,9.728-28.487C16.735,12.815,25.796,6.26,37.104,3.1
			c15.975-4.463,30.913-1.96,44.452,7.637c10.232,7.252,16.791,17.131,19.872,29.282c1.23,4.852,1.658,9.787,1.443,14.775
			c-0.084,1.935-0.31,3.864-0.624,5.777c-0.02,0.114-0.05,0.229-0.073,0.343c-0.036,0.195-0.134,0.304-0.346,0.26
			c-0.188-0.043-0.3-0.14-0.263-0.355C101.59,60.694,101.655,60.565,101.579,60.432z M64.77,50.012
			c-0.053-0.296-0.09-0.49-0.123-0.683c-0.17-0.973-0.543-1.896-0.747-2.86c-0.668-3.185-1.727-6.24-2.977-9.244
			c-0.738-1.77-1.22-3.636-1.261-5.565c-0.034-1.506-0.308-2.955-0.727-4.386c-0.74-2.523-2.108-4.723-3.6-6.853
			c-0.196-0.279-0.454-0.483-0.75-0.655c-0.861-0.497-1.761-0.402-2.69-0.268c-1.065,0.153-1.719,0.756-2.082,1.729
			c-0.319,0.856-0.305,1.737-0.185,2.623c0.325,2.379,1.037,4.662,1.776,6.935c0.483,1.488,1.11,2.933,1.386,4.483
			c0.162,0.903,0.3,1.815,0.484,2.713c0.21,1.012,0.098,1.993-0.162,2.975c-0.087,0.326-0.277,0.493-0.646,0.502
			c-0.4183,0.0173-0.8344,0.0694-1.244,0.156c-1.233,0.231-2.463,0.485-3.696,0.722c-1.596,0.307-3.23,0.346-4.823,0.68
			c-1.613,0.34-2.787,1.202-3.615,2.621c-0.74,1.269-0.754,2.674-0.766,4.04c-0.01,1.219-0.472,2.13-1.31,2.892
			c-1.259,1.146-1.748,2.518-1.48,4.19c0.255,1.6,0.518,3.207-0.07,4.796c-0.064,0.17-0.103,0.354-0.125,0.536
			c-0.129,0.947-0.414,1.929,0.604,2.632c0.13,0.089,0.176,0.315,0.234,0.488c0.048,0.142,0.056,0.323,0.182,0.404
			c0.523,0.329,0.791,0.873,1.068,1.369c0.363,0.652,1.074,1.307,0.333,2.158c-0.065,0.075-0.05,0.223-0.059,0.34
			c-0.048,0.675,0.04,1.327,0.252,1.977c0.137,0.415,0.366,0.663,0.79,0.73c0.49,0.078,0.87,0.321,1.164,0.72
			c0.131,0.178,0.33,0.273,0.531,0.368c0.844,0.401,1.75,0.097,2.62,0.231c0.8,0.123,1.635-0.061,2.404,0.349
			c0.319,0.17,0.676,0.15,1.031,0.053c0.806-0.22,1.605-0.421,2.455-0.455c0.635-0.025,1.328-0.15,1.879-0.451
			c1.174-0.639,2.385-1.11,3.696-1.353c0.889-0.164,1.51-0.808,1.428-1.483c-0.05-0.43-0.033-0.853-0.064-1.28
			c-0.036-0.505-0.35-0.917-0.805-1.034c-0.6012-0.1557-1.2235-0.2131-1.843-0.17c-1.204,0.078-2.41,0.108-3.617,0.161
			c-1.574,0.07-3.148-0.22-4.72,0.017c-0.195,0.03-0.402-0.005-0.6-0.02c-0.098-0.005-0.266-0.036-0.23-0.133
			c0.232-0.667-0.377-0.547-0.645-0.642c-0.548-0.195-1.135-0.284-1.703-0.432c-0.137-0.036-0.327-0.092-0.31-0.276
			c0.022-0.228,0.243-0.206,0.4-0.2c0.4,0.016,0.81,0.07,1.123-0.251c0.327-0.338,0.724-0.382,1.158-0.357
			c0.15,0.008,0.302-0.006,0.453-0.014c0.548-0.028,1.082-0.034,1.596,0.226c0.861,0.432,1.767,0.725,2.748,0.685
			c1.102-0.041,2.11-0.485,3.154-0.766c0.816-0.22,1.58-0.639,2.393-0.876c1.353-0.396,1.772-0.85,1.904-2.264
			c0.05-0.538,0.226-1.004,0.721-1.305c0.28-0.17,0.363-0.772,0.126-1.009c-0.487-0.485-0.984-0.97-1.686-1.14
			c-1.641-0.4-3.316-0.572-4.99-0.419c-1.689,0.157-3.366,0.318-5.058,0.14c-0.313-0.034-0.606-0.092-0.808-0.474
			c0.484,0.044,0.878,0.192,1.298,0.192c1.123,0,2.242-0.025,3.366-0.083c1.649-0.087,3.257-0.402,4.85-0.787
			c0.52-0.125,1.107-0.32,1.47-0.677c0.506-0.5085,0.8787-1.134,1.085-1.821c0.238-0.786,0.573-1.494,1.189-2.052
			c0.162-0.148,0.218-0.276,0.095-0.474c-0.353-0.572-0.713-1.124-1.323-1.48c-0.5094-0.291-1.0447-0.534-1.599-0.726
			c-0.106-0.039-0.252-0.058-0.257-0.2c-0.003-0.126,0.145-0.112,0.22-0.168c0.403-0.304,0.881-0.46,1.222-0.895
			c0.683-0.867,1.63-1.536,1.888-2.707c0.075-0.343,0.318-0.619,0.536-0.898c0.422-0.54,0.694-0.518,0.998,0.117
			c0.224,0.466,0.386,0.962,0.64,1.411c0.543,0.965,0.898,1.974,0.906,3.087c0.009,1.029,0.177,2.05-0.078,3.086
			c-0.078,0.315-0.053,0.756,0.064,1.143c0.115,0.368,0.529,0.249,0.691,0.525c0.131,0.22,0.333,0.19,0.503,0.008
			c0.249-0.268,0.534-0.435,0.582-0.917c0.053-0.53,0.416-1.032,0.489-1.606c0.036-0.282-0.003-0.56,0.067-0.845
			c0.162-0.658,0.324-1.322,0.363-2.002c0.012-0.176,0.079-0.293,0.252-0.32c0.19-0.031,0.26,0.1,0.316,0.256
			c0.04,0.15,0.03,0.332,0.29,0.51L64.77,50.012z M73.218,93.369c-0.008-0.023-0.028-0.087-0.053-0.148
			c-0.794-2.094-1.57-4.196-2.393-6.28c-0.478-1.21-1.543-1.904-2.851-1.814c-1.602,0.108-2.995,0.694-3.937,2.08
			c-0.126,0.186-0.243,0.276-0.49,0.225c-2.479-0.501-4.405,0.672-6.25,2.083c-0.174,0.131-0.18,0.274-0.104,0.477
			c1.03,2.682,2.052,5.37,3.062,8.06c0.117,0.316,0.26,0.316,0.522,0.21c0.56-0.226,1.116-0.463,1.692-0.636
			c0.42-0.125,0.447-0.298,0.299-0.677c-0.847-2.18-1.67-4.372-2.494-6.564c-0.064-0.173-0.237-0.362-0.03-0.55
			c0.528-0.476,1.134-0.794,1.864-0.721c0.657,0.067,0.931,0.56,1.144,1.126c0.724,1.94,1.473,3.873,2.191,5.816
			c0.12,0.33,0.263,0.349,0.551,0.229c0.573-0.237,1.15-0.474,1.742-0.647c0.386-0.111,0.388-0.256,0.26-0.588
			c-0.828-2.136-1.633-4.28-2.444-6.421c-0.067-0.182-0.187-0.36-0.036-0.566c0.386-0.516,0.85-0.904,1.527-0.937
			c0.66-0.034,1.073,0.315,1.389,1.146c0.735,1.938,1.468,3.875,2.206,5.81c0.067,0.176,0.075,0.419,0.391,0.296
			c0.702-0.276,1.41-0.538,2.114-0.8c0.084-0.031,0.16-0.056,0.128-0.21V93.369z M43.521,98.51c-0.023-0.12-0.034-0.198-0.05-0.273
			c-0.518-2.23-1.03-4.461-1.563-6.686c-0.087-0.357-0.023-0.577,0.251-0.823c1.415-1.257,2.81-2.532,4.208-3.806
			c0.142-0.128,0.34-0.22,0.391-0.46c-0.858-0.248-1.714-0.482-2.56-0.744c-0.244-0.076-0.359,0.03-0.512,0.181
			c-1.3268,1.3242-2.6578,2.6442-3.993,3.96c-0.095,0.094-0.165,0.25-0.377,0.222c0.025-0.103,0.042-0.2,0.067-0.292
			c0.442-1.542,0.878-3.087,1.336-4.623c0.093-0.31,0.042-0.45-0.276-0.53c-0.6648-0.1737-1.325-0.3644-1.98-0.572
			c-0.307-0.097-0.447-0.05-0.486,0.301c-0.031,0.28-0.151,0.547-0.23,0.82c-0.995,3.45-1.984,6.901-2.994,10.344
			c-0.098,0.335-0.042,0.474,0.305,0.56c0.649,0.163,1.297,0.338,1.926,0.561c0.341,0.123,0.42-0.008,0.5-0.287
			c0.476-1.673,0.957-3.34,1.446-5.01c0.048-0.168,0.034-0.374,0.224-0.488c0.117,0.134,0.134,0.298,0.162,0.457
			c0.363,1.966,0.724,3.931,1.082,5.897c0.045,0.237,0.095,0.443,0.38,0.521C41.684,97.977,42.578,98.24,43.521,98.51z
			 M55.531,93.974c0.003-0.79-0.112-1.629-0.428-2.432c-0.978-2.5-4.135-3.474-6.368-1.965c-0.234,0.1612-0.4423,0.3567-0.618,0.58
			c-1.046,1.313-1.286,2.846-1.166,4.447c0.162,2.144,1.222,4.14,3.783,4.394c1.786,0.176,3.542-0.438,4.319-2.359
			C55.397,95.805,55.533,94.939,55.531,93.974z M24.672,88.548c-0.047,0.778,0.313,1.595,0.895,2.317
			c0.925,1.149,2.186,1.801,3.556,2.255c1.034,0.346,1.043,0.321,1.291-0.71c0.028-0.115,0.04-0.235,0.081-0.34
			c0.123-0.324-0.013-0.444-0.324-0.505c-0.783-0.157-1.49-0.502-2.141-0.957c-1.007-0.697-1.261-1.57-0.847-2.713
			c0.128-0.357,0.27-0.42,0.615-0.256c1.56,0.739,3.13,1.444,4.69,2.183c0.264,0.125,0.398,0.12,0.552-0.142
			c0.377-0.636,0.712-1.288,0.891-2.01c0.302-1.21,0.146-2.345-0.69-3.299c-1.882-2.15-4.943-2.554-6.93-0.006
			C25.388,85.542,24.666,86.811,24.672,88.548z M23.235,78.92c-0.553-0.83-0.987-1.539-1.482-2.205
			c-0.31-0.416-0.38-0.79-0.201-1.286c0.29-0.808,0.503-1.642,0.774-2.554c-0.838,0.232-1.593,0.382-2.306,0.656
			c-0.688,0.262-1.219,0.161-1.78-0.304c-0.582-0.483-1.242-0.868-2.003-1.389c0,0.934-0.025,1.718,0.009,2.501
			c0.028,0.625-0.18,1.054-0.724,1.405c-0.68,0.438-1.295,0.973-2.016,1.525c0.97,0.352,1.826,0.684,2.695,0.974
			c0.35,0.117,0.548,0.298,0.663,0.658c0.285,0.88,0.62,1.742,0.961,2.687c0.615-0.78,1.183-1.477,1.72-2.2
			c0.24-0.323,0.506-0.485,0.922-0.47C21.337,78.937,22.207,78.92,23.235,78.92L23.235,78.92z M81.106,72.945
			c-0.103,0.178,0.003,0.312,0.04,0.446c0.203,0.706,0.39,1.42,0.637,2.11c0.153,0.43,0.075,0.754-0.182,1.11
			c-0.442,0.608-0.836,1.25-1.258,1.874c-0.18,0.262-0.148,0.38,0.195,0.382c0.803,0.006,1.608,0.042,2.41,0.036
			c0.339-0.002,0.56,0.12,0.76,0.382c0.568,0.742,1.155,1.47,1.773,2.25c0.269-0.758,0.57-1.45,0.752-2.174
			c0.18-0.714,0.57-1.096,1.272-1.294c0.727-0.204,1.423-0.51,2.198-0.798c-0.805-0.616-1.527-1.184-2.27-1.723
			c-0.285-0.206-0.408-0.44-0.414-0.791c-0.011-0.915-0.059-1.83-0.095-2.836c-0.847,0.58-1.627,1.093-2.38,1.64
			c-0.273,0.197-0.516,0.228-0.832,0.133C82.848,73.425,81.975,73.19,81.106,72.945L81.106,72.945z M73.426,80.925
			c-0.036,0.017-0.084,0.033-0.123,0.064c-0.61,0.468-1.216,0.942-1.828,1.41c-0.16,0.123-0.076,0.213,0.014,0.327
			c1.91,2.454,3.822,4.907,5.72,7.37c0.168,0.217,0.271,0.158,0.436,0.03c0.54-0.424,1.076-0.85,1.627-1.26
			c0.207-0.154,0.226-0.28,0.064-0.488c-1.881-2.412-3.754-4.832-5.633-7.247C73.633,81.045,73.577,80.931,73.426,80.925z
			 M70.519,80.769c0.864,0,1.537-0.625,1.551-1.439c0.012-0.711-0.54-1.25-1.277-1.252c-0.867-0.003-1.516,0.653-1.516,1.53
			c-0.002,0.673,0.523,1.16,1.242,1.16V80.769z M58.88,53.899c-0.033,0.028-0.07,0.056-0.103,0.083
			c0.358,0.552,0.715,1.107,1.073,1.66l0.104-0.07C59.6959,54.9562,59.3325,54.39,58.88,53.899z M65.372,53.363
			c0.047-0.568-0.09-1.104-0.31-1.622C65.017,52.312,65.232,52.831,65.372,53.363z M58.919,62.133
			c-0.15-0.408-0.33-0.795-0.774-1.147c0.184,0.533,0.506,0.823,0.774,1.146V62.133z"/>
		<path class="st0" d="M49.643,93.85c0.017-0.652,0.014-1.337,0.218-2.001c0.095-0.307,0.227-0.591,0.448-0.83
			c0.648-0.71,1.56-0.606,2.038,0.23c0.307,0.539,0.369,1.135,0.427,1.735c0.093,0.967,0.079,1.935-0.125,2.888
			c-0.079,0.36-0.21,0.709-0.51,0.957c-0.799,0.663-1.769,0.432-2.166-0.53c-0.319-0.775-0.31-1.6-0.33-2.448L49.643,93.85z
			 M31.882,85.868c0.017,0.667-0.254,1.166-0.545,1.657c-0.112,0.19-0.257,0.223-0.464,0.128c-0.878-0.407-1.761-0.809-2.648-1.2
			c-0.265-0.116-0.251-0.239-0.111-0.45c0.3446-0.535,0.7874-0.9998,1.305-1.37c0.512-0.36,1.057-0.39,1.608-0.09
			C31.575,84.839,31.944,85.26,31.882,85.868z M26.763,17.323c1.546-0.014,3.335,2.437,2.846,3.892
			c-0.187,0.56-0.626,0.89-1.079,1.213c-0.182,0.129-0.268,0.014-0.363-0.114c-0.962-1.324-1.927-2.652-2.891-3.976
			c-0.09-0.123-0.193-0.24-0.008-0.38C25.712,17.618,26.173,17.326,26.763,17.323z M35.74,15.79c0.481,0.016,0.766,0.27,0.956,0.655
			c0.188,0.382,0.232,0.764-0.053,1.123c-0.05,0.065-0.112,0.123-0.173,0.179c-0.707,0.61-0.965,0.558-1.334-0.276
			c-0.067-0.15-0.145-0.301-0.198-0.457c-0.09-0.26-0.406-0.558-0.24-0.764C34.935,15.949,35.371,15.862,35.74,15.79z
			 M35.215,13.657c0.01,0.605-0.515,1.168-1.035,1.238c-0.19,0.025-0.232-0.098-0.285-0.215c-0.201-0.44-0.394-0.887-0.59-1.33
			c-0.045-0.103-0.131-0.234,0.006-0.315c0.38-0.226,0.785-0.421,1.235-0.248C34.977,12.948,35.196,13.294,35.215,13.657z
			 M79.272,19.582c0,0.033,0.003,0.066,0,0.1c-0.067,1.227-1.856,3.415-3.053,3.739c-0.853,0.229-1.647-0.413-1.585-1.294
			c0.014-0.198,0.053-0.401,0.131-0.583c0.4867-1.1834,1.3141-2.1956,2.377-2.908c0.397-0.267,0.847-0.41,1.333-0.223
			C78.962,18.6,79.269,19.055,79.272,19.582z M42.293,10.433c0.467,0.937,0.931,1.874,1.398,2.808
			c0.106,0.212,0.028,0.304-0.182,0.349c-0.424,0.089-0.85,0.184-1.272,0.281c-0.192,0.045-0.285-0.02-0.274-0.226
			c0.068-1.059,0.132-2.119,0.199-3.178C42.204,10.453,42.249,10.445,42.293,10.433z M93.368,43.468
			c-0.945,0.457-1.89,0.912-2.835,1.372c-0.187,0.09-0.28,0.028-0.319-0.165c-0.09-0.423-0.184-0.85-0.276-1.274
			c-0.048-0.217,0.033-0.315,0.26-0.298c1.048,0.078,2.1,0.153,3.148,0.231C93.354,43.376,93.36,43.421,93.368,43.468z
			 M90.133,37.262c-0.55,0.002-1.165-0.597-1.16-1.116c0.003-0.106,0.053-0.156,0.129-0.187c0.615-0.259,1.233-0.51,1.85-0.77
			c0.205-0.083,0.258,0.051,0.33,0.193C91.8,36.372,91.26,37.256,90.133,37.262z"/>
	</g>
	<ellipse class="st2" cx="51.944" cy="51.969" rx="29.584" ry="29.505"/>
	<g>
		<path class="st1" d="M8.295,60.142c-0.185-0.672-0.33-1.56-0.414-2.488c-0.145-1.575,0.053-2.629,0.57-3.462
			c0.56-0.915,1.513-1.545,2.983-1.679c1.58-0.145,2.723,0.329,3.47,1.048c0.802,0.8,1.27,2.1,1.417,3.714
			c0.09,0.965,0.093,1.668,0.073,2.125l-8.1,0.742L8.295,60.142z M14.845,57.668c0.023-0.161-0.003-0.429-0.022-0.65
			c-0.146-1.697-1.177-2.723-3.151-2.542c-1.714,0.159-2.527,1.243-2.38,2.855c0.037,0.404,0.102,0.68,0.152,0.837L14.845,57.668z
			 M7.808,48.808l8.276,0.515l-0.118,1.863L7.691,50.67L7.808,48.808z M14.27,47.542c0.4447-0.5679,0.7542-1.2296,0.905-1.935
			c0.165-0.842-0.098-1.355-0.629-1.461c-0.506-0.098-0.872,0.231-1.4,1.14c-0.747,1.255-1.672,2-2.855,1.768
			c-1.39-0.27-2.209-1.643-1.837-3.547c0.182-0.928,0.492-1.553,0.817-1.99l1.392,0.696c-0.3608,0.4743-0.6059,1.0263-0.716,1.612
			c-0.156,0.795,0.143,1.252,0.554,1.333c0.52,0.1,0.836-0.301,1.442-1.283c0.811-1.33,1.692-1.846,2.838-1.623
			c1.364,0.265,2.32,1.528,1.884,3.756c-0.182,0.929-0.615,1.793-0.959,2.2l-1.437-0.666L14.27,47.542z M11.775,37.928l-0.805,2.083
			L9.5,39.448l2.29-5.931l1.47,0.563l-0.814,2.108l6.268,2.406l-0.67,1.74L11.775,37.928z M13.601,30.277l7.272,3.968l-0.898,1.636
			l-7.271-3.967L13.601,30.277z M21.426,33.049l-6.572-5.039l1.333-1.731l3.458,0.485c0.993,0.142,2.106,0.39,3.078,0.658
			l0.014-0.02c-0.936-0.577-1.845-1.23-2.84-1.99l-1.912-1.467l1.048-1.36l6.573,5.038l-1.2,1.556l-3.614-0.544
			c-1.012-0.156-2.19-0.363-3.199-0.641l-0.03,0.039c0.996,0.6858,1.973,1.3988,2.93,2.138l1.979,1.517l-1.046,1.36L21.426,33.049z
			 M30.94,22.64c-0.148,0.338-0.615,0.998-1.37,1.648c-2.17,1.868-4.462,1.472-6.002-0.31c-1.84-2.127-1.334-4.62,0.564-6.256
			c0.736-0.633,1.423-0.965,1.779-1.062l0.673,1.38c-0.383,0.12-0.88,0.354-1.392,0.794c-1.118,0.962-1.406,2.393-0.201,3.787
			c1.076,1.243,2.505,1.394,3.763,0.312c0.439-0.376,0.83-0.862,1.015-1.23L30.94,22.64z M29.047,14.401l4.493,6.951l-1.571,1.01
			l-4.493-6.952L29.047,14.401z M37.865,19.264c-2.242,0.978-4.317-0.137-5.264-2.295c-0.998-2.27-0.277-4.606,1.954-5.582
			c2.331-1.018,4.37,0.167,5.29,2.256c1.095,2.495,0.254,4.645-1.966,5.612L37.865,19.264z M35.735,8.878l-0.77,1.982l-1.375,0.6
			l0.339-1.796L35.735,8.878z M37.359,17.864c1.16-0.507,1.347-1.888,0.696-3.37c-0.598-1.362-1.753-2.248-2.935-1.732
			c-1.183,0.515-1.345,1.954-0.722,3.368c0.627,1.427,1.804,2.239,2.953,1.737L37.359,17.864z M42.313,17.34l-1.546-8.122
			l2.15-0.407l2.259,2.657c0.6702,0.8057,1.291,1.6513,1.859,2.532l0.025-0.006c-0.313-1.051-0.56-2.141-0.791-3.37l-0.45-2.363
			l1.691-0.32l1.546,8.122l-1.934,0.365l-2.338-2.805c-0.651-0.789-1.392-1.723-1.96-2.601l-0.047,0.008
			c0.2872,1.1718,0.5406,2.3516,0.76,3.538l0.467,2.446L42.313,17.34z M53.384,7.79c0.699-0.056,1.596-0.033,2.527,0.056
			c1.58,0.15,2.58,0.54,3.307,1.202c0.797,0.716,1.239,1.767,1.1,3.234c-0.152,1.575-0.831,2.607-1.678,3.204
			c-0.94,0.638-2.307,0.853-3.923,0.7c-0.967-0.092-1.66-0.22-2.108-0.324L53.384,7.79z M54.603,14.672
			c0.156,0.053,0.425,0.078,0.646,0.097c1.7,0.173,2.904-0.647,3.092-2.615c0.162-1.71-0.755-2.708-2.371-2.864
			c-0.2833-0.0321-0.5692-0.0348-0.853-0.008L54.603,14.672z M66.448,14.948l-2.921-0.876l-0.565,1.88l3.263,0.975l-0.442,1.47
			l-5.055-1.512l2.382-7.92L68,10.427l-0.442,1.47l-3.098-0.926l-0.494,1.645l2.921,0.875L66.448,14.948z M70.326,11.373
			l1.677,0.825l-2.972,6.006l2.955,1.456l-0.696,1.408l-4.632-2.281L70.326,11.373z M78.693,26.482
			c-0.358-0.092-1.087-0.446-1.85-1.084c-2.195-1.838-2.173-4.155-0.652-5.959c1.812-2.152,4.361-2.052,6.282-0.443
			c0.744,0.622,1.183,1.246,1.334,1.58l-1.258,0.885c-0.2464-0.4804-0.5904-0.9041-1.01-1.244c-1.13-0.945-2.594-1-3.78,0.407
			c-1.059,1.26-0.978,2.688,0.294,3.753c0.442,0.371,0.984,0.68,1.381,0.803l-0.74,1.302H78.693z M85.484,22.05l1.2,1.427
			l-5.147,4.302l2.116,2.52l-1.208,1.01l-3.318-3.948L85.484,22.05z M90.846,29.167l-6.975,4.473l-1.012-1.57l6.975-4.472
			L90.846,29.167z M89.893,37.733L88.59,34.98l-1.78,0.836l1.453,3.073l-1.392,0.655l-2.25-4.76l7.5-3.526l2.178,4.606l-1.39,0.655
			l-1.38-2.92l-1.558,0.734l1.303,2.752L89.893,37.733z M87.234,40.365l8.043-2.005l0.532,2.12l-2.53,2.4
			c-0.7687,0.7141-1.5802,1.3807-2.43,1.996l0.006,0.025c1.034-0.37,2.11-0.677,3.33-0.981l2.34-0.583l0.416,1.667l-8.043,2.005
			l-0.478-1.904l2.672-2.487c0.752-0.695,1.644-1.484,2.491-2.1l-0.011-0.047c-1.06,0.326-2.186,0.633-3.5,0.962l-2.424,0.605
			L87.234,40.365L87.234,40.365z M95.775,49.524l-0.106-2.23l1.574-0.076l0.302,6.349l-1.574,0.075l-0.11-2.255l-6.709,0.317
			l-0.09-1.862L95.775,49.524z M92.06,59.921l0.371-3.02l-1.954-0.24l-0.416,3.375l-1.527-0.187l0.643-5.225l8.23,1.006
			l-0.623,5.055l-1.526-0.187l0.394-3.203l-1.708-0.21l-0.372,3.02L92.06,59.921z"/>
	</g>
</g>
</svg>
