<?xml version="1.0" encoding="utf-8"?>
<!-- Generator: Adobe Illustrator 24.0.2, SVG Export Plug-In . SVG Version: 6.00 Build 0)  -->
<svg version="1.1" id="Capa_1" xmlns="http://www.w3.org/2000/svg" xmlns:xlink="http://www.w3.org/1999/xlink" x="0px" y="0px"
	 width="64px" height="64px" viewBox="0 0 64 64" style="enable-background:new 0 0 64 64;" xml:space="preserve">
<style type="text/css">
	.st0{fill:#35343E;}
	.st1{opacity:0.89;fill:#273ABE;enable-background:new    ;}
</style>
<g>
	<g>
		<path class="st0" d="M23.8405,5.4653C11.4649,6.777,1.5158,16.7261,0.2041,29.1017
			c-1.8003,16.9848,12.447,31.2329,29.4323,29.4331c12.3762-1.3115,22.3257-11.2609,23.6371-23.6371
			C55.0734,17.9123,40.8253,3.665,23.8405,5.4653z M24.6989,56.9392C12.5815,55.9737,2.7651,46.1572,1.7996,34.0399
			C0.5728,18.6419,13.3807,5.834,28.7787,7.0608C40.896,8.0263,50.7125,17.8427,51.6779,29.9601
			C52.9047,45.358,40.0968,58.166,24.6989,56.9392z"/>
		<path class="st0" d="M24.9029,9.5547c-10.9057,0.869-19.7404,9.7038-20.6094,20.6094
			c-1.1042,13.858,10.4231,25.3853,24.2812,24.2812c10.9056-0.8689,19.7404-9.7037,20.6093-20.6093
			C50.2882,19.9779,38.7609,8.4506,24.9029,9.5547z M47.5661,31.166h-1.6449c-0.4606,0-0.834,0.3734-0.834,0.834
			c0,0.4606,0.3734,0.834,0.834,0.834h1.6478c-0.4288,10.8346-9.1617,19.5674-19.9962,19.9962v-1.6478
			c0-0.4606-0.3734-0.834-0.834-0.834s-0.834,0.3734-0.834,0.834v1.6449c-0.2879-0.0112-0.5756-0.0216-0.8658-0.0447
			C14.9411,51.9782,6.7606,43.7977,5.9562,33.6998c-0.0231-0.2902-0.0335-0.578-0.0447-0.8658h1.6449
			c0.4606,0,0.834-0.3734,0.834-0.834s-0.3734-0.834-0.834-0.834H5.9085c0.4288-10.8346,9.1617-19.5674,19.9962-19.9962v1.6478
			c0,0.4606,0.3734,0.834,0.834,0.834s0.834-0.3734,0.834-0.834v-1.6449c0.2879,0.0112,0.5756,0.0216,0.8658,0.0447
			c10.0979,0.8044,18.2783,8.9849,19.0828,19.0828C47.5445,30.5903,47.5549,30.8781,47.5661,31.166z"/>
		<path class="st0" d="M40.5804,20.1774l-12.4969,9.72c-0.5152-0.3308-1.1555-0.4823-1.8349-0.3526
			c-0.4736,0.0905-0.9036,0.3269-1.2443,0.6555l-10.4906-5.2455c-0.412-0.206-0.9131-0.039-1.1191,0.373
			c-0.206,0.412-0.039,0.9131,0.373,1.1191l10.5038,5.2519c-0.1948,1.6765,1.2623,3.0801,2.9578,2.7564
			c0.9781-0.1868,1.7781-0.9868,1.9649-1.9649c0.0862-0.4513,0.047-0.8853-0.0838-1.278l12.4947-9.7178
			c0.3638-0.2829,0.4292-0.8071,0.1463-1.1709C41.4681,19.96,40.944,19.8945,40.5804,20.1774z M27.1273,32.725
			c-0.0305,0.0165-0.0575,0.0359-0.0902,0.0486C27.0688,32.7614,27.0971,32.7412,27.1273,32.725z M26.3899,32.7517
			c0.1116,0.0516,0.23,0.0823,0.3488,0.0823C26.6132,32.834,26.4969,32.8017,26.3899,32.7517z"/>
	</g>
	<circle class="st1" cx="51.2985" cy="18.917" r="12.6513"/>
</g>
</svg>
