<?xml version="1.0" encoding="utf-8"?>
<!-- Generator: Adobe Illustrator 24.0.2, SVG Export Plug-In . SVG Version: 6.00 Build 0)  -->
<svg version="1.1" id="Capa_1" xmlns="http://www.w3.org/2000/svg" xmlns:xlink="http://www.w3.org/1999/xlink" x="0px" y="0px"
	 width="64px" height="64px" viewBox="0 0 64 64" style="enable-background:new 0 0 64 64;" xml:space="preserve">
<style type="text/css">
	.st0{fill:#35343E;}
	.st1{opacity:0.89;fill:#273ABE;enable-background:new    ;}
</style>
<g>
	<g>
		<path class="st0" d="M16.2483,0c1.069,0.3217,2.1967,0.518,3.1972,0.9862c5.2881,2.4751,7.3749,8.6039,4.7678,13.8271
			c-1.6721,3.35-3.3453,6.6994-5.0176,10.0492c-0.0926,0.1856-0.182,0.3728-0.2661,0.5454c0.9349,0.3747,1.878,0.6944,2.7677,1.1242
			c1.0841,0.5238,2.0613,1.2338,2.4922,2.4174c0.2124,0.5833,0.2288,1.2379,0.3523,1.9699c0.7518,0.171,1.6382,0.3729,2.5248,0.5742
			c0.2433,0.0552,0.4923,0.0919,0.7296,0.166c0.7291,0.2278,1.1053,0.8571,0.9342,1.5371
			c-0.1661,0.6599-0.8234,1.0379-1.5708,0.8765c-1.3213-0.2854-2.6373-0.595-3.9602-0.8724
			c-0.2022-0.0424-0.4772-0.0398-0.6374,0.0654c-2.2693,1.4896-4.8119,1.892-7.4517,1.8901
			c-2.1643-0.0015-4.274-0.3188-6.2411-1.2832c-0.4641-0.2275-0.9225-0.489-1.3316-0.8026
			c-2.2624-1.7348-2.2318-4.3179,0.1373-5.9073c0.9008-0.6043,1.9677-0.9626,2.965-1.4198
			c0.2401-0.1101,0.5043-0.1674,0.7955-0.2613c-0.1275-0.2718-0.2274-0.4974-0.3376-0.718
			c-1.6448-3.2933-3.2931-6.5849-4.9363-9.879C2.9834,8.5142,6.7044,1.25,13.7231,0.1147C13.8185,0.0993,13.9067,0.0392,13.9983,0
			C14.7483,0,15.4983,0,16.2483,0z M15.165,27.2697c0.0851-0.1392,0.1437-0.2209,0.1882-0.3099
			c2.2571-4.5189,4.5259-9.0321,6.7618-13.5615c0.7308-1.4803,0.9392-3.0751,0.5751-4.6856
			c-0.7164-3.1687-2.6529-5.2575-5.8294-5.9931c-3.0509-0.7064-5.6844,0.2286-7.6363,2.656
			c-2.0197,2.5118-2.3046,5.3407-0.8802,8.2498c2.1391,4.3686,4.3373,8.7082,6.5113,13.0598
			C14.9466,26.8676,15.0462,27.0459,15.165,27.2697z M15.1583,32.6243c0.4158,0,0.8347,0.033,1.2469-0.0057
			c1.7308-0.1628,3.4282-0.4665,4.8768-1.5194c0.8918-0.6482,0.8892-1.2264,0.0255-1.8816c-0.9651-0.732-2.0884-1.104-3.2597-1.3278
			c-0.1471-0.0281-0.4173,0.1433-0.4992,0.2938c-0.4171,0.7657-0.7947,1.5532-1.1789,2.3366
			c-0.2481,0.506-0.6189,0.8445-1.2045,0.8417c-0.5853-0.0029-0.9502-0.3448-1.197-0.8523
			c-0.3725-0.7659-0.7741-1.5179-1.1339-2.2895c-0.1535-0.3291-0.3522-0.4331-0.6839-0.3105
			c-0.8156,0.3015-1.6532,0.5554-2.4402,0.9188c-0.572,0.2641-1.2904,0.5826-1.2893,1.3049c0.0012,0.7408,0.7122,1.072,1.3017,1.38
			C11.4245,32.4024,13.2685,32.6468,15.1583,32.6243z"/>
		<path class="st0" d="M27.8733,64c-1.2384-0.2499-2.4938-0.4374-3.7103-0.7679c-1.1471-0.3117-2.2102-0.8494-3.091-1.6882
			c-1.6641-1.5847-1.679-3.6287,0.0031-5.1901c1.4447-1.341,3.2549-1.8851,5.1405-2.205c1.7949-0.3045,3.5988-0.3402,5.4092-0.081
			c0.2336,0.0334,0.5652-0.103,0.7419-0.2739c0.8077-0.7811,1.5734-1.6054,2.3613-2.4073c0.1737-0.1768,0.3602-0.3506,0.5684-0.482
			c0.4669-0.2946,1.1171-0.2111,1.4887,0.193c0.3904,0.4246,0.4814,0.92,0.2023,1.4371c-0.1163,0.2154-0.2824,0.4154-0.463,0.5824
			c-0.5795,0.5359-1.1764,1.0531-1.8144,1.62c0.783,0.479,1.4083,0.8018,1.9676,1.2142c2.3115,1.7046,2.3224,4.2811,0.017,5.9879
			c-1.6902,1.2514-3.6673,1.717-5.7139,1.9557c-0.2038,0.0238-0.405,0.0695-0.6074,0.105C29.5399,64,28.7066,64,27.8733,64z
			 M28.9944,56.3794c-0.474,0.0356-1.079,0.0553-1.6768,0.131c-1.495,0.1891-2.9555,0.5107-4.2169,1.3972
			c-1.0158,0.7139-1.0061,1.365,0.0201,2.0903c1.1153,0.7883,2.4009,1.1284,3.7264,1.3164
			c2.6652,0.3781,5.2763,0.2322,7.7341-0.9893c0.586-0.2912,1.2935-0.6229,1.283-1.3906c-0.0104-0.7601-0.7188-1.0721-1.3022-1.381
			C32.8625,56.6538,31.006,56.4515,28.9944,56.3794z"/>
		<path class="st0" d="M44.1082,41.9646c-2.1845-1.1168-3.9927-2.225-3.6813-4.9289c-0.9553-0.2167-1.9228-0.4347-2.8894-0.6567
			c-0.2226-0.0511-0.4503-0.0949-0.6613-0.1785c-0.5983-0.237-0.8916-0.784-0.7733-1.4016
			c0.1147-0.5988,0.6241-1.0464,1.2699-0.9454c1.1485,0.1796,2.2963,0.4021,3.4169,0.7078c0.8138,0.222,1.4656,0.155,2.212-0.3022
			c1.6487-1.0099,3.5284-1.3501,5.4312-1.4617c2.6268-0.1541,5.2203,0.0781,7.5967,1.3077c0.827,0.4279,1.6292,1.0403,2.2238,1.7515
			c1.1646,1.3931,0.9,3.2103-0.5174,4.5232c-1.431,1.3255-3.2129,1.8809-5.0769,2.2072c-1.8151,0.3177-3.6403,0.3584-5.4728,0.098
			c-0.237-0.0337-0.5742,0.0868-0.7485,0.2559c-0.8666,0.8408-1.693,1.7228-2.5359,2.5881
			c-0.428,0.4393-0.9319,0.6403-1.5239,0.3836c-0.807-0.3499-0.9689-1.3113-0.3445-2.0344c0.299-0.3462,0.6195-0.6768,0.955-0.9878
			C43.3092,42.593,43.662,42.3305,44.1082,41.9646z M49.6626,40.3663c1.8781-0.0655,3.7971-0.2666,5.548-1.2217
			c0.5497-0.2999,1.1982-0.6273,1.2133-1.3147c0.0161-0.7283-0.6602-1.0552-1.2218-1.3708
			c-1.2773-0.718-2.6833-0.9994-4.1211-1.1301c-2.3805-0.2163-4.7037-0.0015-6.8749,1.0875
			c-0.5895,0.2957-1.3024,0.636-1.2942,1.3892c0.0081,0.7437,0.7129,1.0768,1.3017,1.3873
			C45.8957,40.0799,47.7304,40.2932,49.6626,40.3663z"/>
		<path class="st0" d="M40.6247,48.3773c-0.0012,0.6686-0.5711,1.2404-1.2339,1.238c-0.6534-0.0024-1.2421-0.592-1.2406-1.2425
			c0.0016-0.6525,0.591-1.2386,1.2451-1.2381C40.0579,47.1352,40.6259,47.7093,40.6247,48.3773z"/>
		<path class="st0" d="M33.6455,33.9441c0.0096,0.6709-0.541,1.2469-1.2053,1.2609c-0.6585,0.0139-1.2382-0.5506-1.2519-1.219
			c-0.0139-0.6734,0.5329-1.2372,1.21-1.2475C33.0849,32.728,33.6356,33.2603,33.6455,33.9441z"/>
		<path class="st0" d="M20.2855,10.1954c-0.0227,2.8311-2.3284,5.1139-5.1417,5.0904c-2.8207-0.0235-5.1468-2.3659-5.1056-5.1413
			c0.0418-2.8129,2.3953-5.1438,5.1552-5.1056C18.0178,5.078,20.3079,7.3969,20.2855,10.1954z M17.7829,10.2347
			c0.0319-1.4544-1.0901-2.6393-2.5497-2.6929c-1.4109-0.0518-2.6386,1.1185-2.6928,2.5668
			c-0.053,1.4185,1.1214,2.6425,2.5667,2.6752C16.5712,12.8169,17.7509,11.693,17.7829,10.2347z"/>
	</g>
	<circle class="st1" cx="29.1181" cy="16.6985" r="11.9533"/>
</g>
</svg>
