<?xml version="1.0" encoding="utf-8"?>
<!-- Generator: Adobe Illustrator 23.1.1, SVG Export Plug-In . SVG Version: 6.00 Build 0)  -->
<svg version="1.1" id="Capa_1" xmlns="http://www.w3.org/2000/svg" xmlns:xlink="http://www.w3.org/1999/xlink" x="0px" y="0px"
	 viewBox="0 0 441 185" style="enable-background:new 0 0 441 185;" xml:space="preserve">
<style type="text/css">
	.st0{fill:#B1B1B1;}
	.st1{fill:#43AA34;}
	.st2{fill:#1D1E1C;}
</style>
<g>
	<g>
		<path class="st0" d="M0.68,92.21c0-2.73,0.45-5.28,1.34-7.65s2.12-4.43,3.67-6.19s3.38-3.16,5.48-4.18
			c2.1-1.03,4.36-1.54,6.78-1.54c2.37,0,4.55,0.5,6.55,1.5s3.73,2.34,5.21,4.02v-5.36h9.86v38.65H29.7v-5.36
			c-1.47,1.74-3.21,3.09-5.21,4.06s-4.18,1.46-6.55,1.46c-2.42,0-4.68-0.51-6.78-1.54s-3.93-2.41-5.48-4.14
			c-1.55-1.74-2.77-3.79-3.67-6.15C1.12,97.42,0.68,94.89,0.68,92.21z M10.54,92.21c0,1.31,0.24,2.55,0.71,3.71
			c0.47,1.16,1.14,2.17,2.01,3.04s1.87,1.55,3,2.05s2.38,0.75,3.75,0.75c1.31,0,2.55-0.25,3.71-0.75c1.16-0.5,2.17-1.18,3.04-2.05
			s1.55-1.88,2.05-3.04s0.75-2.39,0.75-3.71c0-1.31-0.25-2.56-0.75-3.75c-0.5-1.18-1.18-2.21-2.05-3.08
			c-0.87-0.87-1.88-1.55-3.04-2.05c-1.16-0.5-2.39-0.75-3.71-0.75c-1.37,0-2.62,0.25-3.75,0.75s-2.13,1.18-3,2.05
			s-1.54,1.89-2.01,3.08C10.77,89.65,10.54,90.9,10.54,92.21z"/>
		<path class="st0" d="M43.9,72.65h2.52v-0.16c0-1.79,0.24-3.51,0.71-5.17c0.47-1.66,1.25-3.09,2.33-4.3
			c1.08-1.21,2.51-2.1,4.3-2.68s4-0.71,6.63-0.39v7.34c-1.31-0.1-2.34,0.2-3.08,0.91c-0.74,0.71-1.1,1.7-1.1,2.96v1.5h4.42v8.12
			H56.2v30.68h-9.78V80.78H43.9V72.65z"/>
		<path class="st0" d="M74.46,72.81v38.65h-9.78V72.81H74.46z"/>
		<path class="st1" d="M63.74,61.93c0-1.68,0.58-3.1,1.75-4.26c1.17-1.16,2.54-1.74,4.13-1.74c1.69,0,3.11,0.58,4.25,1.74
			s1.71,2.58,1.71,4.26c0,1.58-0.57,2.95-1.71,4.1c-1.14,1.16-2.55,1.74-4.25,1.74c-1.59,0-2.96-0.58-4.13-1.74
			C64.32,64.87,63.74,63.5,63.74,61.93z"/>
		<path class="st0" d="M90.57,61.85v49.61h-9.78V61.85H90.57z"/>
		<path class="st0" d="M106.11,72.81v38.65h-9.78V72.81H106.11z"/>
		<path class="st1" d="M95.38,61.93c0-1.68,0.58-3.1,1.75-4.26c1.17-1.16,2.54-1.74,4.13-1.74c1.69,0,3.11,0.58,4.25,1.74
			s1.71,2.58,1.71,4.26c0,1.58-0.57,2.95-1.71,4.1c-1.14,1.16-2.55,1.74-4.25,1.74c-1.59,0-2.96-0.58-4.13-1.74
			S95.38,63.5,95.38,61.93z"/>
		<path class="st0" d="M110.6,92.21c0-2.73,0.45-5.28,1.34-7.65s2.12-4.43,3.67-6.19c1.55-1.76,3.38-3.16,5.48-4.18
			c2.1-1.03,4.36-1.54,6.78-1.54c2.37,0,4.55,0.5,6.55,1.5s3.73,2.34,5.21,4.02v-5.36h9.86v38.65h-9.86v-5.36
			c-1.47,1.74-3.21,3.09-5.21,4.06s-4.18,1.46-6.55,1.46c-2.42,0-4.68-0.51-6.78-1.54s-3.93-2.41-5.48-4.14
			c-1.55-1.74-2.77-3.79-3.67-6.15C111.05,97.42,110.6,94.89,110.6,92.21z M120.46,92.21c0,1.31,0.24,2.55,0.71,3.71
			c0.47,1.16,1.14,2.17,2.01,3.04s1.87,1.55,3,2.05s2.38,0.75,3.75,0.75c1.31,0,2.55-0.25,3.71-0.75s2.17-1.18,3.04-2.05
			s1.55-1.88,2.05-3.04s0.75-2.39,0.75-3.71c0-1.31-0.25-2.56-0.75-3.75c-0.5-1.18-1.18-2.21-2.05-3.08
			c-0.87-0.87-1.88-1.55-3.04-2.05c-1.16-0.5-2.39-0.75-3.71-0.75c-1.37,0-2.62,0.25-3.75,0.75s-2.13,1.18-3,2.05
			s-1.54,1.89-2.01,3.08C120.7,89.65,120.46,90.9,120.46,92.21z"/>
		<path class="st0" d="M152.98,92.21c0-2.73,0.45-5.28,1.34-7.65s2.12-4.43,3.67-6.19s3.38-3.16,5.48-4.18
			c2.1-1.03,4.36-1.54,6.78-1.54c2.37,0,4.52,0.47,6.47,1.42s3.65,2.26,5.13,3.94V61.85h9.86v49.61h-9.86v-5.13
			c-1.47,1.68-3.18,2.99-5.13,3.9c-1.95,0.92-4.1,1.38-6.47,1.38c-2.42,0-4.68-0.51-6.78-1.54s-3.93-2.41-5.48-4.14
			c-1.55-1.74-2.77-3.79-3.67-6.15S152.98,94.89,152.98,92.21z M162.84,92.21c0,1.31,0.24,2.55,0.71,3.71
			c0.47,1.16,1.14,2.17,2.01,3.04s1.87,1.55,3,2.05s2.38,0.75,3.75,0.75c1.21,0,2.37-0.21,3.47-0.63s2.08-1.01,2.92-1.77
			c0.84-0.76,1.54-1.64,2.09-2.64s0.91-2.1,1.06-3.31v-2.37c-0.16-1.16-0.51-2.26-1.06-3.31c-0.55-1.05-1.25-1.94-2.09-2.68
			s-1.81-1.33-2.92-1.77c-1.1-0.45-2.26-0.67-3.47-0.67c-1.37,0-2.62,0.25-3.75,0.75s-2.13,1.18-3,2.05s-1.54,1.89-2.01,3.08
			C163.07,89.65,162.84,90.9,162.84,92.21z"/>
		<path class="st0" d="M233.68,92.21c0,2.68-0.51,5.21-1.54,7.57c-1.03,2.37-2.41,4.42-4.14,6.15c-1.73,1.74-3.79,3.12-6.15,4.14
			c-2.37,1.03-4.89,1.54-7.57,1.54c-2.73,0-5.28-0.51-7.65-1.54s-4.42-2.41-6.15-4.14c-1.74-1.74-3.1-3.79-4.1-6.15
			c-1-2.37-1.5-4.89-1.5-7.57c0-2.73,0.5-5.28,1.5-7.65s2.37-4.43,4.1-6.19c1.74-1.76,3.79-3.16,6.15-4.18
			c2.37-1.03,4.92-1.54,7.65-1.54c2.68,0,5.21,0.51,7.57,1.54c2.37,1.03,4.42,2.42,6.15,4.18c1.74,1.76,3.12,3.83,4.14,6.19
			C233.17,86.93,233.68,89.48,233.68,92.21z M223.75,92.21c0-1.31-0.25-2.56-0.75-3.75c-0.5-1.18-1.18-2.21-2.05-3.08
			c-0.87-0.87-1.87-1.55-3-2.05s-2.35-0.75-3.67-0.75c-1.31,0-2.55,0.25-3.71,0.75s-2.17,1.18-3.04,2.05s-1.55,1.89-2.05,3.08
			c-0.5,1.18-0.75,2.43-0.75,3.75c0,1.31,0.25,2.55,0.75,3.71c0.5,1.16,1.18,2.17,2.05,3.04s1.88,1.55,3.04,2.05
			c1.16,0.5,2.39,0.75,3.71,0.75c1.31,0,2.54-0.25,3.67-0.75s2.13-1.18,3-2.05s1.55-1.88,2.05-3.04
			C223.5,94.76,223.75,93.53,223.75,92.21z"/>
	</g>
	<path class="st2" d="M406,104.61L406,104.61L406,104.61L406,104.61z"/>
	<path class="st1" d="M440.94,88.24c0,0-0.03-0.82-0.06-1.36c-0.03-0.52-0.16-1.5-0.32-2.44c-1.56-9.13-5.88-17.45-12.47-24.07
		c-8.43-8.46-18.97-13.17-30.91-13.25l0,0c-0.4,0-0.72,0.32-0.72,0.72V48c0.05,8.26,8.96,10.3,9.38,10.39
		c0.01,0,0.02,0.01,0.04,0.01c5.62,1.47,10.21,4.45,15.11,9.37c5.92,5.95,9.05,12.85,9.89,20.52l0.02,0.17l0.16,0.07
		c1.37,0.62,3.03,0.79,4.8,0.79c0.06,0,0.13,0,0.19,0c1.75-0.02,3.42-0.2,4.72-0.79l0.19-0.08L440.94,88.24z"/>
	<path class="st1" d="M397.34,64.02L397.34,64.02c-0.29,0.01-0.51,0.25-0.5,0.53l0.03,0.91c0,0.02,0,0.03,0,0.05
		c0.65,5.89,6.66,9.38,6.92,9.53l0.03,0.01c5.54,2.63,8.88,7.86,9.26,14.44h0.03c0,0,2.87,0.54,5.49,0.54s5.19-0.55,5.19-0.55v-0.12
		c-0.24-6.8-2.93-13.07-7.64-17.75C411.23,66.72,404.55,64.02,397.34,64.02z"/>
	<path class="st1" d="M397.94,80.72h-0.46c-0.15,0-0.26,0.12-0.26,0.26v6.27v2.03c0,0.12,0.08,0.23,0.2,0.26
		c0.53,0.14,2.1,0.49,4.2,0.49s3.67-0.35,4.2-0.49c0.12-0.03,0.2-0.13,0.2-0.26v-0.52C406,84.33,402.39,80.72,397.94,80.72z"/>
	<g>
		<path class="st2" d="M275.4,72.91h-9.54c-0.33,0-0.6,0.27-0.6,0.6v3.71c-1.23-1.18-2.63-2.17-4.18-2.94
			c-2.01-1-4.23-1.51-6.6-1.51c-2.42,0-4.72,0.52-6.82,1.55c-2.1,1.02-3.94,2.43-5.49,4.19c-1.54,1.75-2.77,3.83-3.66,6.17
			c-0.89,2.35-1.34,4.91-1.34,7.61c0,2.66,0.45,5.19,1.34,7.54s2.12,4.41,3.66,6.14c1.54,1.73,3.39,3.12,5.49,4.15
			c2.11,1.03,4.4,1.55,6.82,1.55c2.37,0,4.59-0.5,6.59-1.47c1.54-0.75,2.95-1.74,4.18-2.95v3.68c0,0.33,0.27,0.6,0.6,0.6h9.54
			c0.33,0,0.6-0.27,0.6-0.6V73.5C275.99,73.18,275.72,72.91,275.4,72.91z M256.47,100.92c-1.24,0-2.37-0.23-3.38-0.67
			c-1.02-0.45-1.94-1.08-2.72-1.86s-1.39-1.7-1.82-2.74c-0.43-1.04-0.64-2.17-0.64-3.36s0.22-2.33,0.64-3.4
			c0.43-1.06,1.04-2,1.81-2.78c0.78-0.78,1.7-1.41,2.72-1.86c1.01-0.45,2.15-0.67,3.38-0.67c1.18,0,2.31,0.23,3.35,0.68
			c1.05,0.45,1.97,1.08,2.75,1.86s1.4,1.72,1.86,2.79c0.45,1.07,0.68,2.21,0.68,3.39s-0.23,2.31-0.68,3.35
			c-0.45,1.05-1.08,1.97-1.86,2.75s-1.71,1.41-2.75,1.86C258.78,100.69,257.66,100.92,256.47,100.92z"/>
		<path class="st2" d="M326.88,76.98c-1.07-1.3-2.36-2.35-3.86-3.09c-1.5-0.75-3.21-1.13-5.07-1.13c-2.23,0-4.18,0.48-5.79,1.42
			c-1.35,0.79-2.53,1.87-3.5,3.2c-0.89-1.29-1.99-2.35-3.29-3.16c-1.56-0.97-3.49-1.46-5.73-1.46c-2.76,0-5.15,0.89-7.11,2.65V73.5
			c0-0.33-0.27-0.6-0.6-0.6h-9.54c-0.33,0-0.6,0.27-0.6,0.6v37.4c0,0.33,0.27,0.6,0.6,0.6h9.54c0.33,0,0.6-0.27,0.6-0.6V88.71
			c0.05-1.94,0.37-3.29,0.97-4.03c0.61-0.75,1.28-1.22,2.03-1.45c0.03-0.01,0.07-0.02,0.1-0.04c0.5-0.25,1.02-0.33,1.59-0.25
			c0.6,0.09,1.16,0.3,1.67,0.63c0.5,0.32,0.9,0.79,1.21,1.38c0.31,0.6,0.47,1.29,0.47,2.05v23.89c0,0.33,0.27,0.6,0.6,0.6h9.54
			c0.33,0,0.6-0.27,0.6-0.6v-22.1c0.1-1.96,0.43-3.34,0.99-4.1s1.2-1.24,1.94-1.46c0.02,0,0.03-0.01,0.05-0.02
			c0.57-0.22,1.15-0.3,1.74-0.23c0.6,0.07,1.14,0.26,1.65,0.59c0.5,0.33,0.93,0.79,1.26,1.36c0.33,0.57,0.49,1.26,0.49,2.07v23.89
			c0,0.33,0.27,0.6,0.6,0.6h9.54c0.33,0,0.6-0.27,0.6-0.6V87.01c0-1.94-0.28-3.78-0.83-5.49C328.76,79.81,327.94,78.28,326.88,76.98
			z"/>
		<path class="st2" d="M369.75,73.16c-0.11-0.16-0.29-0.25-0.49-0.25h-10.15c-0.25,0-0.48,0.16-0.56,0.4l-7.67,22.3l-7.38-22.29
			c-0.08-0.24-0.31-0.41-0.56-0.41h-10.23c-0.19,0-0.37,0.09-0.48,0.25c-0.11,0.16-0.14,0.36-0.08,0.54l12.82,37.55
			c0.08,0.24,0.31,0.4,0.56,0.4h10.23c0.25,0,0.48-0.16,0.56-0.39l13.51-37.55C369.89,73.52,369.86,73.32,369.75,73.16z"/>
	</g>
	<path class="st1" d="M312.48,37.27c0,0,56.67,20.02,61.81,21.84c5.93,2.06,10.67-1.33,10.67-1.33L309.53,31.1l0,0l-12.87,36.37
		c0,0,4.75,0.11,7.17-5.76S312.48,37.27,312.48,37.27"/>
	<path class="st1" d="M374.49,115.77l-11.33,32.02l-78.43-27.75l1.1-3.1h-5.13l-2.14,6.05l87.55,30.97l12.48-35.29L374.49,115.77z"
		/>
	<path class="st2" d="M418.37,92.14c-2.77,0-5.33-0.33-5.33-0.33L413,92.19c-0.07,0.73-0.19,1.44-0.34,2.11
		c-0.08,0.35-0.16,0.69-0.26,1l-0.03,0.09c-0.09,0.32-0.2,0.65-0.34,1.03c-0.02,0.07-0.05,0.14-0.07,0.2
		c-0.13,0.34-0.27,0.67-0.41,0.98l-0.08,0.16c-0.16,0.34-0.31,0.64-0.48,0.94l-0.04,0.07c-0.16,0.29-0.35,0.59-0.57,0.93l-0.02,0.04
		c-0.03,0.05-0.06,0.09-0.09,0.14c-0.21,0.3-0.42,0.6-0.64,0.87l-0.12,0.15c-0.24,0.3-0.47,0.56-0.7,0.81l-0.05,0.05
		c-0.23,0.24-0.5,0.5-0.81,0.77l-0.17,0.15c-0.28,0.24-0.57,0.47-0.86,0.69l-0.17,0.12c-0.34,0.24-0.65,0.44-0.95,0.62l-0.05,0.03
		c-0.31,0.18-0.65,0.36-1.05,0.56l-0.06,0.03c-0.05,0.02-0.1,0.05-0.15,0.07c-0.36,0.17-0.73,0.32-1.11,0.46
		c-0.04,0.02-0.09,0.03-0.13,0.05l-0.08,0.03c-0.44,0.15-0.84,0.28-1.22,0.38l-0.03,0.01c-0.38,0.1-0.81,0.19-1.32,0.28l-0.08,0.01
		c-0.06,0.01-0.12,0.02-0.17,0.03c-0.44,0.07-0.9,0.13-1.36,0.17c-0.06,0-0.11,0.01-0.17,0.01l-0.1,0.01
		c-0.55,0.04-1.05,0.06-1.51,0.06c-10.89,0-15.85-8.22-15.85-15.85c0-5.68,2.88-13.01,10.95-15.22c0,0,0-0.01,0-0.02
		c2.06-0.72,3.54-2.68,3.54-4.99c0-2.92-2.37-5.29-5.29-5.29c-0.49,0-0.96,0.07-1.41,0.2c0,0,0-0.01-0.01-0.01
		c-0.05,0.01-0.1,0.03-0.15,0.05l0,0c-5.73,1.68-9.5,4.95-11.66,7.41c-4.18,4.76-6.58,11.27-6.58,17.86s2.4,13.1,6.58,17.86
		c3.42,3.89,9.64,8.54,19.88,8.54s16.47-4.64,19.88-8.54c0.3-0.34,0.6-0.71,0.95-1.16c0.07-0.09,0.14-0.18,0.21-0.27l0.05-0.06
		c0.24-0.33,0.48-0.66,0.71-0.99l0.07-0.1c0.04-0.05,0.07-0.11,0.11-0.16c0.27-0.41,0.53-0.84,0.79-1.27
		c0.04-0.07,0.07-0.13,0.11-0.2l0.06-0.11c0.19-0.35,0.39-0.7,0.57-1.07l0.05-0.11c0.04-0.09,0.09-0.17,0.13-0.26
		c0.25-0.51,0.45-0.96,0.63-1.38l0.04-0.11c0.17-0.41,0.33-0.85,0.5-1.32c0.05-0.13,0.09-0.27,0.14-0.41
		c0.14-0.4,0.26-0.81,0.38-1.22l0.03-0.11c0.02-0.05,0.03-0.11,0.05-0.16c0.13-0.47,0.25-0.97,0.36-1.48l0.01-0.04
		c0.01-0.03,0.01-0.05,0.02-0.08c0.01-0.03,0.01-0.06,0.02-0.11c0.26-1.24,0.44-2.53,0.53-3.84l0.03-0.44
		C423.66,91.81,421.14,92.14,418.37,92.14z"/>
</g>
</svg>
