<?xml version="1.0" encoding="utf-8"?>
<!-- Generator: Adobe Illustrator 24.0.2, SVG Export Plug-In . SVG Version: 6.00 Build 0)  -->
<svg version="1.1" id="Capa_1" xmlns="http://www.w3.org/2000/svg" xmlns:xlink="http://www.w3.org/1999/xlink" x="0px" y="0px"
	 width="200px" height="127.2767px" viewBox="0 0 200 127.2767" style="enable-background:new 0 0 200 127.2767;"
	 xml:space="preserve">
<style type="text/css">
	.st0{fill:#DB2455;}
</style>
<g id="Layer_1">
</g>
<g id="logo_redibujado">
	<g>
		<circle class="st0" cx="180.0271" cy="19.9729" r="19.9729"/>
		<path class="st0" d="M62.0522,57.5922c17.1962-4.1996,73.4455-7.7788,113.4546,2.6031
			c6.4791,1.6811,22.2421,6.275,23.5791,16.7566c0,0,2.1794,7.746-17.0164,16.938c-19.1429,9.1666-35.1765,14.612-48.0953,18.4437
			c-12.3466,3.6627-34.9264,9.7443-42.4064,11.1432c-6.3236,1.1823-19.6352,3.9731-26.5564,3.7914
			c-4.8861-0.1284-1.9129-2.585,1.4081-4.5122c6.0422-3.508,22.9951-9.2623,31.8688-12.1866
			c8.8738-2.9248,36.9918-12.7976,43.0583-15.0757c7.238-2.718,20.7875-8.7115,24.779-11.4131
			c4.7558-3.2196,10.301-8.1659,4.8169-11.3265c-4.8117-2.7729-9.455-3.348-19.8147-4.7896
			c-10.2361-1.4243-34.4179-2.3595-41.1425-2.4201c-6.6584-0.0603-21.2669-0.651-25.3105-0.7059
			c-2.8251-0.0381-23.2965-1.2686-26.0789-3.0706C56.6419,60.5022,56.7427,58.8886,62.0522,57.5922z"/>
		<path class="st0" d="M23.4196,73.4604H11.5363L1.1572,102.8243H12.438l0.8533-3.7103h7.9723l1.0531,3.7103h11.2817
			L23.4196,73.4604z M14.996,92.2456l2.3814-10.0791l2.2313,10.0791H14.996z"/>
		<path class="st0" d="M98.2788,73.4604H86.3956l-10.3792,29.3639h11.2808l0.8533-3.7103h7.9721l1.0531,3.7103h11.2819
			L98.2788,73.4604z M89.8552,92.2456l2.3817-10.0791l2.2313,10.0791H89.8552z"/>
		<polygon class="st0" points="40.6063,102.8243 40.6063,73.4604 50.7546,73.4604 59.8163,88.5756 59.8163,73.4604 69.9583,73.4604 
			69.9583,102.8243 59.8163,102.8243 50.7546,87.6334 50.7546,102.8243 		"/>
		<g>
			<path class="st0" d="M0.0008,111.2568h1.6087c-0.0027,0.2693,0.0519,0.4421,0.1636,0.5191
				c0.0798,0.0508,0.183,0.0808,0.3093,0.0898c0.1265,0.0095,0.5248,0.017,1.1956,0.0222c0.7027-0.0027,1.1242-0.0073,1.2653-0.0138
				c0.1411-0.0068,0.2531-0.0276,0.3353-0.0622c0.1225-0.0503,0.1839-0.1874,0.1839-0.411c0-0.1628-0.0433-0.2709-0.1295-0.3252
				c-0.0865-0.0549-0.2631-0.0846-0.5291-0.0903c-0.2049,0-0.6383-0.016-1.3013-0.0476c-0.6786-0.0322-1.1204-0.0508-1.3251-0.056
				c-0.3993-0.0132-0.7059-0.0511-0.9198-0.1141c-0.2144-0.0622-0.3815-0.1636-0.5013-0.3047
				c-0.2049-0.2344-0.3074-0.6254-0.3074-1.1739c0-0.6145,0.1173-1.0482,0.3512-1.3013c0.1782-0.1971,0.4526-0.3231,0.8225-0.3772
				c0.3696-0.0549,1.1215-0.0825,2.2551-0.0825c0.8011,0,1.3637,0.0227,1.6884,0.0681c0.5005,0.0692,0.8435,0.2082,1.0298,0.4172
				s0.2796,0.5607,0.2796,1.0555c0,0.0454-0.0016,0.1303-0.0043,0.2555H4.8628c-0.0054-0.1522-0.0178-0.2555-0.0381-0.3115
				c-0.0197-0.056-0.0592-0.1008-0.1179-0.1357c-0.0719-0.0422-0.1982-0.0697-0.3791-0.0819
				c-0.1809-0.0116-0.5643-0.0178-1.1496-0.0178c-0.7051,0-1.1347,0.0222-1.2894,0.066s-0.2314,0.1657-0.2314,0.3655
				c0,0.1917,0.0771,0.309,0.2314,0.3512c0.1279,0.0349,0.7146,0.0681,1.7604,0.0998c0.8809,0.0265,1.4697,0.0576,1.7663,0.0941
				c0.2966,0.036,0.5329,0.1041,0.7084,0.2055c0.1995,0.1198,0.3407,0.2842,0.4231,0.4931
				c0.0825,0.2085,0.1236,0.5086,0.1236,0.8998c0,0.5132-0.0692,0.8957-0.2076,1.1453c-0.1038,0.1838-0.2482,0.3212-0.4331,0.4112
				c-0.1852,0.0908-0.445,0.1517-0.7806,0.1839c-0.359,0.0316-1.0285,0.0476-2.0078,0.0476c-0.8195,0-1.4251-0.0211-1.8163-0.0633
				c-0.391-0.0427-0.6851-0.1184-0.8819-0.2276c-0.2052-0.1173-0.3466-0.2715-0.425-0.4637C0.0395,112.1947,0,111.9033,0,111.512
				v-0.2552H0.0008z"/>
			<path class="st0" d="M11.0224,107.6128h6.0352v1.281h-4.3989v0.7868h4.1753v1.1972h-4.1753v0.8744h4.4308v1.3091h-6.0671
				L11.0224,107.6128L11.0224,107.6128z"/>
			<path class="st0" d="M24.6941,109.972h3.796c0.0054,0.0876,0.0078,0.1368,0.0078,0.1479c0,0.7684-0.0197,1.3475-0.06,1.7358
				c-0.0635,0.6283-0.4204,1.0085-1.0696,1.1418c-0.2793,0.056-0.5994,0.0941-0.9601,0.1135c-0.3607,0.0205-0.9109,0.03-1.6503,0.03
				c-0.9368,0-1.5992-0.0254-1.988-0.076c-0.3885-0.0503-0.6957-0.1511-0.922-0.3031c-0.1544-0.1035-0.2728-0.2366-0.355-0.3988
				c-0.0827-0.1628-0.1398-0.3772-0.172-0.6432c-0.0316-0.2477-0.0479-0.7367-0.0479-1.4686c0-0.498,0.0132-0.873,0.0397-1.1258
				c0.0265-0.2528,0.0787-0.4788,0.1557-0.6786c0.1568-0.4204,0.4907-0.6759,1.0017-0.7662
				c0.5589-0.0981,1.417-0.1479,2.5747-0.1479c0.6865,0,1.2294,0.0173,1.6284,0.0516c0.3991,0.0349,0.7276,0.0919,0.9858,0.1717
				c0.418,0.1303,0.6705,0.4123,0.7587,0.8465c0.0424,0.2155,0.0652,0.5124,0.0679,0.8898H26.825
				c-0.0027-0.1536-0.0119-0.2587-0.0281-0.3131c-0.016-0.0543-0.0492-0.1003-0.0998-0.1373
				c-0.0933-0.0665-0.2874-0.1082-0.5826-0.1241c-0.2793-0.016-0.6838-0.0243-1.2134-0.0243c-0.5748,0-0.9852,0.0138-1.2315,0.04
				c-0.246,0.0265-0.4142,0.076-0.5048,0.1479c-0.0906,0.0744-0.1519,0.1966-0.1836,0.365
				c-0.0322,0.1695-0.0481,0.4588-0.0481,0.8682c0,0.4604,0.016,0.7822,0.0481,0.9641c0.0316,0.1828,0.093,0.3109,0.1836,0.3856
				c0.0906,0.0714,0.2082,0.1146,0.3534,0.1295c0.1449,0.0149,0.6032,0.0276,1.3751,0.0381
				c0.7557-0.0054,1.2148-0.0127,1.3773-0.0222c0.1622-0.0089,0.2925-0.0338,0.391-0.0738c0.08-0.0343,0.1363-0.0908,0.1695-0.1695
				c0.0333-0.0781,0.0503-0.196,0.0503-0.3528c0-0.0243-0.0014-0.0744-0.0041-0.1517h-2.1835v-1.0899h0.0003V109.972z"/>
			<path class="st0" d="M32.9016,107.6128h1.6606v2.5031c0.0078,0.5745,0.0278,0.9379,0.0597,1.0893
				c0.0424,0.2133,0.1803,0.3528,0.4131,0.4193s0.7032,0.0998,1.411,0.0998c0.5748,0,0.9733-0.017,1.1956-0.0498
				c0.222-0.0338,0.3799-0.0992,0.4731-0.1979c0.0611-0.0687,0.1044-0.153,0.1295-0.2514c0.0251-0.0987,0.0443-0.2671,0.0579-0.5069
				c0.0132-0.2444,0.0197-0.4456,0.0197-0.6027v-2.5031h1.6606v2.5031c-0.0184,0.8698-0.0465,1.4394-0.0838,1.7082
				c-0.0665,0.4577-0.285,0.7933-0.6546,1.006c-0.2104,0.1225-0.5069,0.2049-0.8903,0.2477
				c-0.3831,0.0422-1.0125,0.0633-1.8877,0.0633c-0.6575,0-1.1645-0.0116-1.5208-0.036c-0.3566-0.0238-0.6667-0.0665-0.9301-0.1273
				c-0.5826-0.1384-0.9233-0.4902-1.0217-1.0539c-0.0373-0.2155-0.0606-0.4112-0.0698-0.5867
				c-0.0095-0.1757-0.0168-0.5829-0.0219-1.2215v-2.5025h-0.0001V107.6128z"/>
			<path class="st0" d="M44.4977,113.0612v-5.4485h4.0117c0.9417,0.0027,1.506,0.0127,1.6922,0.03s0.3661,0.0792,0.5391,0.186
				c0.2074,0.1246,0.3496,0.2969,0.4269,0.5164c0.0771,0.2198,0.1157,0.5651,0.1157,1.036c0,0.3966-0.0246,0.6881-0.0738,0.8738
				c-0.0492,0.1863-0.1414,0.3353-0.2771,0.4466c-0.1465,0.1198-0.3672,0.2028-0.6627,0.2482
				c0.3488,0.0265,0.5989,0.1263,0.7505,0.2988c0.0876,0.1041,0.1436,0.2298,0.1674,0.3774c0.0241,0.1473,0.036,0.4567,0.036,0.9279
				v0.5069h-1.6365v-0.2915c0-0.3031-0.0114-0.5196-0.0338-0.6483c-0.0227-0.129-0.0646-0.2282-0.1257-0.2974
				c-0.0614-0.0638-0.1457-0.1046-0.2536-0.1219c-0.1079-0.017-0.3331-0.026-0.6767-0.026h-2.3387v1.3851h-1.6609
				C44.4977,113.0607,44.4977,113.0612,44.4977,113.0612z M46.1583,110.3148h2.3349c0.4072-0.0073,0.65-0.0149,0.7284-0.0216
				c0.0784-0.0068,0.1457-0.027,0.2014-0.0619c0.0722-0.0454,0.1225-0.1125,0.152-0.2017s0.0438-0.2239,0.0438-0.405
				c0-0.1779-0.0168-0.3115-0.05-0.3993c-0.0333-0.0879-0.0911-0.1517-0.1736-0.1917c-0.0587-0.0265-0.1287-0.0427-0.2095-0.0476
				c-0.0814-0.0057-0.3134-0.01-0.6965-0.0122h-2.3308L46.1583,110.3148L46.1583,110.3148z"/>
			<path class="st0" d="M59.2871,107.533c1.1761,0,1.985,0.0289,2.4268,0.0881c0.6362,0.0849,1.0261,0.3872,1.1696,0.9057
				c0.0981,0.3563,0.1476,0.9595,0.1476,1.8085c0,0.8511-0.0495,1.4554-0.1476,1.8123c-0.1436,0.5186-0.5337,0.8206-1.1696,0.9057
				c-0.4418,0.0587-1.245,0.0876-2.4109,0.0876c-1.1869,0-2.001-0.0289-2.4428-0.0876c-0.6362-0.0849-1.0258-0.3872-1.1693-0.9057
				c-0.0984-0.3569-0.1479-0.9717-0.1479-1.8445c0-0.83,0.0495-1.4221,0.1479-1.7763c0.1436-0.5186,0.5334-0.8206,1.1693-0.9057
				C57.2991,107.5619,58.1081,107.533,59.2871,107.533z M59.2909,108.9497c-0.8809,0-1.4105,0.0227-1.5887,0.0681
				c-0.2049,0.0533-0.3393,0.1722-0.4031,0.3574c-0.0638,0.1849-0.0957,0.5524-0.0957,1.1031c0,0.3331,0.0173,0.5734,0.0519,0.723
				c0.0665,0.2766,0.2674,0.4345,0.6027,0.4748c0.2474,0.0322,0.7276,0.0481,1.4408,0.0481c0.6681,0,1.1123-0.0116,1.3332-0.036
				c0.2206-0.0238,0.3847-0.077,0.491-0.1601c0.0957-0.0744,0.1611-0.1844,0.1957-0.329c0.0343-0.1452,0.0516-0.3828,0.0516-0.713
				c0-0.3907-0.0133-0.6781-0.0397-0.8619c-0.0265-0.1838-0.0743-0.322-0.1436-0.415c-0.0879-0.1173-0.2328-0.1895-0.435-0.2176
				C60.5498,108.9636,60.0628,108.9497,59.2909,108.9497z"/>
			<path class="st0" d="M67.2709,111.2568h1.6084c-0.0027,0.2693,0.0519,0.4421,0.1636,0.5191
				c0.08,0.0508,0.183,0.0808,0.3096,0.0898c0.1263,0.0095,0.5248,0.017,1.1953,0.0222c0.7027-0.0027,1.1242-0.0073,1.2656-0.0138
				c0.1409-0.0068,0.2528-0.0276,0.3353-0.0622c0.1222-0.0503,0.1836-0.1874,0.1836-0.411c0-0.1628-0.0433-0.2709-0.1295-0.3252
				c-0.0865-0.0549-0.2628-0.0846-0.5288-0.0903c-0.2052,0-0.6386-0.016-1.3013-0.0476c-0.6784-0.0322-1.1204-0.0508-1.3251-0.056
				c-0.3993-0.0132-0.7057-0.0511-0.9198-0.1141c-0.2144-0.0622-0.3812-0.1636-0.5013-0.3047
				c-0.2049-0.2344-0.3074-0.6254-0.3074-1.1739c0-0.6145,0.1173-1.0482,0.3515-1.3013c0.1782-0.1971,0.4523-0.3231,0.8222-0.3772
				c0.3699-0.0549,1.1215-0.0825,2.2551-0.0825c0.8011,0,1.3637,0.0227,1.6885,0.0681c0.5005,0.0692,0.8435,0.2082,1.0301,0.4172
				c0.186,0.209,0.2793,0.5607,0.2793,1.0555c0,0.0454-0.0014,0.1303-0.0041,0.2555H72.133
				c-0.0054-0.1522-0.0178-0.2555-0.0379-0.3115c-0.02-0.056-0.0595-0.1008-0.1179-0.1357
				c-0.0719-0.0422-0.1982-0.0697-0.3793-0.0819c-0.1809-0.0116-0.564-0.0178-1.1496-0.0178c-0.7048,0-1.1347,0.0222-1.2891,0.066
				s-0.2314,0.1657-0.2314,0.3655c0,0.1917,0.0771,0.309,0.2314,0.3512c0.1276,0.0349,0.7146,0.0681,1.7601,0.0998
				c0.8811,0.0265,1.4697,0.0576,1.7663,0.0941c0.2969,0.036,0.5332,0.1041,0.7084,0.2055
				c0.1995,0.1198,0.3407,0.2842,0.4231,0.4931c0.0825,0.2085,0.1236,0.5086,0.1236,0.8998c0,0.5132-0.0692,0.8957-0.2076,1.1453
				c-0.1035,0.1838-0.2479,0.3212-0.4331,0.4112c-0.1849,0.0908-0.445,0.1517-0.7803,0.1839
				c-0.3593,0.0316-1.0288,0.0476-2.0078,0.0476c-0.8198,0-1.4251-0.0211-1.8163-0.0633c-0.3912-0.0427-0.6851-0.1184-0.8822-0.2276
				c-0.2052-0.1173-0.3466-0.2715-0.425-0.4637c-0.0784-0.1911-0.1179-0.4826-0.1179-0.8738v-0.2552L67.2709,111.2568
				L67.2709,111.2568z"/>
		</g>
	</g>
</g>
</svg>
