<?xml version="1.0" encoding="utf-8"?>
<!-- Generator: Adobe Illustrator 24.0.2, SVG Export Plug-In . SVG Version: 6.00 Build 0)  -->
<svg version="1.1" id="Capa_1" xmlns="http://www.w3.org/2000/svg" xmlns:xlink="http://www.w3.org/1999/xlink" x="0px" y="0px"
	 width="200px" height="71.4118px" viewBox="0 0 200 71.4118" style="enable-background:new 0 0 200 71.4118;" xml:space="preserve"
	>
<style type="text/css">
	.st0{fill:#C31F39;}
	.st1{fill:#776A57;}
	.st2{fill:url(#SVGID_1_);}
	.st3{fill:#E6A540;}
	.st4{fill:url(#SVGID_2_);}
	.st5{opacity:0.4;fill:url(#SVGID_3_);enable-background:new    ;}
</style>
<g id="ATLAS">
	<g>
		<g>
			<path class="st0" d="M127.8116,29.0498c-0.026-0.0701-0.0938-0.1167-0.1683-0.1167h-4.2051c-0.0752,0-0.1427,0.0465-0.1686,0.117
				l-8.4099,22.8018c-0.0206,0.056-0.0121,0.117,0.0213,0.1656c0.0334,0.0486,0.0887,0.0769,0.1474,0.0769h3.8231
				c0.0755,0,0.1433-0.0475,0.1689-0.1197l1.764-4.914h9.2351l1.764,4.914c0.0256,0.0718,0.0934,0.1197,0.1693,0.1197h4.2048
				c0.0594,0,0.1143-0.0293,0.148-0.0779c0.0334-0.0475,0.0411-0.1103,0.0206-0.1649L127.8116,29.0498z M125.3853,33.9166
				c0.2455,1.009,0.5284,1.9336,0.9081,2.9277l2.5848,6.9184h-6.9879l2.5497-6.8172
				C124.816,35.9339,125.1442,34.8999,125.3853,33.9166z M126.4617,36.7813L126.4617,36.7813L126.4617,36.7813L126.4617,36.7813z"/>
			<path class="st0" d="M146.908,34.9458h-4.3731v-6.1371c0-0.056-0.026-0.1082-0.0701-0.1426
				c-0.0442-0.0344-0.1022-0.0452-0.1555-0.0314l-3.6838,0.9796c-0.0789,0.0209-0.1339,0.0921-0.1339,0.1737v5.1574l-3.122,0.0003
				c-0.0472,0-0.0938,0.0192-0.1271,0.0526c-0.0334,0.0334-0.0526,0.0799-0.0526,0.1271v2.804c0,0.0469,0.0192,0.0937,0.0526,0.1271
				c0.0334,0.0334,0.0799,0.0526,0.1271,0.0526h3.122v8.9751c0.0014,1.8891,0.2752,3.2198,1.0629,4.0935
				c0.7928,0.8724,2.0537,1.2201,3.9131,1.2201c1.1641,0,2.458-0.1706,3.4757-0.3746c0.0836-0.0169,0.1436-0.0911,0.1436-0.1764
				V48.874c0-0.0543-0.0256-0.1069-0.0691-0.1413c-0.0435-0.0334-0.1012-0.0459-0.1548-0.0327
				c-0.6417,0.1639-1.4656,0.2651-2.2142,0.2644c-0.8539-0.0027-1.3364-0.1622-1.6359-0.5753
				c-0.3069-0.4171-0.4461-1.1809-0.4441-2.4202v-7.8603l4.3387,0.0007c0.0469,0,0.0931-0.0192,0.1268-0.0526
				c0.0334-0.0334,0.0526-0.0803,0.0526-0.1271v-2.8036c0-0.0472-0.0192-0.0937-0.0526-0.1271
				C147.0011,34.965,146.9549,34.9458,146.908,34.9458z"/>
			<path class="st0" d="M154.167,27.0751h-3.7185c-0.0472,0-0.0938,0.0192-0.1271,0.0526
				c-0.0334,0.0334-0.0526,0.0796-0.0526,0.1271v24.6596c0,0.0469,0.0192,0.0937,0.0526,0.1271
				c0.0334,0.0334,0.0799,0.0519,0.1271,0.0519h3.7185c0.0482,0,0.0927-0.0186,0.1271-0.0519
				c0.0337-0.0344,0.0526-0.0796,0.0526-0.1271V27.2552c0-0.0475-0.0192-0.0937-0.0526-0.1271
				C154.2608,27.0943,154.2142,27.0751,154.167,27.0751z"/>
			<path class="st0" d="M171.5177,40.4627c0.0003-1.7444-0.3699-3.2221-1.445-4.2591c-1.0757-1.0346-2.8134-1.5954-5.4765-1.5954
				c-2.2499,0.0003-4.423,0.4775-6.1455,1.1263c-0.0772,0.029-0.1241,0.1062-0.115,0.1882l0.3474,3.0741
				c0.0067,0.061,0.0438,0.1136,0.0991,0.1406c0.0553,0.0277,0.1197,0.0243,0.172-0.0067c1.419-0.8562,3.4869-1.3273,5.0509-1.3256
				c1.3347,0,2.1872,0.2684,2.7005,0.7533c0.5136,0.4832,0.7334,1.2167,0.7341,2.2422v0.9024
				c-3.0508,0.0219-5.5604,0.5787-7.3349,1.62c-1.8099,1.0579-2.8509,2.6492-2.8475,4.6398
				c-0.0014,1.3755,0.489,2.5062,1.3684,3.2798c0.8795,0.7753,2.1329,1.189,3.6416,1.189c0.0003,0,0.0007,0,0.0007,0
				c2.4445,0,4.4452-1.1523,5.494-2.8124c-0.0614,0.7284-0.0789,1.5212-0.0789,2.2955c0,0.0469,0.0192,0.0937,0.0526,0.1271
				c0.0334,0.0334,0.0799,0.0526,0.1271,0.0526h3.5793c0.0492,0,0.0961-0.0202,0.1305-0.056
				c0.0344-0.0361,0.0519-0.0836,0.0492-0.1322c-0.0695-1.415-0.1042-3.1368-0.1042-4.5862V40.4627z M167.4397,44.4945v0.1571
				c0.0003,1.1567-0.4124,2.31-1.127,3.1662c-0.7156,0.8562-1.7222,1.4167-2.9331,1.4177c-0.6974,0-1.242-0.1932-1.6102-0.517
				c-0.3676-0.3244-0.5716-0.782-0.5733-1.3641c0.0057-0.6782,0.2576-1.3556,1.1809-1.911
				C163.2824,44.9032,164.8535,44.5104,167.4397,44.4945z"/>
			<path class="st0" d="M185.4189,43.669c-1.1243-1.0622-2.7622-1.4878-4.0952-1.9643c-0.6664-0.2367-1.2561-0.4859-1.6625-0.8063
				c-0.406-0.3244-0.6337-0.694-0.6367-1.246c0.003-0.5955,0.2233-1.0488,0.6849-1.3823c0.463-0.3322,1.1914-0.5328,2.194-0.5328
				c1.0933,0,2.2965,0.1673,3.3206,0.4657c0.0526,0.0158,0.1109,0.0057,0.1551-0.0266c0.0452-0.0327,0.0728-0.0846,0.0745-0.1389
				l0.1045-2.9392c0.0034-0.0907-0.0617-0.1693-0.1511-0.1834c-1.0491-0.1703-2.2375-0.3065-3.2606-0.3065
				c-2.3747,0-4.197,0.5807-5.4326,1.5495c-1.2366,0.9685-1.8733,2.3299-1.8716,3.8328c-0.0024,1.4902,0.4937,2.5147,1.239,3.2248
				c1.1172,1.0646,2.743,1.4443,4.0632,1.8884c0.6603,0.2199,1.2433,0.4559,1.6436,0.7719c0.3996,0.3204,0.6272,0.695,0.6306,1.276
				c-0.003,0.6296-0.3052,1.1216-0.8646,1.4828c-0.5588,0.3595-1.3786,0.5679-2.3615,0.5669
				c-1.2986,0.001-2.6414-0.2334-3.7047-0.5335c-0.0526-0.0152-0.1099-0.004-0.1544,0.0277
				c-0.0449,0.0334-0.0725,0.0843-0.0739,0.1396l-0.1045,3.0741c-0.0024,0.0887,0.0594,0.1656,0.1467,0.1824
				c1.0885,0.204,2.3838,0.3403,3.6824,0.3403c2.34,0,4.2551-0.5804,5.5938-1.5765c1.3388-0.9945,2.0941-2.4145,2.0924-4.0419
				C186.6724,45.3791,186.1689,44.3765,185.4189,43.669z"/>
		</g>
		<g>
			<path class="st1" d="M68.3633,67.8737h-4.1849v-7.3801c0-0.0118-0.0051-0.0216-0.0125-0.03
				c-0.0081-0.0074-0.0192-0.0125-0.0307-0.0125h-1.1415c-0.0108,0-0.0223,0.0051-0.03,0.0125
				c-0.0081,0.0084-0.0121,0.0185-0.0121,0.03v8.4265c0,0.0118,0.004,0.0226,0.0121,0.03c0.0078,0.0084,0.0192,0.0125,0.03,0.0125
				h5.3692c0.0115,0,0.0226-0.004,0.0307-0.0125c0.0074-0.0074,0.0125-0.0185,0.0125-0.03v-1.0036
				c0-0.0118-0.0051-0.0226-0.0125-0.03C68.3859,67.8777,68.3748,67.8737,68.3633,67.8737z"/>
			<path class="st1" d="M75.2005,68.1438c-0.0641,0.0108-0.1238,0.0202-0.1801,0.025c-0.0563,0.0057-0.1066,0.0084-0.1511,0.0084
				c-0.1369,0-0.2124-0.0327-0.2425-0.0779c-0.0374-0.056-0.0587-0.1329-0.0587-0.235v-3.5385
				c0.0014-0.5928-0.2317-1.0403-0.6906-1.3212c-0.46-0.2819-1.0545-0.4205-1.7812-0.4205c-0.6292,0-1.1853,0.1504-1.6642,0.4525
				c-0.4866,0.3069-0.7375,0.8532-0.7564,1.6207c0,0.0108,0.0047,0.0216,0.0121,0.031c0.0078,0.0074,0.0189,0.0125,0.031,0.0125
				h0.9634c0.0212,0,0.0398-0.0158,0.0418-0.0378c0.0381-0.3143,0.1197-0.5476,0.2381-0.6991
				c0.2145-0.2785,0.5797-0.4215,1.1115-0.4222c0.4613,0,0.8107,0.0803,1.0508,0.2323c0.2357,0.1514,0.3534,0.3888,0.3551,0.7324
				c0,0.1696-0.0233,0.2961-0.0644,0.378c-0.0745,0.1538-0.2148,0.2441-0.4431,0.2752l-1.6456,0.2057
				c-0.5841,0.0735-1.0599,0.2701-1.4234,0.5895c-0.3659,0.321-0.5483,0.7776-0.5476,1.3556
				c-0.0003,0.5294,0.1858,0.9752,0.5547,1.328c0.3693,0.3531,0.8471,0.5301,1.4241,0.5301c0.0014,0,0.002,0,0.0024,0
				c0.4805,0,0.9216-0.1029,1.3219-0.3085c0.3622-0.1858,0.6485-0.403,0.8603-0.6532c0.0361,0.2033,0.091,0.3662,0.1683,0.4883
				c0.1679,0.2661,0.4458,0.3996,0.8107,0.3989c0.1467,0,0.262-0.0057,0.35-0.0175c0.0873-0.0125,0.2111-0.0411,0.373-0.087
				c0.0185-0.0057,0.031-0.0226,0.031-0.0411v-0.7635c0-0.0125-0.0054-0.0243-0.0155-0.0327
				C75.2261,68.1445,75.213,68.1411,75.2005,68.1438z M73.4496,65.8723v0.7561c-0.0014,0.6205-0.2748,1.0555-0.8363,1.3297
				c-0.3352,0.1656-0.6798,0.2475-1.0366,0.2475c-0.2903,0-0.5372-0.0819-0.7479-0.2475c-0.2077-0.1649-0.3099-0.3831-0.3106-0.6707
				c0.0014-0.3814,0.1511-0.6471,0.4569-0.8211c0.1808-0.1022,0.4576-0.1808,0.8282-0.2293l0.6242-0.0803
				c0.1929-0.0233,0.3892-0.0617,0.5895-0.1163C73.1863,65.9944,73.3306,65.9384,73.4496,65.8723z"/>
			<path class="st1" d="M84.8285,63.7164c-0.2178-0.3312-0.5338-0.6019-0.9459-0.8087c-0.4124-0.2074-0.8387-0.3119-1.2794-0.3119
				c-0.8683,0-1.5792,0.3136-2.1188,0.9381c-0.5396,0.6249-0.8087,1.4376-0.8083,2.432c-0.0003,1.0086,0.2664,1.8004,0.8039,2.3666
				c0.5348,0.5645,1.1924,0.8488,1.9636,0.8481c0.3136,0,0.5955-0.0317,0.8468-0.0927c0.4654-0.1086,0.8579-0.3187,1.1759-0.6306
				c0.1888-0.1791,0.3602-0.4097,0.5136-0.6899c0.1521-0.2809,0.2428-0.5369,0.2708-0.7692
				c0.0014-0.0125-0.0024-0.025-0.0101-0.0334c-0.0084-0.0091-0.0206-0.0152-0.0324-0.0152h-1.0157
				c-0.0192,0-0.0361,0.0135-0.0415,0.0317c-0.0728,0.2678-0.1956,0.5018-0.3699,0.7034c-0.3106,0.348-0.723,0.521-1.2487,0.521
				c-0.5642-0.001-0.9692-0.1831-1.2336-0.5487c-0.261-0.3595-0.4047-0.838-0.4293-1.4366h4.4253
				c0.0108,0,0.0216-0.0041,0.0297-0.0118c0.0084-0.0084,0.0125-0.0192,0.0125-0.03c0-0.6215-0.0307-1.0737-0.0924-1.363
				C85.1758,64.3996,85.0375,64.0317,84.8285,63.7164z M80.8934,65.3145c0.0263-0.4991,0.1912-0.9075,0.493-1.2325
				c0.3119-0.3345,0.692-0.4991,1.1519-0.5001c0.6458,0.0027,1.0929,0.2408,1.3678,0.7233
				c0.1416,0.2516,0.2367,0.5878,0.2799,1.0093H80.8934z"/>
			<path class="st1" d="M93.2354,62.5959c-0.3932,0-0.748,0.0813-1.0643,0.2425c-0.2981,0.1538-0.5605,0.3838-0.7844,0.6893
				c-0.1308-0.2418-0.2758-0.4283-0.4364-0.5605c-0.3079-0.2485-0.7129-0.3713-1.2089-0.3713c-0.4404,0-0.8353,0.1197-1.183,0.3578
				c-0.1831,0.1271-0.3817,0.3187-0.5979,0.5763v-0.7534c0-0.0118-0.0047-0.0216-0.0128-0.03
				c-0.0088-0.0084-0.0192-0.0125-0.03-0.0125h-1.0214c-0.0108,0-0.0216,0.004-0.03,0.0125
				c-0.0078,0.0084-0.0125,0.0182-0.0125,0.03v6.1435c0,0.0118,0.0047,0.0226,0.0125,0.03c0.0084,0.0084,0.0192,0.0125,0.03,0.0125
				h1.0326c0.0111,0,0.0233-0.004,0.0307-0.0125c0.0078-0.0074,0.0128-0.0186,0.0128-0.03v-3.2582
				c-0.0007-0.7861,0.1588-1.3212,0.4657-1.6099c0.3129-0.2961,0.6556-0.4407,1.0346-0.4407c0.4192,0.001,0.6906,0.1362,0.84,0.408
				c0.0938,0.178,0.144,0.4775,0.144,0.8906v4.0099c0,0.0118,0.0051,0.0226,0.0125,0.03c0.0084,0.0084,0.0192,0.0125,0.0307,0.0125
				h1.0498c0.0115,0,0.0212-0.004,0.0293-0.0125c0.0084-0.0074,0.0135-0.0186,0.0135-0.03v-3.5735
				c0-0.6289,0.145-1.0686,0.4249-1.328c0.2853-0.2651,0.6218-0.3956,1.0177-0.3966c0.287,0.001,0.5264,0.0745,0.722,0.2209
				c0.1898,0.1413,0.2903,0.4064,0.2903,0.8097v4.2675c0,0.0118,0.0047,0.0226,0.0128,0.03
				c0.0081,0.0084,0.0189,0.0125,0.0297,0.0125h1.0734c0.0108,0,0.0219-0.004,0.0293-0.0125
				c0.0084-0.0074,0.0128-0.0186,0.0128-0.03v-4.0895c0-0.5476-0.0806-0.986-0.2455-1.3165
				C94.654,62.9017,94.07,62.5942,93.2354,62.5959z"/>
			<path class="st1" d="M99.8085,62.5841c-0.4778,0-0.8973,0.117-1.2534,0.3521c-0.2192,0.1362-0.4246,0.3237-0.6131,0.5588v-0.6893
				c0-0.0118-0.004-0.0226-0.0118-0.031c-0.0078-0.0074-0.0199-0.0125-0.0314-0.0125h-1.0083c-0.0121,0-0.0229,0.0051-0.0307,0.0125
				c-0.0091,0.0084-0.0128,0.0192-0.0128,0.031v8.5637c0,0.0108,0.0047,0.0226,0.0128,0.03
				c0.0074,0.0084,0.0186,0.0125,0.0307,0.0125h1.0316c0.0121,0,0.0226-0.004,0.0307-0.0125
				c0.0088-0.0074,0.0125-0.0186,0.0125-0.03v-3.0198c0.199,0.2334,0.3814,0.403,0.55,0.5092
				c0.3231,0.2074,0.722,0.3102,1.1924,0.3102c0.5996,0,1.1294-0.1848,1.5819-0.5544c0.7149-0.5847,1.0697-1.5563,1.0697-2.9011
				c0-0.9968-0.2455-1.7714-0.7422-2.3147C101.124,62.8575,100.5173,62.5841,99.8085,62.5841z M101.2123,65.8112
				c0,0.7979-0.1598,1.3907-0.4711,1.7822c-0.3143,0.3956-0.7007,0.5888-1.1715,0.5895c-0.7018-0.0024-1.1695-0.3045-1.4345-0.9257
				c-0.1393-0.3261-0.2091-0.7233-0.2091-1.1941c0-0.5847,0.0705-1.0663,0.2098-1.4416c0.2627-0.7024,0.7304-1.043,1.4339-1.0454
				c0.6991,0.0024,1.1675,0.3244,1.4335,0.9884C101.1425,64.9099,101.2123,65.3253,101.2123,65.8112z"/>
			<path class="st1" d="M106.8257,62.6252c-0.1126-0.0118-0.1902-0.0192-0.2364-0.0233c-0.0472-0.0034-0.0803-0.0051-0.1012-0.0051
				c-0.4202-0.001-0.7942,0.1521-1.1149,0.4556c-0.2384,0.2259-0.4111,0.4266-0.5173,0.604v-0.8798
				c0-0.0118-0.0057-0.0226-0.0128-0.03c-0.0081-0.0084-0.0185-0.0125-0.0307-0.0125h-0.981c-0.0108,0-0.0209,0.004-0.0307,0.0125
				c-0.0071,0.0074-0.0118,0.0182-0.0118,0.03v6.1435c0,0.0118,0.0047,0.0226,0.0118,0.03
				c0.0094,0.0084,0.0196,0.0125,0.0307,0.0125h1.0329c0.0111,0,0.0216-0.004,0.0297-0.0125
				c0.0084-0.0074,0.0128-0.0186,0.0128-0.03v-3.5334c0.0007-0.4266,0.1356-0.8012,0.409-1.128
				c0.2711-0.3244,0.6539-0.4866,1.1661-0.4876c0.0597,0,0.1153,0.0024,0.1652,0.0057c0.0509,0.004,0.1049,0.0118,0.1652,0.0226
				c0.0128,0.0024,0.0243-0.001,0.0347-0.0091c0.0098-0.0084,0.0162-0.0209,0.0162-0.0317V62.668
				C106.8638,62.6461,106.8469,62.6276,106.8257,62.6252z"/>
			<path class="st1" d="M112.7688,63.7164c-0.2178-0.3312-0.5338-0.6019-0.9466-0.8087c-0.4124-0.2074-0.8377-0.3119-1.2784-0.3119
				c-0.8694,0-1.5799,0.3136-2.1188,0.9381c-0.5406,0.6249-0.8097,1.4376-0.8086,2.432c-0.0007,1.0086,0.2664,1.8004,0.8036,2.3666
				c0.5355,0.5645,1.1934,0.8488,1.9636,0.8481c0.314,0,0.5969-0.0317,0.8474-0.0927c0.465-0.1086,0.8589-0.3187,1.1752-0.6306
				c0.1885-0.1791,0.3591-0.4097,0.5122-0.6899c0.1534-0.2809,0.2445-0.5369,0.2721-0.7692
				c0.0007-0.0125-0.0024-0.025-0.0108-0.0334c-0.0074-0.0091-0.0192-0.0152-0.0317-0.0152h-1.0147
				c-0.0192,0-0.0364,0.0135-0.0415,0.0317c-0.0732,0.2678-0.1956,0.5018-0.3699,0.7034c-0.3112,0.348-0.7227,0.521-1.2491,0.521
				c-0.5642-0.001-0.9688-0.1831-1.2339-0.5487c-0.261-0.3595-0.4047-0.838-0.4286-1.4366h4.4247
				c0.0094,0,0.0212-0.0041,0.0293-0.0118c0.0084-0.0084,0.0121-0.0192,0.0121-0.03c0-0.6215-0.03-1.0737-0.0914-1.363
				C113.1162,64.3996,112.9779,64.0317,112.7688,63.7164z M108.8338,65.3145c0.0263-0.4991,0.1905-0.9075,0.4934-1.2325
				c0.3113-0.3345,0.6916-0.4991,1.1513-0.5001c0.6465,0.0027,1.0936,0.2408,1.3674,0.7233
				c0.143,0.2516,0.2371,0.5878,0.2809,1.0093H108.8338z"/>
			<path class="st1" d="M119.0125,65.8615c-0.2667-0.174-0.7756-0.347-1.5333-0.5284l-0.6954-0.1656
				c-0.3008-0.0718-0.5278-0.1555-0.6775-0.2468c-0.261-0.1572-0.3838-0.3521-0.3841-0.604
				c0.0003-0.2317,0.0944-0.4121,0.2904-0.5544c0.1946-0.1406,0.4883-0.2148,0.8828-0.2141
				c0.5942-0.0007,1.0012,0.1339,1.2302,0.3898c0.1423,0.1824,0.2232,0.3848,0.2428,0.6087
				c0.002,0.0216,0.0196,0.0395,0.0425,0.0395h0.9752c0.0223,0,0.0418-0.0192,0.0418-0.0418c0-0.0125,0.0003-0.0233,0.0003-0.0351
				c0-0.3949-0.1302-0.7645-0.3871-1.1047c-0.4252-0.5571-1.1182-0.8323-2.0628-0.8323c-0.7233,0-1.3064,0.1824-1.7394,0.5503
				c-0.4333,0.3662-0.6522,0.8522-0.6522,1.4433c-0.0007,0.5068,0.2364,0.9115,0.697,1.1951
				c0.259,0.1649,0.6552,0.3092,1.1901,0.4407l0.8333,0.2067c0.4448,0.1103,0.7436,0.2091,0.8869,0.2893
				c0.2263,0.1322,0.3328,0.3136,0.3332,0.5645c-0.0003,0.3352-0.1376,0.5729-0.4219,0.7341
				c-0.2893,0.1622-0.6259,0.2441-1.0096,0.2441c-0.6488,0-1.0946-0.1649-1.3482-0.4832c-0.1376-0.174-0.2236-0.43-0.2546-0.7685
				c-0.002-0.0226-0.0212-0.0384-0.0428-0.0384h-0.9928c-0.0118,0-0.0223,0.0041-0.0307,0.0125
				c-0.0084,0.0084-0.0125,0.0202-0.0125,0.0317c0.0283,0.6205,0.2388,1.1449,0.6306,1.5671
				c0.3986,0.4283,1.066,0.6357,1.997,0.6363c0.866,0,1.5178-0.2006,1.9491-0.6087c0.4266-0.404,0.6451-0.8899,0.6441-1.4477
				C119.636,66.5666,119.4276,66.1323,119.0125,65.8615z"/>
			<path class="st1" d="M126.5204,68.1438c-0.0644,0.0108-0.1238,0.0202-0.1808,0.025c-0.056,0.0057-0.1059,0.0084-0.1501,0.0084
				c-0.1359,0-0.2128-0.0327-0.2425-0.0779c-0.0384-0.056-0.0594-0.1329-0.0594-0.235v-3.5385
				c0.0017-0.5928-0.2317-1.0403-0.6903-1.3212c-0.46-0.2819-1.0538-0.4205-1.7822-0.4205c-0.6276,0-1.1843,0.1504-1.6635,0.4525
				c-0.4866,0.3069-0.7372,0.8532-0.7557,1.6207c-0.001,0.0108,0.0037,0.0216,0.0118,0.031
				c0.0074,0.0074,0.0196,0.0125,0.0307,0.0125h0.9638c0.0209,0,0.0405-0.0158,0.0425-0.0378
				c0.0378-0.3143,0.118-0.5476,0.2367-0.6991c0.2145-0.2785,0.5807-0.4215,1.1122-0.4222c0.4603,0,0.8103,0.0803,1.0494,0.2323
				c0.2357,0.1514,0.3541,0.3888,0.3551,0.7324c0,0.1696-0.0223,0.2961-0.0644,0.378c-0.0732,0.1538-0.2145,0.2441-0.4424,0.2752
				l-1.6463,0.2057c-0.5841,0.0735-1.0599,0.2701-1.4231,0.5895c-0.3655,0.321-0.5487,0.7776-0.5487,1.3556
				c0,0.5294,0.1865,0.9752,0.5554,1.328c0.3696,0.3531,0.8471,0.5301,1.4248,0.5301c0.0007,0,0.0017,0,0.0024,0
				c0.4805,0,0.9213-0.1029,1.3212-0.3085c0.3612-0.1858,0.6485-0.403,0.8606-0.6532c0.0351,0.2033,0.091,0.3662,0.1683,0.4883
				c0.1676,0.2661,0.4458,0.3996,0.8103,0.3989c0.1464,0,0.263-0.0057,0.35-0.0175c0.0873-0.0125,0.2111-0.0411,0.3733-0.087
				c0.0175-0.0051,0.0307-0.0226,0.0307-0.0411v-0.7635c0-0.0125-0.0057-0.0243-0.0155-0.0327
				C126.5456,68.1445,126.5332,68.1411,126.5204,68.1438z M124.7702,65.8723v0.7561c-0.002,0.6205-0.2752,1.0555-0.8366,1.3297
				c-0.3362,0.1656-0.6802,0.2475-1.0356,0.2475c-0.291,0-0.5396-0.0819-0.749-0.2475c-0.2077-0.1649-0.3106-0.3831-0.3116-0.6707
				c0.002-0.3814,0.1517-0.6471,0.4586-0.8211c0.1794-0.1022,0.4569-0.1808,0.8272-0.2293l0.6249-0.0803
				c0.1919-0.0233,0.3891-0.0617,0.5891-0.1163C124.5061,65.9944,124.6505,65.9384,124.7702,65.8723z"/>
			<path class="st1" d="M136.9057,68.1438c-0.0647,0.0108-0.1238,0.0202-0.1808,0.025c-0.0563,0.0057-0.1069,0.0084-0.1511,0.0084
				c-0.1366,0-0.2124-0.0327-0.2421-0.0779c-0.0378-0.056-0.0593-0.1329-0.0603-0.235l0.001-3.5385
				c0.0014-0.5928-0.2303-1.0403-0.69-1.3212c-0.46-0.2819-1.0541-0.4205-1.7812-0.4205c-0.6303,0-1.1846,0.1504-1.6645,0.4525
				c-0.4866,0.3069-0.7375,0.8532-0.756,1.6207c0,0.0108,0.0047,0.0216,0.0118,0.031c0.0084,0.0074,0.0189,0.0125,0.0307,0.0125
				h0.9641c0.0213,0,0.0398-0.0158,0.0415-0.0378c0.0388-0.3143,0.119-0.5476,0.2384-0.6991
				c0.2141-0.2785,0.58-0.4215,1.1115-0.4222c0.46,0,0.811,0.0803,1.0501,0.2323c0.2367,0.1514,0.3537,0.3888,0.3544,0.7324
				c0,0.1696-0.0222,0.2961-0.0644,0.378c-0.0732,0.1538-0.2138,0.2441-0.4414,0.2752l-1.647,0.2057
				c-0.5837,0.0735-1.0595,0.2701-1.4224,0.5895c-0.3659,0.321-0.5487,0.7776-0.5477,1.3556
				c-0.001,0.5294,0.1851,0.9752,0.5544,1.328c0.3693,0.3531,0.8471,0.5301,1.4238,0.5301c0.0017,0,0.0017,0,0.0027,0
				c0.4809,0,0.9223-0.1029,1.3222-0.3086c0.3622-0.1865,0.6481-0.403,0.8592-0.6532c0.0361,0.2033,0.0921,0.3662,0.1689,0.4883
				c0.1689,0.2661,0.4455,0.3996,0.8103,0.3989c0.1464,0,0.2627-0.0057,0.35-0.0175c0.0887-0.0125,0.2121-0.0411,0.374-0.087
				c0.0179-0.0051,0.031-0.0226,0.031-0.0411v-0.7635c0-0.0125-0.0064-0.0243-0.0155-0.0327
				C136.9307,68.1445,136.9182,68.1411,136.9057,68.1438z M135.1545,65.8723v0.7561c-0.001,0.6205-0.2738,1.0555-0.8363,1.3297
				c-0.3352,0.1656-0.6798,0.2475-1.0363,0.2475c-0.29,0-0.5372-0.0819-0.748-0.2475c-0.2077-0.1649-0.3099-0.3831-0.3106-0.6707
				c0.0007-0.3814,0.1504-0.6471,0.4566-0.8211c0.1807-0.1022,0.4579-0.1808,0.8289-0.2293l0.6239-0.0803
				c0.1922-0.0233,0.3891-0.0617,0.5895-0.1163C134.8915,65.9944,135.0358,65.9384,135.1545,65.8723z M134.6824,65.2016
				L134.6824,65.2016L134.6824,65.2016L134.6824,65.2016z"/>
			<path class="st1" d="M148.1122,62.5959c-0.3918,0-0.7476,0.0813-1.0629,0.2425c-0.2988,0.1538-0.5601,0.3838-0.7844,0.6893
				c-0.1319-0.2418-0.2765-0.4289-0.4374-0.5605c-0.3072-0.2485-0.7125-0.3713-1.2083-0.3713c-0.4394,0-0.8363,0.1197-1.183,0.3578
				c-0.1835,0.1271-0.3821,0.3187-0.5982,0.5763v-0.7534c0-0.0118-0.0051-0.0226-0.0135-0.03
				c-0.0071-0.0084-0.0186-0.0125-0.0293-0.0125h-1.0214c-0.0118,0-0.0222,0.004-0.0307,0.0125
				c-0.0074,0.0074-0.0118,0.0182-0.0118,0.03v6.1435c0,0.0118,0.0041,0.0226,0.0118,0.03
				c0.0084,0.0084,0.0189,0.0125,0.0307,0.0125h1.0322c0.0115,0,0.0219-0.004,0.031-0.0125c0.0078-0.0074,0.0121-0.0186,0.0121-0.03
				v-3.2582c-0.001-0.7861,0.1602-1.3212,0.4654-1.6099c0.3133-0.2961,0.6559-0.4407,1.0346-0.4407
				c0.4202,0.001,0.6917,0.1362,0.84,0.408c0.0941,0.1791,0.145,0.4775,0.145,0.8906l-0.001,4.0099
				c0,0.0118,0.0051,0.0226,0.0121,0.031c0.0078,0.0074,0.0195,0.0118,0.031,0.0118h1.0501c0.0111,0,0.0216-0.004,0.0297-0.0125
				c0.0084-0.0074,0.0128-0.0186,0.0128-0.03v-3.5735c0-0.6289,0.1447-1.0686,0.4246-1.328
				c0.2863-0.2651,0.6232-0.3956,1.0181-0.3966c0.287,0.001,0.5264,0.0745,0.723,0.2209c0.1885,0.1413,0.29,0.4064,0.29,0.8097
				v4.2675c0,0.0118,0.0047,0.0226,0.0121,0.03c0.0081,0.0084,0.0189,0.0125,0.0307,0.0125h1.072
				c0.0121,0,0.0229-0.004,0.0307-0.0125c0.0074-0.0074,0.0125-0.0186,0.0125-0.03v-4.0895c0-0.5476-0.0809-0.986-0.2458-1.3165
				C149.5319,62.9017,148.9469,62.5942,148.1122,62.5959z"/>
			<path class="st1" d="M152.9035,62.7621h-1.0491c-0.0121,0-0.0226,0.004-0.031,0.0125c-0.0071,0.0074-0.0118,0.0192-0.0118,0.031
				v6.1141c0,0.0118,0.0047,0.0226,0.0118,0.03c0.0084,0.0084,0.0189,0.0125,0.031,0.0125h1.0491c0.0111,0,0.0223-0.004,0.03-0.0125
				c0.0081-0.0074,0.0121-0.0186,0.0121-0.03v-6.1141c0-0.0118-0.0041-0.0226-0.0121-0.031
				C152.9254,62.7672,152.9146,62.7621,152.9035,62.7621z"/>
			<path class="st1" d="M151.8544,61.7059h1.0491c0.0111,0,0.0223-0.004,0.03-0.0125c0.0081-0.0074,0.0121-0.0186,0.0121-0.03
				v-1.1698c0-0.0108-0.0041-0.0216-0.0115-0.03c-0.0088-0.0074-0.0196-0.0135-0.031-0.0135h-1.0488
				c-0.0121,0-0.0226,0.0057-0.031,0.0135c-0.0071,0.0084-0.0118,0.0185-0.0118,0.03v1.1698c0,0.0118,0.0047,0.0226,0.0118,0.03
				C151.8318,61.7019,151.8422,61.7059,151.8544,61.7059z"/>
			<path class="st1" d="M164.6532,62.5959c-0.3915,0-0.7469,0.0803-1.0626,0.2425c-0.2991,0.1538-0.5605,0.3831-0.7844,0.6893
				c-0.1312-0.2418-0.2772-0.4283-0.4374-0.5605c-0.3082-0.2492-0.7129-0.3713-1.2089-0.3713c-0.4404,0-0.8353,0.1197-1.183,0.3578
				c-0.1824,0.1271-0.3817,0.3187-0.5989,0.5763v-0.7534c0-0.0118-0.0047-0.0216-0.0111-0.03
				c-0.0084-0.0084-0.0202-0.0125-0.0314-0.0125h-1.0201c-0.0115,0-0.0229,0.004-0.031,0.0125
				c-0.0071,0.0074-0.0125,0.0182-0.0125,0.03v6.1435c0,0.0118,0.0054,0.0226,0.0125,0.03c0.0081,0.0084,0.0195,0.0125,0.031,0.0125
				h1.0316c0.0118,0,0.0222-0.004,0.0314-0.0125c0.0071-0.0074,0.0118-0.0186,0.0118-0.03v-3.2582
				c-0.0007-0.7871,0.1602-1.3212,0.4647-1.6099c0.3153-0.2961,0.6569-0.4407,1.0356-0.4407
				c0.4185,0.001,0.6923,0.1362,0.8403,0.408c0.0941,0.1791,0.1433,0.4775,0.1433,0.8906v4.0099c0,0.0118,0.004,0.0226,0.0125,0.03
				c0.0088,0.0084,0.0192,0.0125,0.0307,0.0125h1.0498c0.0118,0,0.0223-0.004,0.03-0.0125c0.0081-0.0074,0.0121-0.0186,0.0121-0.03
				v-3.5735c0-0.6289,0.146-1.0686,0.4252-1.328c0.286-0.2651,0.6215-0.3956,1.0187-0.3966c0.2863,0,0.5251,0.0745,0.7227,0.2209
				c0.1885,0.1413,0.289,0.4064,0.289,0.8097v4.2675c0,0.0118,0.0054,0.0226,0.0135,0.03c0.0071,0.0084,0.0186,0.0125,0.029,0.0125
				h1.0734c0.0111,0,0.0219-0.004,0.03-0.0125c0.0084-0.0074,0.0128-0.0186,0.0128-0.03v-4.0895
				c-0.001-0.5476-0.0813-0.986-0.2458-1.3165C166.0733,62.9017,165.4895,62.5942,164.6532,62.5959z"/>
			<path class="st1" d="M173.1539,63.7164c-0.2175-0.3322-0.5335-0.6019-0.9446-0.8087c-0.4134-0.2074-0.84-0.3119-1.2804-0.3119
				c-0.868,0-1.5799,0.3136-2.1191,0.9381c-0.5392,0.6249-0.8086,1.4376-0.8086,2.432c0,1.0086,0.2677,1.8004,0.8049,2.3666
				c0.5348,0.5645,1.1931,0.8488,1.9626,0.8481c0.315,0,0.5965-0.0317,0.8481-0.0927c0.465-0.1079,0.8589-0.3187,1.1749-0.6306
				c0.1888-0.1791,0.3602-0.4097,0.5139-0.6899c0.1521-0.2809,0.2435-0.5369,0.2704-0.7692c0.0017-0.0125-0.003-0.025-0.0101-0.0334
				c-0.0074-0.0091-0.0196-0.0152-0.0327-0.0152h-1.014c-0.0206,0-0.0371,0.0135-0.0415,0.0317
				c-0.0732,0.2678-0.1963,0.5018-0.3713,0.7034c-0.3102,0.348-0.7227,0.521-1.2477,0.521
				c-0.5642-0.001-0.9692-0.1831-1.2339-0.5487c-0.2607-0.3595-0.4053-0.838-0.4293-1.4366h4.4247
				c0.0105,0,0.0223-0.0041,0.0293-0.0118c0.0081-0.0084,0.0132-0.0192,0.0132-0.03c0-0.6215-0.0297-1.0737-0.0921-1.363
				C173.5016,64.3996,173.363,64.0317,173.1539,63.7164z M170.8642,63.5819c0.6458,0.0027,1.0936,0.2408,1.3678,0.7243
				c0.1427,0.2509,0.2357,0.5871,0.2806,1.0086h-3.2933c0.0266-0.4991,0.1912-0.9075,0.4933-1.2325
				C170.0241,63.7475,170.4045,63.5826,170.8642,63.5819z"/>
			<path class="st1" d="M180.2119,60.4215h-0.9914c-0.0115,0-0.0226,0.0051-0.0297,0.0135c-0.0088,0.0074-0.0135,0.0185-0.0135,0.03
				v2.9847c-0.2037-0.2408-0.3888-0.4141-0.5571-0.5203c-0.3254-0.204-0.7254-0.3045-1.2002-0.3045
				c-0.8559-0.0017-1.5259,0.3345-1.9862,1.0019c-0.4613,0.6633-0.6903,1.4484-0.6903,2.3501c0,0.9634,0.2519,1.7421,0.7584,2.3258
				c0.5051,0.583,1.1088,0.8781,1.8041,0.8781c0.4279,0,0.8103-0.0853,1.1449-0.2576c0.3001-0.1531,0.5632-0.3939,0.7894-0.7176
				v0.7142c0,0.0118,0.0037,0.0226,0.0121,0.03c0.0084,0.0084,0.0186,0.0125,0.0297,0.0125h0.929
				c0.0121,0,0.0229-0.004,0.031-0.0125c0.0071-0.0074,0.0128-0.0185,0.0128-0.03V60.465c0-0.0118-0.0057-0.0226-0.0128-0.03
				C180.2348,60.4265,180.223,60.4215,180.2119,60.4215z M175.9177,65.9202c0-0.7668,0.1605-1.3415,0.4728-1.7286
				c0.315-0.3881,0.7186-0.5797,1.2255-0.5804c0.4529,0.001,0.8272,0.1791,1.1378,0.5436c0.3052,0.3612,0.463,0.925,0.462,1.6959
				c0.001,0.7635-0.1514,1.3438-0.4502,1.7438c-0.3008,0.403-0.6748,0.5996-1.1374,0.6006c-0.6033-0.0017-1.0299-0.2148-1.3-0.6454
				C176.0553,67.1143,175.9177,66.5724,175.9177,65.9202z"/>
			<path class="st1" d="M183.0992,62.7621h-1.0494c-0.0111,0-0.0229,0.0051-0.0303,0.0125
				c-0.0074,0.0074-0.0125,0.0192-0.0125,0.031v6.1141c0,0.0118,0.0051,0.0226,0.0125,0.03
				c0.0074,0.0084,0.0192,0.0125,0.0303,0.0125h1.0494c0.0105,0,0.0229-0.004,0.03-0.0125c0.0084-0.0074,0.0121-0.0186,0.0121-0.03
				v-6.1141c0-0.0118-0.0037-0.0226-0.0121-0.031C183.1221,62.7672,183.1096,62.7621,183.0992,62.7621z"/>
			<path class="st1" d="M182.0494,61.7059h1.0494c0.0111,0,0.0222-0.004,0.03-0.0118c0.0084-0.0084,0.0121-0.0192,0.0121-0.031
				v-1.1698c0-0.0108-0.0037-0.0216-0.0121-0.03c-0.0071-0.0074-0.0196-0.0125-0.03-0.0125h-1.0494
				c-0.0111,0-0.0229,0.0051-0.0303,0.0125c-0.0074,0.0084-0.0121,0.0192-0.0121,0.03v1.1698c0,0.0118,0.0047,0.0226,0.0121,0.031
				C182.0265,61.7019,182.0383,61.7059,182.0494,61.7059z"/>
			<path class="st1" d="M189.9441,60.4215h-0.9931c-0.0108,0-0.0223,0.004-0.0307,0.0135c-0.0074,0.0074-0.0118,0.0185-0.0118,0.03
				v2.9847c-0.205-0.2408-0.3888-0.4141-0.5588-0.5203c-0.3237-0.204-0.7233-0.3045-1.1988-0.3045
				c-0.8569-0.0017-1.5249,0.3345-1.9866,1.0019c-0.46,0.6633-0.691,1.4484-0.69,2.3501c-0.001,0.9634,0.2512,1.7411,0.7581,2.3258
				c0.5042,0.583,1.1098,0.8781,1.8031,0.8781c0.429,0,0.8124-0.0853,1.1462-0.2566c0.3005-0.1538,0.5642-0.3939,0.7891-0.7176
				v0.7132c0,0.0118,0.0047,0.0226,0.0135,0.03c0.0071,0.0084,0.0175,0.0125,0.03,0.0125h0.9294
				c0.0115,0,0.0209-0.004,0.0297-0.0125c0.0081-0.0074,0.0121-0.0186,0.0121-0.03V60.465c0-0.0118-0.004-0.0226-0.0121-0.03
				C189.965,60.4265,189.9552,60.4215,189.9441,60.4215z M185.6492,65.9202c0-0.7668,0.1592-1.3415,0.4738-1.7286
				c0.3136-0.3881,0.7179-0.5797,1.2234-0.5804c0.4536,0.001,0.8282,0.1791,1.1388,0.5436c0.3052,0.3612,0.4633,0.925,0.4633,1.6959
				c0,0.7635-0.1531,1.3438-0.4502,1.7444c-0.3018,0.4023-0.6758,0.5989-1.1391,0.5996c-0.6026-0.0017-1.0285-0.2158-1.3-0.6454
				C185.7868,67.1143,185.6492,66.5724,185.6492,65.9202z"/>
			<path class="st1" d="M197.3319,68.1529c-0.0101-0.0084-0.0226-0.0118-0.0354-0.0091c-0.0644,0.0108-0.1238,0.0202-0.1797,0.025
				c-0.0573,0.0057-0.1069,0.0084-0.1504,0.0084c-0.1376,0.0007-0.2141-0.0327-0.2428-0.0786
				c-0.0381-0.0553-0.0594-0.1322-0.0594-0.2334v-3.5391c0.0017-0.5928-0.231-1.0403-0.6896-1.3212
				c-0.4603-0.2819-1.0545-0.4205-1.7815-0.4205c-0.6306,0-1.1847,0.1504-1.6645,0.4525c-0.4859,0.3069-0.7372,0.8532-0.7561,1.6207
				c0,0.0108,0.0041,0.0216,0.0132,0.031c0.0074,0.0084,0.0182,0.0125,0.0297,0.0125h0.9638c0.0213,0,0.0401-0.0159,0.0422-0.0378
				c0.0378-0.3143,0.118-0.5476,0.2381-0.6991c0.2138-0.2785,0.5797-0.4215,1.1111-0.4222c0.4613,0,0.8107,0.0796,1.0494,0.2323
				c0.2374,0.1521,0.3544,0.3888,0.3558,0.7324c0,0.1696-0.0239,0.2961-0.0644,0.378c-0.0745,0.1538-0.2145,0.2441-0.4428,0.2752
				l0,0l-1.6463,0.2057c-0.5841,0.0735-1.0602,0.2701-1.4231,0.5895c-0.3652,0.321-0.5487,0.7776-0.5476,1.3556
				c-0.001,0.5294,0.1861,0.9752,0.5554,1.328c0.3689,0.3531,0.8464,0.5301,1.4231,0.5301c0.002,0,0.003,0,0.003,0
				c0.4805,0,0.922-0.1029,1.3222-0.3086c0.3622-0.1865,0.6495-0.403,0.8592-0.6532c0.0361,0.2033,0.091,0.3662,0.1689,0.4883
				c0.1679,0.2661,0.4451,0.3996,0.8103,0.3989c0.1467,0,0.2634-0.0057,0.3504-0.0175c0.0884-0.0125,0.2118-0.0411,0.3726-0.087
				c0.0179-0.0051,0.031-0.0226,0.031-0.0411v-0.7635C197.3464,68.1728,197.3417,68.1613,197.3319,68.1529z M195.5463,65.8723
				v0.7561c-0.002,0.6205-0.2752,1.0555-0.836,1.3297c-0.3359,0.1656-0.6808,0.2475-1.0373,0.2475
				c-0.2897,0-0.5368-0.0819-0.7476-0.2475c-0.2081-0.1649-0.3099-0.3831-0.3112-0.6707c0.0024-0.3814,0.1514-0.6471,0.4573-0.8211
				c0.1797-0.1029,0.4569-0.1808,0.8289-0.2293l0.6235-0.0803c0.1922-0.0233,0.3892-0.0617,0.5895-0.1163
				C195.283,65.9944,195.4273,65.9384,195.5463,65.8723z"/>
		</g>
		<g>
			<path class="st1" d="M11.5458,41.3425c-1.5563-1.3772-3.8548-2.0297-5.7503-2.8583c-1.9029-0.8346-3.3594-1.8065-3.3597-3.7981
				c0.0071-2.427,1.8055-4.0237,5.2522-4.0355c1.3371,0,2.8141,0.235,4.0854,0.6363c0.0351,0.0108,0.0732,0.0054,0.1039-0.0152
				c0.03-0.0209,0.0492-0.0543,0.0519-0.0911l0.1349-2.027c0.004-0.061-0.0381-0.1153-0.0981-0.1258
				c-1.3216-0.2374-2.6472-0.4077-4.1094-0.4077c-2.4536,0-4.4166,0.665-5.7692,1.7883C0.7348,31.5321-0.0007,33.1164,0,34.9222
				c-0.0017,1.8045,0.695,3.0505,1.7299,3.963c1.5512,1.3681,3.8426,2.0173,5.7317,2.8583
				c1.8955,0.8471,3.3479,1.8432,3.3493,3.8878c-0.002,1.6241-0.638,2.7163-1.6504,3.4238
				c-1.0137,0.7068-2.4175,1.0177-3.9394,1.0177c-1.5694,0-3.2828-0.3689-4.6226-0.838c-0.0354-0.0125-0.0745-0.0074-0.1059,0.0125
				c-0.0314,0.0209-0.0509,0.0553-0.0536,0.0927L0.3042,51.502c-0.0034,0.056,0.032,0.1062,0.0857,0.1221
				c1.2653,0.3763,2.896,0.5797,4.6283,0.5804v-0.0007c2.5386,0.0007,4.6034-0.6984,6.0362-1.911
				c1.4335-1.2133,2.2267-2.9412,2.2257-4.9649C13.2824,43.5153,12.5837,42.2608,11.5458,41.3425z"/>
			<path class="st1" d="M23.7659,34.6335c-2.3137-0.0013-4.1701,0.9473-5.436,2.5281c-1.2669,1.5806-1.9478,3.7866-1.9481,6.308
				c0,2.9729,0.6711,5.1591,1.9913,6.6051c1.3195,1.445,3.2754,2.1292,5.7924,2.1292c0.0017,0,0.0037,0,0.0054,0
				c2.1086,0,3.9485-0.374,5.4835-0.9884c0.0502-0.0192,0.0803-0.0701,0.0745-0.1238l-0.2023-1.8918
				c-0.004-0.0395-0.0273-0.0735-0.0614-0.0921c-0.0347-0.0192-0.0762-0.0202-0.1113-0.0024
				c-1.1948,0.5989-3.0761,1.0697-4.8115,1.0686c-1.8517-0.0007-3.2565-0.5001-4.2082-1.5913
				c-0.9526-1.0912-1.4629-2.7982-1.4629-5.2434c0-0.1932,0.0034-0.3915,0.0098-0.5945h11.2699
				c0.0594,0,0.1099-0.0435,0.1184-0.1029c0.0691-0.4816,0.0691-0.895,0.0691-1.1314c-0.0003-1.8281-0.4778-3.5459-1.5441-4.8111
				C27.7279,35.4328,26.0729,34.6322,23.7659,34.6335z M23.6307,36.4947c2.6232,0.0084,4.1977,1.7502,4.2065,4.3168
				c0,0.0125,0,0.026,0,0.0384h-8.7927C19.55,38.1656,21.2365,36.4987,23.6307,36.4947z"/>
			<path class="st1" d="M48.8423,34.904h-5.699c-0.8748-0.1686-1.5593-0.2705-2.4432-0.2705c-2.2725,0-4.1121,0.7446-5.382,1.9414
				c-1.2703,1.1968-1.968,2.8434-1.9673,4.6314c-0.003,2.1434,0.7689,3.8703,2.3734,4.92
				c-1.0943,0.5719-1.6999,1.5495-1.6976,2.6475c-0.002,1.0589,0.5945,1.9066,1.5526,2.4354
				c-1.5596,0.8788-2.837,2.4327-2.8367,4.5585c-0.002,1.6224,0.7068,2.9011,1.9481,3.755
				c1.2406,0.8555,3.0036,1.2963,5.1311,1.2969c2.5376-0.001,4.74-0.6549,6.3148-1.762c1.5748-1.1054,2.5221-2.6718,2.5214-4.4726
				c0.0014-1.4625-0.5112-2.6701-1.4952-3.4997c-0.9827-0.8306-2.4233-1.2828-4.2662-1.2828h-3.4461
				c-1.0383,0.001-1.8018-0.1187-2.2874-0.3554c-0.4849-0.2401-0.6967-0.5621-0.7011-1.0444
				c0.002-0.5797,0.3514-1.1324,1.2069-1.4962c0.6545,0.1673,1.617,0.2978,2.4573,0.2984c2.4546,0,4.3124-0.7092,5.5547-1.8783
				c1.243-1.1691,1.8628-2.7932,1.8625-4.5929c0-1.6426-0.5807-3.035-1.5424-3.9013h2.8418c0.0317,0,0.0617-0.0118,0.085-0.0351
				c0.0223-0.0216,0.0351-0.0526,0.0351-0.0846V35.024c0-0.0317-0.0128-0.0627-0.0351-0.085
				C48.9047,34.9171,48.8737,34.904,48.8423,34.904z M40.5653,36.5287c1.4649,0.001,2.6037,0.4148,3.3793,1.1691
				c0.7743,0.755,1.1958,1.8591,1.1968,3.2714c-0.0007,1.4109-0.4617,2.4863-1.2737,3.2181
				c-0.8124,0.7311-1.9886,1.1223-3.4376,1.1223c-1.5006,0-2.6677-0.3838-3.4582-1.1088c-0.7898-0.726-1.2187-1.8014-1.2197-3.2316
				C35.7605,38.3939,37.5087,36.5372,40.5653,36.5287z M35.111,55.3955c-0.0014-1.4173,0.9951-2.661,2.5106-3.4612h4.7005
				c1.3354,0,2.3228,0.2769,2.9675,0.7736c0.6441,0.4967,0.9651,1.2116,0.9668,2.1474c-0.0017,1.16-0.549,2.1292-1.5816,2.8266
				c-1.0322,0.6957-2.5551,1.1081-4.4813,1.1071c-1.4534,0.0007-2.7338-0.2934-3.6396-0.864
				C35.6482,57.3524,35.1127,56.5208,35.111,55.3955z"/>
			<path class="st1" d="M65.845,34.904h-2.1282c-0.0317,0-0.0627,0.0125-0.085,0.0351c-0.0223,0.0223-0.0351,0.0529-0.0351,0.0846
				v8.0407c0.0003,2.0908-0.5524,3.8986-1.4885,5.1784c-0.9375,1.2794-2.2496,2.0321-3.7968,2.0331
				c-1.3125-0.0027-2.112-0.3996-2.6081-1.1256c-0.4971-0.7284-0.6852-1.8213-0.6846-3.2137V35.024
				c0-0.0314-0.0128-0.0624-0.0351-0.0846c-0.0223-0.0226-0.0533-0.0351-0.0846-0.0351h-2.1289
				c-0.0317,0-0.0624,0.0125-0.085,0.0351c-0.0223,0.0223-0.0347,0.0529-0.0347,0.0846v11.6894
				c0,1.5178,0.2968,2.8967,1.1031,3.9053c0.8063,1.0086,2.1188,1.6217,4.0841,1.62c0.003,0,0.0057,0,0.0088,0
				c2.7605,0,4.8489-1.4207,5.9162-3.6612c-0.1339,1.0187-0.2,2.3022-0.2,3.2373c0,0.0317,0.0125,0.0627,0.0347,0.0846
				c0.0226,0.0226,0.0533,0.0351,0.085,0.0351h2.1623c0.0314,0,0.0624-0.0125,0.085-0.0351
				c0.0223-0.0216,0.0351-0.0526,0.0351-0.0846V35.0244c0-0.0314-0.0128-0.0624-0.0351-0.0846
				C65.9074,34.9168,65.8763,34.904,65.845,34.904z"/>
			<path class="st1" d="M79.3786,34.6349c-0.2782-0.0334-0.546-0.0492-0.8036-0.0492c-2.7102-0.0003-4.2662,1.7677-5.0465,3.7195
				c0.1693-1.1793,0.2462-2.3828,0.2462-3.2815c0-0.0314-0.0128-0.0624-0.0351-0.0846c-0.0223-0.0226-0.0529-0.0351-0.085-0.0351
				h-2.1619c-0.0314,0-0.0624,0.0125-0.085,0.0351c-0.0223,0.0223-0.0347,0.0529-0.0347,0.0846v16.7905
				c0,0.0317,0.0125,0.062,0.0347,0.0846c0.0229,0.0226,0.0529,0.0351,0.085,0.0351h2.1282c0.0317,0,0.0624-0.0125,0.0846-0.0351
				c0.0229-0.0226,0.0354-0.0526,0.0354-0.0846v-6.6894c-0.001-2.6671,0.3834-4.7467,1.1506-6.1452
				c0.7702-1.3964,1.8989-2.1184,3.4572-2.1218c0.2839,0,0.582,0.0243,0.8953,0.0745c0.0334,0.0051,0.0678-0.004,0.0941-0.025
				c0.0266-0.0219,0.0425-0.0536,0.0442-0.087l0.1012-2.0611C79.4869,34.6966,79.4407,34.642,79.3786,34.6349z"/>
			<path class="st1" d="M88.3699,34.6339c-2.5494-0.0017-4.5562,1.0211-5.9155,2.6398c-1.3597,1.6173-2.0759,3.8244-2.0759,6.1961
				c0,2.9571,0.7139,5.1433,2.0068,6.5916c1.2929,1.4484,3.1574,2.1444,5.4104,2.1427v0.0007c0.0014,0,0.0024,0,0.0037,0
				c2.4971,0,4.511-1.0235,5.8902-2.6661c1.3806-1.6426,2.1309-3.8996,2.1309-6.3735c0.001-3.1453-0.8596-5.2853-2.2311-6.6351
				C92.2176,35.1809,90.3498,34.6332,88.3699,34.6339z M93.3851,43.2667c-0.0101,4.8924-2.5163,6.9336-5.2185,6.9413
				c-1.7107-0.0017-3.0262-0.6255-3.9293-1.7947c-0.9027-1.1702-1.3904-2.8994-1.39-5.1123
				c0.0088-4.6513,2.5818-6.6979,5.2856-6.7046c1.7455,0.0017,3.0431,0.6255,3.9212,1.7647
				C92.9319,39.501,93.3851,41.1719,93.3851,43.2667z"/>
			<path class="st1" d="M107.6428,43.7628c-1.2342-0.9918-3.0427-1.3128-4.5275-1.7997c-0.7426-0.2418-1.4015-0.5244-1.8665-0.9324
				c-0.4633-0.4097-0.7426-0.9351-0.7442-1.7161c0.0017-0.8481,0.3204-1.5212,0.9526-1.9987
				c0.634-0.4775,1.5957-0.7534,2.8802-0.7527c1.1661-0.001,2.4064,0.2334,3.5125,0.5686c0.0351,0.0108,0.0735,0.004,0.1039-0.0169
				c0.03-0.0209,0.0486-0.0553,0.0506-0.0921l0.1015-1.8915c0.0024-0.0587-0.0368-0.1109-0.0944-0.1234
				c-1.0902-0.2384-2.3123-0.3743-3.3702-0.3743c-2.0965,0-3.729,0.5197-4.8411,1.3978c-1.1135,0.8774-1.6986,2.1177-1.6972,3.5192
				c-0.002,1.5387,0.5473,2.5497,1.3681,3.2323c1.2298,1.0238,3.0326,1.3388,4.512,1.8099c0.7402,0.234,1.3964,0.5058,1.8588,0.9041
				c0.4613,0.3996,0.7385,0.9142,0.7405,1.6885c-0.0017,0.924-0.4306,1.6483-1.1843,2.1602
				c-0.7544,0.5102-1.8382,0.7952-3.121,0.7945c-1.3034,0-2.6806-0.234-3.7516-0.5362c-0.0361-0.0101-0.0735-0.0024-0.1029,0.0192
				c-0.03,0.0216-0.0482,0.0553-0.0492,0.0921l-0.0678,2.027c-0.0017,0.057,0.0368,0.1079,0.0927,0.1214
				c1.0275,0.2391,2.3177,0.3403,3.6076,0.3413c2.1835-0.0007,3.934-0.5888,5.1423-1.5512
				c1.2086-0.9611,1.8709-2.2998,1.8699-3.7718C109.0203,45.4,108.4666,44.4241,107.6428,43.7628z"/>
		</g>
	</g>
	<g>
		<g>
			
				<radialGradient id="SVGID_1_" cx="504.9263" cy="-615.6939" r="9.2095" gradientTransform="matrix(1 0 0 -1 -325 -611.5882)" gradientUnits="userSpaceOnUse">
				<stop  offset="0" style="stop-color:#D99183"/>
				<stop  offset="0.7418" style="stop-color:#C64045"/>
			</radialGradient>
			<path class="st2" d="M177.2117,12.5318c1.2356-0.3403,2.5416-1.0906,3.963-2.2155c0.3875-0.3065,0.7908-0.5868,1.2056-0.8461
				l3.0674-3.8666l1.4025,1.739c0.871-0.3123,1.6982-0.5345,2.488-0.6384c2.1066-0.2772,4.0466,0.4984,5.8019,2.1845
				c-1.3047-5.38-4.7498-8.3499-10.3169-8.097c-3.4147,0.1544-6.1661,2.1896-8.2292,5.3554
				c-0.8522,1.3074-1.5094,2.9581-1.445,4.9035C175.1924,12.3777,176.0867,12.8414,177.2117,12.5318z"/>
			<g>
				<g>
					<path class="st0" d="M194.6102,18.6952c-1.2035,0.9277-2.8185,1.8001-3.9991,2.3997l-0.1211,0.0607l-5.0923-6.4537
						l-4.9861,6.424l-0.1174-0.055c-0.0081-0.0074-2.5403-1.1664-4.0112-2.5231l-2.427,3.0579
						c1.8018,2.0156,4.485,3.8834,8.3637,4.7794l3.2464-4.1475l3.2842,4.1498c3.3102-0.667,6.4989-2.6981,8.2801-4.6459
						L194.6102,18.6952z"/>
				</g>
				<g>
					<path class="st3" d="M185.3977,14.7018l-5.0745,6.3829l-2.7814,3.4946c1.9758,1.1196,3.125,1.4251,4.6874,1.8065l3.2373-4.1475
						l3.2926,4.1502c1.7964-0.3564,3.6012-1.1661,4.5387-1.7185l-2.7922-3.5209l-0.0145,0.0067L185.3977,14.7018z"/>
				</g>
				
					<radialGradient id="SVGID_2_" cx="506.0222" cy="-614.2888" r="13.4423" gradientTransform="matrix(1 0 0 -1 -325 -611.5882)" gradientUnits="userSpaceOnUse">
					<stop  offset="0" style="stop-color:#D99183"/>
					<stop  offset="0.5" style="stop-color:#C31F39"/>
					<stop  offset="1" style="stop-color:#C31F39"/>
				</radialGradient>
				<path class="st4" d="M185.4479,5.6033l9.3946,11.651c1.1439-1.7519,1.8099-3.8447,1.8099-6.0932
					c0-6.1644-4.9973-11.161-11.162-11.161c-6.1644,0-11.1603,4.9969-11.1603,11.161c0,2.2675,0.6765,4.3768,1.8378,6.1374
					L185.4479,5.6033z"/>
				<g>
					<path class="st3" d="M185.3977,14.7109l-5.0745,6.3738c1.5199,0.7753,3.3196,1.1536,5.1433,1.1536
						c1.7947,0,3.5358-0.3369,5.0388-1.0892L185.3977,14.7109z"/>
				</g>
				<g>
					<path class="st3" d="M185.3977,14.7109l-5.0745,6.3738c1.5199,0.7753,3.3196,1.1536,5.1433,1.1536
						c1.7947,0,3.5358-0.3369,5.0388-1.0892L185.3977,14.7109z"/>
				</g>
			</g>
		</g>
		
			<radialGradient id="SVGID_3_" cx="504.9388" cy="-615.6965" r="9.1882" gradientTransform="matrix(1 0 0 -1 -325 -611.5882)" gradientUnits="userSpaceOnUse">
			<stop  offset="0" style="stop-color:#D99183"/>
			<stop  offset="0.7418" style="stop-color:#C64045"/>
		</radialGradient>
		<path class="st5" d="M177.2305,12.5153c1.2325-0.3396,2.5356-1.0882,3.9539-2.2105c0.3871-0.3055,0.7894-0.5851,1.2025-0.8441
			l3.061-3.8575l1.3991,1.735c0.8687-0.3113,1.6942-0.5331,2.4823-0.6367c2.1015-0.2765,4.0369,0.4971,5.788,2.1795
			c-1.3013-5.3675-4.7379-8.3307-10.2926-8.0785c-3.4066,0.1544-6.1516,2.1849-8.2096,5.3433
			c-0.8501,1.3044-1.506,2.9514-1.4416,4.8924C175.2163,12.3615,176.1083,12.8238,177.2305,12.5153z"/>
	</g>
	<g>
		<path class="st1" d="M196.6895,46.7418c0.5561,0,1.099,0.143,1.6291,0.4283c0.5294,0.2856,0.9422,0.6937,1.2376,1.2251
			C199.852,48.9263,200,49.4803,200,50.057c0,0.5709-0.1457,1.1199-0.437,1.6466c-0.291,0.5267-0.6997,0.9358-1.2248,1.2268
			c-0.5257,0.2914-1.0751,0.437-1.6487,0.437s-1.1233-0.1453-1.6487-0.437c-0.5254-0.291-0.9344-0.7001-1.2271-1.2268
			c-0.2927-0.5267-0.4391-1.0757-0.4391-1.6466c0-0.5766,0.1487-1.1307,0.4458-1.6618c0.2974-0.5315,0.7105-0.9395,1.2403-1.2251
			C195.5902,46.8848,196.1334,46.7418,196.6895,46.7418z M196.6895,47.2908c-0.4654,0-0.9182,0.119-1.359,0.3578
			c-0.4404,0.2384-0.7854,0.5797-1.0336,1.0228c-0.2492,0.4438-0.3733,0.9054-0.3733,1.3853c0,0.4772,0.1221,0.9344,0.3666,1.3718
			c0.2441,0.4377,0.5864,0.7786,1.0255,1.0231c0.4391,0.2441,0.897,0.3662,1.3738,0.3662c0.4772,0,0.9351-0.1221,1.3742-0.3662
			c0.4391-0.2445,0.7803-0.5854,1.0231-1.0231c0.2428-0.4374,0.3642-0.895,0.3642-1.3718c0-0.4799-0.1234-0.9419-0.3709-1.3853
			c-0.2472-0.4431-0.5921-0.7844-1.0343-1.0228C197.604,47.4101,197.1518,47.2908,196.6895,47.2908z M195.2361,51.8874v-3.5651
			h1.2251c0.4185,0,0.7213,0.033,0.9091,0.0991c0.1868,0.0658,0.3362,0.1808,0.4475,0.3446
			c0.1113,0.1639,0.1673,0.3382,0.1673,0.5224c0,0.261-0.0931,0.4876-0.2789,0.6808c-0.1861,0.1932-0.4327,0.3015-0.7399,0.3247
			c0.1255,0.0526,0.2266,0.1157,0.3028,0.1885c0.1433,0.1406,0.319,0.3763,0.5267,0.7071l0.435,0.6977h-0.7024l-0.316-0.5621
			c-0.2492-0.4414-0.4495-0.7183-0.6016-0.8296c-0.1052-0.0819-0.259-0.1231-0.4613-0.1231h-0.3379v1.5145h-0.5756
			C195.2361,51.8871,195.2361,51.8874,195.2361,51.8874z M195.8114,49.8813h0.6984c0.3338,0,0.5611-0.0499,0.6825-0.1494
			c0.1217-0.0995,0.1824-0.2313,0.1824-0.3952c0-0.1052-0.0293-0.2-0.0877-0.2829c-0.0587-0.0836-0.1396-0.1457-0.2438-0.1868
			c-0.1035-0.0405-0.2964-0.061-0.5773-0.061h-0.6539v1.0754C195.8121,49.8813,195.8114,49.8813,195.8114,49.8813z"/>
	</g>
</g>
</svg>
