<?xml version="1.0" encoding="utf-8"?>
<!-- Generator: Adobe Illustrator 25.2.3, SVG Export Plug-In . SVG Version: 6.00 Build 0)  -->
<svg version="1.1" id="Layer_1" xmlns="http://www.w3.org/2000/svg" xmlns:xlink="http://www.w3.org/1999/xlink" x="0px" y="0px"
	 viewBox="0 0 231 100" style="enable-background:new 0 0 231 100;" xml:space="preserve">
<style type="text/css">
	.st0{fill:#0096AE;}
	.st1{fill:#951B81;}
	.st2{fill:#006E7E;}
	.st3{fill:#FFFFFF;}
	.st4{clip-path:url(#SVGID_2_);fill:#E7E6E6;}
	.st5{clip-path:url(#SVGID_2_);fill:#E8E7E7;}
	.st6{clip-path:url(#SVGID_2_);fill:#E9E8E8;}
	.st7{clip-path:url(#SVGID_2_);fill:#E9E9E9;}
	.st8{clip-path:url(#SVGID_2_);fill:#EAEAEA;}
	.st9{clip-path:url(#SVGID_2_);fill:#EBEBEB;}
	.st10{clip-path:url(#SVGID_2_);fill:#ECEBEC;}
	.st11{clip-path:url(#SVGID_2_);fill:#EDECED;}
	.st12{clip-path:url(#SVGID_2_);fill:#EEEDEE;}
	.st13{clip-path:url(#SVGID_2_);fill:#EFEEEF;}
	.st14{clip-path:url(#SVGID_2_);fill:#EFEFEF;}
	.st15{clip-path:url(#SVGID_2_);fill:#F0F0F0;}
	.st16{clip-path:url(#SVGID_2_);fill:#F1F1F1;}
	.st17{clip-path:url(#SVGID_2_);fill:#F2F2F2;}
	.st18{clip-path:url(#SVGID_2_);fill:#F3F3F3;}
	.st19{clip-path:url(#SVGID_2_);fill:#F4F4F4;}
	.st20{clip-path:url(#SVGID_2_);fill:#F5F5F5;}
	.st21{clip-path:url(#SVGID_2_);fill:#F6F6F6;}
	.st22{clip-path:url(#SVGID_2_);fill:#F7F7F7;}
	.st23{clip-path:url(#SVGID_2_);fill:#F8F8F8;}
	.st24{clip-path:url(#SVGID_2_);fill:#F9F9F9;}
	.st25{clip-path:url(#SVGID_2_);fill:#FAFAFA;}
	.st26{clip-path:url(#SVGID_2_);fill:#FBFAFB;}
	.st27{clip-path:url(#SVGID_2_);fill:#FCFBFC;}
	.st28{clip-path:url(#SVGID_2_);fill:#FCFCFC;}
	.st29{clip-path:url(#SVGID_2_);fill:#FDFDFD;}
	.st30{clip-path:url(#SVGID_2_);fill:#FEFEFE;}
	.st31{clip-path:url(#SVGID_2_);fill:#FFFFFF;}
	.st32{clip-path:url(#SVGID_2_);fill:#FBFBFB;}
	.st33{clip-path:url(#SVGID_2_);fill:#F8F7F8;}
	.st34{clip-path:url(#SVGID_2_);fill:#F7F6F7;}
	.st35{clip-path:url(#SVGID_2_);fill:#F6F5F6;}
	.st36{clip-path:url(#SVGID_2_);fill:#F1F0F0;}
	.st37{clip-path:url(#SVGID_2_);fill:#F0EFF0;}
	.st38{clip-path:url(#SVGID_2_);fill:#EDEDED;}
	.st39{clip-path:url(#SVGID_2_);fill:#ECECEC;}
</style>
<g>
	<g>
		<g>
			<g>
				<path class="st0" d="M59.4,50.5v-1.8L86.3,0.2H33c-3.5,0-6.8,1.9-8.6,4.9l-23,39.9c-1.8,3.1-1.8,6.8,0,9.9l23,39.9
					c1.8,3.1,5,4.9,8.6,4.9h53.7L59.4,50.5z"/>
			</g>
			<g>
				<path class="st1" d="M63,49.6l27.8,50.2H198c3.5,0,6.8-1.9,8.6-4.9l23-39.9c1.8-3.1,1.8-6.8,0-9.9l-23-39.9
					c-1.8-3.1-5-4.9-8.6-4.9H90.4L63,49.6z"/>
			</g>
		</g>
	</g>
	<g>
		<path class="st2" d="M37.4,90.2l154.1,0c2.6,0,5-1.4,6.3-3.6l19-33c1.3-2.3,1.3-5,0-7.3l-19-33c-1.3-2.3-3.7-3.6-6.3-3.6l-154.1,0
			c-2.6,0-5,1.4-6.3,3.6l-19,33c-1.3,2.3-1.3,5,0,7.3l19,33C32.4,88.8,34.8,90.2,37.4,90.2z"/>
	</g>
	<g>
		<path class="st3" d="M39.2,90.3l154,0c2.6,0,5-1.4,6.3-3.7l18.8-33.1c1.3-2.2,1.3-4.9,0-7.1l-18.8-33.1c-1.3-2.3-3.7-3.7-6.3-3.7
			l-154,0c-2.6,0-5,1.4-6.3,3.7L14.1,46.4c-1.3,2.2-1.3,4.9,0,7.1l18.8,33.1C34.2,88.9,36.6,90.3,39.2,90.3z"/>
	</g>
	<g>
		<g>
			<defs>
				<path id="SVGID_1_" d="M40.6,88l151.5,0c2.5,0,4.7-1.3,5.9-3.5l17.7-31.2c1.2-2.1,1.2-4.6,0-6.7l-17.7-31.2
					c-1.2-2.1-3.5-3.5-5.9-3.5L40.6,12c-2.5,0-4.7,1.3-5.9,3.5L17,46.6c-1.2,2.1-1.2,4.6,0,6.7l17.7,31.2C35.9,86.7,38.2,88,40.6,88
					z"/>
			</defs>
			<clipPath id="SVGID_2_">
				<use xlink:href="#SVGID_1_"  style="overflow:visible;"/>
			</clipPath>
			<polygon class="st4" points="21.8,12 15.9,16.9 15.9,12 			"/>
			<polygon class="st5" points="32.7,12 15.9,25.9 15.9,16.9 21.8,12 			"/>
			<polygon class="st6" points="43.5,12 15.9,35 15.9,25.9 32.7,12 			"/>
			<polygon class="st7" points="54.4,12 15.9,44 15.9,35 43.5,12 			"/>
			<polygon class="st8" points="65.3,12 15.9,53.1 15.9,44 54.4,12 			"/>
			<polygon class="st9" points="76.2,12 15.9,62.1 15.9,53.1 65.3,12 			"/>
			<polygon class="st10" points="87.1,12 18.9,68.7 15.9,65.1 15.9,62.1 76.2,12 			"/>
			<polygon class="st11" points="98,12 23.3,74 18.9,68.7 87.1,12 			"/>
			<polygon class="st12" points="108.8,12 27.8,79.4 23.3,74 98,12 			"/>
			<polygon class="st13" points="119.7,12 32.2,84.7 27.8,79.4 108.8,12 			"/>
			<polygon class="st14" points="130.6,12 39.2,88 35,88 32.2,84.7 119.7,12 			"/>
			<polygon class="st14" points="135,12 43.5,88 39.2,88 130.6,12 			"/>
			<polygon class="st15" points="139.4,12 47.9,88 43.5,88 135,12 			"/>
			<polygon class="st16" points="143.7,12 52.3,88 47.9,88 139.4,12 			"/>
			<polygon class="st17" points="148.1,12 56.6,88 52.3,88 143.7,12 			"/>
			<polygon class="st18" points="152.5,12 61,88 56.6,88 148.1,12 			"/>
			<polygon class="st19" points="156.8,12 65.4,88 61,88 152.5,12 			"/>
			<polygon class="st20" points="161.2,12 69.8,88 65.4,88 156.8,12 			"/>
			<polygon class="st21" points="165.6,12 74.1,88 69.8,88 161.2,12 			"/>
			<polygon class="st22" points="170,12 78.5,88 74.1,88 165.6,12 			"/>
			<polygon class="st23" points="174.3,12 82.9,88 78.5,88 170,12 			"/>
			<polygon class="st24" points="178.7,12 87.2,88 82.9,88 174.3,12 			"/>
			<polygon class="st25" points="183.1,12 91.6,88 87.2,88 178.7,12 			"/>
			<polygon class="st26" points="187.5,12 96,88 91.6,88 183.1,12 			"/>
			<polygon class="st27" points="191.8,12 100.4,88 96,88 187.5,12 			"/>
			<polygon class="st28" points="196.2,12 104.7,88 100.4,88 191.8,12 			"/>
			<polygon class="st29" points="197.8,12 199,13.3 109.1,88 104.7,88 196.2,12 			"/>
			<polygon class="st30" points="199,13.3 200.7,15.5 113.5,88 109.1,88 			"/>
			<polygon class="st31" points="200.7,15.5 202.5,17.6 117.9,88 113.5,88 			"/>
			<polygon class="st31" points="202.5,17.6 204,19.4 121.5,88 117.9,88 			"/>
			<polygon class="st30" points="204,19.4 205.5,21.2 125.1,88 121.5,88 			"/>
			<polygon class="st29" points="205.5,21.2 207,23 128.8,88 125.1,88 			"/>
			<polygon class="st29" points="207,23 208.5,24.8 132.4,88 128.8,88 			"/>
			<polygon class="st28" points="208.5,24.8 210,26.6 136.1,88 132.4,88 			"/>
			<polygon class="st32" points="210,26.6 211.5,28.4 139.7,88 136.1,88 			"/>
			<polygon class="st25" points="211.5,28.4 213,30.2 143.4,88 139.7,88 			"/>
			<polygon class="st24" points="213,30.2 214.5,31.9 147,88 143.4,88 			"/>
			<polygon class="st23" points="214.5,31.9 215.9,33.7 150.7,88 147,88 			"/>
			<polygon class="st33" points="215.9,33.7 216.9,34.9 216.9,35.9 154.3,88 150.7,88 			"/>
			<polygon class="st34" points="216.9,39 157.9,88 154.3,88 216.9,35.9 			"/>
			<polygon class="st35" points="216.9,42 161.6,88 157.9,88 216.9,39 			"/>
			<polygon class="st20" points="216.9,45 165.2,88 161.6,88 216.9,42 			"/>
			<polygon class="st19" points="216.9,48.1 168.9,88 165.2,88 216.9,45 			"/>
			<polygon class="st18" points="216.9,51.1 172.5,88 168.9,88 216.9,48.1 			"/>
			<polygon class="st17" points="216.9,54.1 176.2,88 172.5,88 216.9,51.1 			"/>
			<polygon class="st16" points="216.9,57.1 179.8,88 176.2,88 216.9,54.1 			"/>
			<polygon class="st36" points="216.9,60.2 183.5,88 179.8,88 216.9,57.1 			"/>
			<polygon class="st37" points="216.9,63.2 187.1,88 183.5,88 216.9,60.2 			"/>
			<polygon class="st13" points="216.9,66.2 190.7,88 187.1,88 216.9,63.2 			"/>
			<polygon class="st12" points="216.9,69.3 194.4,88 190.7,88 216.9,66.2 			"/>
			<polygon class="st38" points="216.9,72.3 198,88 194.4,88 216.9,69.3 			"/>
			<polygon class="st39" points="216.9,75.3 201.7,88 198,88 216.9,72.3 			"/>
			<polygon class="st9" points="216.9,78.4 205.3,88 201.7,88 216.9,75.3 			"/>
			<polygon class="st8" points="216.9,81.4 209,88 205.3,88 216.9,78.4 			"/>
			<polygon class="st7" points="216.9,84.4 212.6,88 209,88 216.9,81.4 			"/>
			<polygon class="st6" points="216.9,87.4 216.3,88 212.6,88 216.9,84.4 			"/>
			<polygon class="st5" points="216.3,88 216.9,87.4 216.9,88 			"/>
		</g>
	</g>
	<g>
		<g>
			<path class="st1" d="M53.9,24l5.4,34.8h-4.5l-0.9-6.4h-5.2l-0.8,6.4h-4.4L48.3,24H53.9z M50.9,30.6c-0.1,4.5-0.1,5-0.2,5.6
				l-1.5,12h4.1l-1.7-12.1c-0.2-1.3-0.2-2.7-0.3-5.5H50.9z"/>
		</g>
		<g>
			<path class="st1" d="M62.1,33.5c0-3,0-5,1.3-7c1.6-2.6,4.2-2.9,5.7-2.9c6.2,0,6.2,5.1,6.2,7.6v3.6h-4.2V31c0-2-0.1-3.5-2.1-3.5
				c-2.3,0-2.3,2.1-2.3,3.8v20c0,2.3,0,4.2,2.3,4.2c2.3,0,2.3-2.1,2.3-3.1v-7.9h-2.8v-4.2h7.3v18.5H73l-0.4-1.6
				C72,58,71,59.4,68.4,59.4c-6.3,0-6.3-6.2-6.3-8.7V33.5z"/>
		</g>
		<g>
			<path class="st1" d="M81.3,24h11.5v4.4H86v10.1h6.1v4.3H86v11.6h6.8v4.4H81.3V24z"/>
		</g>
		<g>
			<path class="st1" d="M102.3,24l5.2,22.3c0.3,1.3,0.5,2.3,0.7,3.4h0.3c-0.2-1.6-0.4-3.3-0.5-4.9l-0.2-3.3L107.6,24h4.3v34.8h-5.1
				l-5.7-26.1h-0.3l0.2,3l0.2,3l0.4,20.1h-4.3V24H102.3z"/>
		</g>
		<g>
			<path class="st1" d="M113.9,24h15.4v4.1h-5.4v30.7h-4.7V28.1h-5.3V24z"/>
		</g>
		<g>
			<path class="st1" d="M131.5,24H143v4.4h-6.8v10.1h6.1v4.3h-6.1v11.6h6.8v4.4h-11.5V24z"/>
		</g>
	</g>
	<g>
		<path class="st0" d="M145.3,79.1H40.8c-1.8,0-3.3-1.5-3.3-3.3V64.6h111.1v11.2C148.6,77.6,147.1,79.1,145.3,79.1z"/>
	</g>
	<g>
		<g>
			<path class="st3" d="M44.6,68.2h1.6l3.5,8.1h-1.9l-0.7-1.8h-3.4L43,76.3h-1.8L44.6,68.2z M46.5,73l-1.1-2.6L44.3,73H46.5z"/>
		</g>
		<g>
			<path class="st3" d="M50,72.9v-4.6h1.8v4.6c0,1.3,0.7,2,1.7,2c1.1,0,1.7-0.7,1.7-1.9v-4.6H57v4.5c0,2.4-1.4,3.6-3.5,3.6
				S50,75.2,50,72.9z"/>
		</g>
		<g>
			<path class="st3" d="M60.1,69.9h-2.5v-1.6h6.7v1.6h-2.5v6.4h-1.8V69.9z"/>
		</g>
		<g>
			<path class="st3" d="M64.4,72.3L64.4,72.3c0-2.3,1.8-4.2,4.3-4.2c2.5,0,4.3,1.9,4.3,4.1v0c0,2.3-1.8,4.2-4.3,4.2
				C66.2,76.5,64.4,74.6,64.4,72.3z M71.1,72.3L71.1,72.3c0-1.4-1-2.6-2.4-2.6c-1.4,0-2.4,1.1-2.4,2.5v0c0,1.4,1,2.5,2.4,2.5
				C70.1,74.8,71.1,73.7,71.1,72.3z"/>
		</g>
		<g>
			<path class="st3" d="M73.9,68.3h3.7c1,0,1.8,0.3,2.3,0.8c0.4,0.4,0.7,1.1,0.7,1.8v0c0,1.3-0.7,2.1-1.7,2.5l2,2.9h-2.1l-1.7-2.6
				h-1.4v2.6h-1.8V68.3z M77.5,72.2c0.9,0,1.4-0.5,1.4-1.1v0c0-0.8-0.5-1.2-1.4-1.2h-1.8v2.3H77.5z"/>
		</g>
		<g>
			<path class="st3" d="M81.8,68.3h1.8v8.1h-1.8V68.3z"/>
		</g>
		<g>
			<path class="st3" d="M84.7,75l4.4-5.2h-4.3v-1.6h6.6v1.3L87,74.8h4.4v1.6h-6.7V75z"/>
		</g>
		<g>
			<path class="st3" d="M95.3,68.2h1.6l3.5,8.1h-1.9l-0.7-1.8h-3.4l-0.7,1.8h-1.8L95.3,68.2z M97.2,73l-1.1-2.6L95,73H97.2z"/>
		</g>
		<g>
			<path class="st3" d="M101.1,68.3h3.1c2.5,0,4.3,1.7,4.3,4v0c0,2.3-1.7,4-4.3,4h-3.1V68.3z M104.2,74.7c1.4,0,2.4-1,2.4-2.4v0
				c0-1.4-1-2.4-2.4-2.4h-1.4v4.9H104.2z"/>
		</g>
		<g>
			<path class="st3" d="M109.1,72.3L109.1,72.3c0-2.3,1.8-4.2,4.3-4.2c2.5,0,4.3,1.9,4.3,4.1v0c0,2.3-1.8,4.2-4.3,4.2
				C110.9,76.5,109.1,74.6,109.1,72.3z M115.8,72.3L115.8,72.3c0-1.4-1-2.6-2.4-2.6c-1.4,0-2.4,1.1-2.4,2.5v0c0,1.4,1,2.5,2.4,2.5
				C114.8,74.8,115.8,73.7,115.8,72.3z"/>
		</g>
		<g>
			<path class="st3" d="M121.5,68.3h3.3c1.9,0,3.1,1.1,3.1,2.8v0c0,1.9-1.4,2.8-3.3,2.8h-1.3v2.4h-1.8V68.3z M124.7,72.3
				c0.9,0,1.4-0.5,1.4-1.2v0c0-0.8-0.6-1.2-1.4-1.2h-1.4v2.5H124.7z"/>
		</g>
		<g>
			<path class="st3" d="M128.3,72.3L128.3,72.3c0-2.3,1.8-4.2,4.3-4.2c2.5,0,4.3,1.9,4.3,4.1v0c0,2.3-1.8,4.2-4.3,4.2
				C130.1,76.5,128.3,74.6,128.3,72.3z M135,72.3L135,72.3c0-1.4-1-2.6-2.4-2.6s-2.4,1.1-2.4,2.5v0c0,1.4,1,2.5,2.4,2.5
				S135,73.7,135,72.3z"/>
		</g>
		<g>
			<path class="st3" d="M137.9,68.3h3.7c1,0,1.8,0.3,2.3,0.8c0.4,0.4,0.7,1.1,0.7,1.8v0c0,1.3-0.7,2.1-1.7,2.5l2,2.9h-2.1l-1.7-2.6
				h-1.4v2.6h-1.8V68.3z M141.4,72.2c0.9,0,1.4-0.5,1.4-1.1v0c0-0.8-0.5-1.2-1.4-1.2h-1.8v2.3H141.4z"/>
		</g>
	</g>
	<g>
		<g>
			<path class="st1" d="M33,49.9c0.1,0.3,0.1,0.7,0.1,1c0,2.7-2.2,5-5,5s-5-2.2-5-5c0-2.7,2.2-5,5-5c1.6,0,3,0.8,3.9,1.9l1.1-1
				c-1.2-1.5-3-2.4-5.1-2.4c-3.6,0-6.5,2.9-6.5,6.5c0,3.6,2.9,6.5,6.5,6.5c3.6,0,6.5-2.9,6.5-6.5c0-0.9-0.2-1.8-0.5-2.6L33,49.9z"/>
		</g>
		<g>
			<polygon class="st1" points="23.3,49.1 28,55.3 37.1,43.4 27.9,50.9 			"/>
		</g>
	</g>
	
		<image style="overflow:visible;" width="127" height="4" xlink:href="data:image/png;base64,iVBORw0KGgoAAAANSUhEUgAAAH8AAAAECAIAAAAoOndGAAAACXBIWXMAAAsSAAALEgHS3X78AAAA
GXRFWHRTb2Z0d2FyZQBBZG9iZSBJbWFnZVJlYWR5ccllPAAAAbJJREFUeNrUVNty4CAIFcVL2un/
/2ljUHEPah+6M7svO21nyQQRo+A5EJpz1vtuInetz/NAyXM/0H2MJlWaji6t994ekd6H6lAbZtcx
bAZ7zOlwzlR1zqmqmeR+RN5eXqGJnE6bIqU1Ij1LbRnbgaWlnW4v4QrrWc6JbbT3kPOwPwQe74Mj
CxE8Hg7Bs4ciz4ylyFxKjhC2N8WUUuScS8owS8GY4clYyIUtAMJ4Yg5jYAPytXw8EA8hxNhai7GP
nkou0kWkIbth0IMC40KxqAORdd0WmeGASfo9cPc2fvNwDNDhzMK/h9g8ee+BPWE4bjLQIgN24GQ8
sNFhoMPLASgzCAEBCQxxsIl9h2Nw0C5OEDx7M1n1ovKYbbcaA34o7JOG3hAwBqibmA0OUd9Ia0xd
J4CUfpW8ygUOO7zW+++3KuVy/4MAhF1n11U2aLQoQAUCgXIlzMl8qyOWxJhQjvNcsxjk6A7njRFC
SUerC2banWid5k+7rvZTG+YOddDcG2qtZ8HNcr38ODT1fv/E6Bek9KcQ+GMfLsjhN7IaUYDk5uI0
iPWLdc4pd+8+6t7klwADAECZI7ZAP/cwAAAAAElFTkSuQmCC" transform="matrix(1 0 0 1 29.7185 64.4388)">
	</image>
	<g>
		<g>
			<rect x="157.9" y="64.3" class="st1" width="1.3" height="1.3"/>
		</g>
		<g>
			<rect x="161" y="64.3" class="st1" width="1.3" height="1.3"/>
		</g>
		<g>
			<rect x="164.2" y="64.3" class="st1" width="1.3" height="1.3"/>
		</g>
		<g>
			<rect x="167.3" y="64.3" class="st1" width="1.3" height="1.3"/>
		</g>
		<g>
			<rect x="170.5" y="64.3" class="st1" width="1.3" height="1.3"/>
		</g>
		<g>
			<rect x="173.6" y="64.3" class="st1" width="1.3" height="1.3"/>
		</g>
		<g>
			<rect x="176.8" y="64.3" class="st1" width="1.3" height="1.3"/>
		</g>
		<g>
			<rect x="179.9" y="64.3" class="st1" width="1.3" height="1.3"/>
		</g>
		<g>
			<rect x="183.1" y="64.3" class="st1" width="1.3" height="1.3"/>
		</g>
		<g>
			<rect x="186.2" y="64.3" class="st1" width="1.3" height="1.3"/>
		</g>
		<g>
			<rect x="189.4" y="64.3" class="st1" width="1.3" height="1.3"/>
		</g>
		<g>
			<rect x="192.5" y="64.3" class="st1" width="1.3" height="1.3"/>
		</g>
		<g>
			<rect x="195.7" y="64.3" class="st1" width="1.3" height="1.3"/>
		</g>
		<g>
			<path class="st1" d="M195.7,61.7h-36.5V25.2h36.5V61.7z M157.9,63h39.1V23.9h-39.1V63z"/>
		</g>
		<g>
			<g>
				<path class="st0" d="M162.2,68.6c-0.9,0-1.7,0.3-2.3,0.9c-0.6,0.6-0.9,1.4-0.9,2.3c0,0.9,0.3,1.6,0.9,2.2
					c0.6,0.6,1.4,0.9,2.3,0.9c0.9,0,1.7-0.3,2.3-0.9c0.6-0.6,0.9-1.4,0.9-2.3c0-0.9-0.3-1.7-0.9-2.3C164,68.9,163.2,68.6,162.2,68.6
					 M166.6,76.5l-1.2,1.2c-0.4,0-0.8-0.1-1.2-0.2c-0.4-0.1-0.8-0.3-1.2-0.5c-0.4-0.2-1-0.5-1.7-1c-1-0.2-1.9-0.7-2.5-1.4
					c-0.7-0.8-1-1.7-1-2.7c0-1.3,0.4-2.3,1.3-3.1c0.9-0.8,1.9-1.2,3.2-1.2c1.3,0,2.4,0.4,3.2,1.2c0.9,0.8,1.3,1.8,1.3,3.1
					c0,1-0.3,1.9-1,2.7c-0.6,0.8-1.5,1.3-2.5,1.5l0.3,0.1c1,0.4,1.7,0.6,2.1,0.6C166,76.6,166.2,76.6,166.6,76.5"/>
			</g>
			<g>
				<path class="st0" d="M171,76v-0.7c-0.2,0.3-0.5,0.5-0.8,0.6c-0.3,0.1-0.6,0.2-0.9,0.2c-0.3,0-0.7-0.1-1-0.3
					c-0.3-0.2-0.5-0.4-0.7-0.7c-0.1-0.3-0.2-0.8-0.2-1.5v-3.2h1.1v3.1c0,0.6,0.1,1,0.2,1.2c0.2,0.2,0.5,0.3,0.9,0.3
					c0.5,0,1-0.3,1.3-0.8v-3.9h1.1V76H171z"/>
			</g>
			<g>
				<path class="st0" d="M176.6,67.4l-1.4,1.8h-0.7l0.8-1.8H176.6z M175.8,74.9v-1.6l-0.7,0.3c-0.4,0.1-0.6,0.3-0.8,0.4
					c-0.2,0.1-0.2,0.3-0.2,0.6c0,0.2,0.1,0.4,0.2,0.6c0.1,0.1,0.3,0.2,0.6,0.2C175.2,75.3,175.5,75.1,175.8,74.9 M176.9,72.6V75
					c0,0.2,0.1,0.3,0.2,0.3c0.1,0,0.3-0.1,0.6-0.3v0.7c-0.2,0.2-0.4,0.3-0.6,0.3c-0.2,0.1-0.3,0.1-0.5,0.1c-0.5,0-0.7-0.2-0.8-0.6
					c-0.5,0.4-1,0.5-1.5,0.5c-0.4,0-0.7-0.1-1-0.4c-0.3-0.3-0.4-0.6-0.4-1c0-0.3,0.1-0.7,0.4-0.9c0.2-0.3,0.6-0.5,1.1-0.7l1.4-0.5
					v-0.3c0-0.7-0.3-1-1-1c-0.6,0-1.2,0.3-1.7,0.9v-1.2c0.4-0.5,1-0.7,1.8-0.7c0.6,0,1.1,0.2,1.4,0.5c0.1,0.1,0.2,0.2,0.3,0.4
					c0.1,0.2,0.2,0.3,0.2,0.5C176.9,71.9,176.9,72.2,176.9,72.6"/>
			</g>
		</g>
		<g>
			<rect x="178.5" y="67.6" class="st0" width="1.1" height="8.4"/>
		</g>
		<g>
			<g>
				<path class="st0" d="M181.2,70.4h1.1V76h-1.1V70.4z M181.7,68.1c0.2,0,0.3,0.1,0.5,0.2c0.1,0.1,0.2,0.3,0.2,0.5
					c0,0.2-0.1,0.3-0.2,0.5c-0.1,0.1-0.3,0.2-0.5,0.2c-0.2,0-0.3-0.1-0.4-0.2c-0.1-0.1-0.2-0.3-0.2-0.5c0-0.2,0.1-0.3,0.2-0.4
					C181.4,68.2,181.6,68.1,181.7,68.1"/>
			</g>
			<g>
				<path class="st0" d="M183,71.3l2-2v1.1h1.7v1H185v2.7c0,0.6,0.3,0.9,0.8,0.9c0.4,0,0.8-0.1,1.2-0.4v1c-0.4,0.2-0.9,0.4-1.4,0.4
					c-0.5,0-0.9-0.1-1.2-0.4c-0.1-0.1-0.2-0.2-0.3-0.3c-0.1-0.1-0.1-0.3-0.2-0.4c0-0.2-0.1-0.5-0.1-1v-2.4h-1V71.3z"/>
			</g>
			<g>
				<path class="st0" d="M190.7,74.9v-1.6l-0.7,0.3c-0.4,0.1-0.6,0.3-0.8,0.4c-0.2,0.1-0.2,0.3-0.2,0.6c0,0.2,0.1,0.4,0.2,0.6
					c0.1,0.1,0.3,0.2,0.6,0.2C190.1,75.3,190.4,75.1,190.7,74.9 M191.8,72.6V75c0,0.2,0.1,0.3,0.2,0.3c0.1,0,0.3-0.1,0.6-0.3v0.7
					c-0.2,0.2-0.4,0.3-0.6,0.3c-0.1,0.1-0.3,0.1-0.5,0.1c-0.5,0-0.7-0.2-0.8-0.6c-0.5,0.4-1,0.5-1.5,0.5c-0.4,0-0.7-0.1-1-0.4
					c-0.3-0.3-0.4-0.6-0.4-1c0-0.3,0.1-0.7,0.4-0.9c0.2-0.3,0.6-0.5,1.1-0.7l1.4-0.5v-0.3c0-0.7-0.3-1-1-1c-0.6,0-1.2,0.3-1.7,0.9
					v-1.2c0.4-0.5,1-0.7,1.8-0.7c0.6,0,1.1,0.2,1.4,0.5c0.1,0.1,0.2,0.2,0.3,0.4c0.1,0.2,0.2,0.3,0.2,0.5
					C191.8,71.9,191.8,72.2,191.8,72.6"/>
			</g>
			<g>
				<path class="st0" d="M193.2,75.6v-1.2c0.3,0.2,0.6,0.4,0.9,0.5c0.3,0.1,0.6,0.2,0.8,0.2c0.2,0,0.4-0.1,0.6-0.2
					c0.2-0.1,0.2-0.2,0.2-0.4c0-0.2-0.1-0.3-0.2-0.4c-0.1-0.1-0.3-0.3-0.7-0.5c-0.7-0.4-1.2-0.7-1.4-1c-0.2-0.3-0.3-0.6-0.3-0.9
					c0-0.4,0.2-0.8,0.5-1c0.3-0.3,0.8-0.4,1.3-0.4c0.5,0,1.1,0.2,1.7,0.5v1.1c-0.6-0.4-1.2-0.6-1.6-0.6c-0.2,0-0.4,0-0.5,0.1
					c-0.1,0.1-0.2,0.2-0.2,0.4c0,0.1,0.1,0.3,0.2,0.4c0.1,0.1,0.3,0.3,0.6,0.4l0.4,0.2c0.9,0.5,1.4,1.1,1.4,1.7
					c0,0.5-0.2,0.8-0.5,1.1c-0.4,0.3-0.8,0.4-1.4,0.4c-0.3,0-0.6,0-0.9-0.1C193.9,75.9,193.6,75.7,193.2,75.6"/>
			</g>
			<g>
				<path class="st0" d="M197.4,76.5c0.1,0,0.1,0,0.1,0c0,0,0-0.1,0-0.1c0,0,0-0.1-0.1-0.1c0,0-0.1,0-0.1,0h-0.2v0.3H197.4z
					 M197.4,76.1c0.1,0,0.2,0,0.2,0.1c0.1,0.1,0.1,0.1,0.1,0.2c0,0.1,0,0.1-0.1,0.2c-0.1,0.1-0.1,0.1-0.2,0.1v0c0,0,0.1,0,0.1,0.1
					c0,0,0.1,0.1,0.1,0.2l0.1,0.2h-0.2l0-0.1c0-0.1-0.1-0.1-0.1-0.2c0-0.1-0.1-0.1-0.1-0.1c0,0-0.1,0-0.1,0h-0.1v0.4h-0.2v-1H197.4z
					 M196.6,76.6c0,0.1,0,0.3,0.1,0.4c0.1,0.1,0.2,0.2,0.3,0.3c0.1,0.1,0.2,0.1,0.4,0.1c0.1,0,0.3,0,0.4-0.1
					c0.1-0.1,0.2-0.2,0.3-0.3c0.1-0.1,0.1-0.2,0.1-0.4c0-0.1,0-0.3-0.1-0.4c-0.1-0.1-0.2-0.2-0.3-0.3c-0.1-0.1-0.2-0.1-0.4-0.1
					c-0.1,0-0.3,0-0.4,0.1c-0.1,0.1-0.2,0.2-0.3,0.3C196.6,76.3,196.6,76.4,196.6,76.6 M196.4,76.6c0-0.2,0-0.3,0.1-0.5
					c0.1-0.1,0.2-0.3,0.3-0.3c0.1-0.1,0.3-0.1,0.5-0.1c0.2,0,0.3,0,0.5,0.1c0.1,0.1,0.3,0.2,0.3,0.3c0.1,0.1,0.1,0.3,0.1,0.5
					c0,0.2,0,0.3-0.1,0.5c-0.1,0.1-0.2,0.3-0.3,0.3c-0.1,0.1-0.3,0.1-0.5,0.1c-0.2,0-0.3,0-0.5-0.1c-0.1-0.1-0.3-0.2-0.3-0.3
					C196.4,76.9,196.4,76.7,196.4,76.6"/>
			</g>
			<g>
				<path class="st1" d="M190.8,38.2c0-5-3.4-11.2-13.4-11.3C168.6,27.2,164,32,164,38.3c0.2,8.9,8.2,11.3,13.4,11.3
					C185.9,49.5,191,44.6,190.8,38.2 M177.4,47.3c-2.7,0-7-1.2-7-9.1c0-5,2-9,7-9.1c5.6,0.1,7,3.9,7,9.1
					C184.5,43.3,182.7,47.4,177.4,47.3"/>
			</g>
			<g>
				<path class="st1" d="M163.8,47.6c0.1-0.2,0.3-0.3,0.5-0.2l4.6,2c2.4,1.1,4.9,2.1,7.4,2.9c2.4,0.8,4.8,1.3,7.4,1.1
					c2.1-0.1,4.2-0.5,6.2-1.3c0.4-0.2,0.9,0.1,1,0.5c0.1,0.3,0,0.7-0.3,0.9l-6.7,5.1c-1,0.8-2.3,0.9-3.4,0.3l-17-9.3
					c-0.2-0.1-0.2-0.3-0.2-0.5L163.8,47.6z"/>
			</g>
		</g>
	</g>
</g>
</svg>
