<?xml version="1.0" encoding="utf-8"?>
<!-- Generator: Adobe Illustrator 23.0.1, SVG Export Plug-In . SVG Version: 6.00 Build 0)  -->
<svg version="1.1" id="Capa_1" xmlns="http://www.w3.org/2000/svg" xmlns:xlink="http://www.w3.org/1999/xlink" x="0px" y="0px"
	 width="300px" height="300px" viewBox="0 0 300 300" style="enable-background:new 0 0 300 300;" xml:space="preserve">
<style type="text/css">
	.st0{fill:#0E58C4;}
	.st1{enable-background:new    ;}
	.st2{fill:#F40667;}
	.st3{fill:#F20063;stroke:#FFFFFF;stroke-miterlimit:10;}
	.st4{fill:#F6F6F6;stroke:#FFFFFF;stroke-miterlimit:10;}
	.st5{fill:#F40667;stroke:#FFFFFF;stroke-miterlimit:10;}
	.st6{opacity:0.9;fill:#F40667;stroke:#FFFFFF;stroke-miterlimit:10;enable-background:new    ;}
	.st7{fill:#044F99;stroke:#FFFFFF;stroke-miterlimit:10;}
	.st8{fill:#044F99;}
	.st9{fill:#014F98;}
	.st10{fill:#FFFFFF;}
	.st11{fill:#E51B68;}
</style>
<path class="st0" d="M253.2936,177.8325c-8.5583,0-15.5222,6.9621-15.5222,15.5221c0,8.5578,6.9637,15.5216,15.5222,15.5216
	c8.5577,0,15.5215-6.9638,15.5215-15.5216S261.8519,177.8325,253.2936,177.8325z M253.2936,201.1892
	c-4.3197,0-7.8347-3.5155-7.8347-7.8341c0-4.3214,3.5155-7.8352,7.8347-7.8352c4.3186,0,7.8342,3.5138,7.8342,7.8352
	C261.1283,197.6737,257.6134,201.1892,253.2936,201.1892z"/>
<path class="st0" d="M289.5928,163.1318c-9.0135-10.8076-22.2456-17.0057-36.298-17.0057c-2.3545,0-4.6698,0.1753-6.9322,0.5104
	c-1.5607-10.1167-11.0748-23.5062-20.296-34.4621v-32.56c0-1.1985-0.5605-2.3297-1.5168-3.0574
	c-0.9559-0.726-2.1964-0.9657-3.3499-0.6455l-6.2631,1.7262c-3.3459,0.9237-6.2689,2.7453-8.533,5.1572l-3.2901-15.137
	c-0.385-1.767-1.9475-3.0246-3.7569-3.0246h-6.708v-5.5383c0-2.1222-1.7221-3.8438-3.8438-3.8438
	c-2.1245,0-3.8438,1.721-3.8438,3.8438v19.348c0,2.1222,1.7187,3.8438,3.8438,3.8438c2.1217,0,3.8438-1.721,3.8438-3.8438v-6.1229
	h3.6104l4.7352,21.7778c-2.0273,2.1372-3.3966,4.7893-3.9713,7.707l-11.0627,12.1583c-1.4254,1.5715-1.3141,4.0012,0.258,5.4302
	c0.7352,0.6708,1.6607,1.0008,2.5849,1.0008c1.0467,0,2.0871-0.4231,2.8448-1.2559l6.6792-7.3414
	c0.4857,0.9783,1.0743,1.9141,1.7665,2.7901c4.3542,5.4998,10.377,13.9155,14.3483,22.7659
	c4.284,9.5435,5.2974,17.4788,3.0103,23.5792c-3.3401,8.9055-13.1114,15.7567-26.1434,18.3266
	c-13.908,2.7447-27.6857-0.1822-34.277-7.2811c-2.9056-3.1281-4.2058-6.2315-3.9765-9.4918
	c0.4057-5.7935,5.5578-12.7493,15.3094-20.6741c0.0098-0.0104,0.7983-0.8909,0.8082-0.9059
	c3.0103-4.3346,3.3885-9.9166,0.9685-14.6185c-2.4499-4.7594-7.2972-7.7168-12.6487-7.7168H102.036
	c-10.6075,0-19.3326,8.1956-20.1862,18.587c-2.209,2.2475-7.3667,7.7496-12.5664,15.1445
	c-9.2164,13.1097-13.8908,25.3433-13.8908,36.3618c0,2.1239,1.7221,3.8438,3.8438,3.8438h13.1521
	c-0.0068,0.2828-0.0172,0.5656-0.0172,0.8484c0,17.3138,14.0852,31.3995,31.3989,31.3995c14.5684,0,26.8505-9.9746,30.3774-23.4522
	h88.7699c3.5299,13.4776,15.809,23.4522,30.3781,23.4522c17.3132,0,31.3984-14.0857,31.3984-31.3995
	c0-6.3459-1.8968-12.2515-5.1452-17.196l9.4883-7.5593c0.8082-0.6432,1.3244-1.5859,1.429-2.6148
	c0.1046-1.0318-0.211-2.0607-0.873-2.8539H289.5928z M135.1889,126.2578h22.3014c2.4969,0,4.6686,1.3261,5.8125,3.546
	c0.8589,1.6641,0.9685,3.5075,0.358,5.1825h-28.4713L135.1889,126.2578z M102.0334,126.2578h25.4685v8.7279H90.0601
	C91.689,129.9285,96.4411,126.2578,102.0334,126.2578z M103.7681,217.0666c-13.0751,0-23.7121-10.6374-23.7121-23.712
	c0-0.2828,0.0081-0.5656,0.0172-0.8456h8.1957c-0.0149,0.2799-0.0225,0.5633-0.0225,0.8456c0,8.5577,6.9614,15.5216,15.5222,15.5216
	c8.5577,0,15.5215-6.9638,15.5215-15.5216c0-0.2828-0.0098-0.5656-0.0253-0.8456h8.198c0.0091,0.2799,0.0172,0.5633,0.0172,0.8456
	c-0.0005,13.0746-10.6368,23.712-23.7121,23.712H103.7681z M95.9324,193.3552c0-0.2857,0.0172-0.5679,0.0472-0.8456h15.575
	c0.0323,0.2771,0.0472,0.5605,0.0472,0.8456c0,4.3185-3.5127,7.8341-7.8342,7.8341
	C99.4484,201.1893,95.9324,197.6737,95.9324,193.3552z M128.9919,184.8193H72.5216c1.2714-3.6736,3.6218-9.0705,7.6749-14.2708
	c9.278-11.906,22.8515-17.3207,40.3275-16.09c7.7473,0.5432,12.6141,2.5849,14.4684,6.0659
	C137.4118,165.0752,135.3948,173.2432,128.9919,184.8193z M206.0726,193.6144h-70.9137c0.0028-0.0874,0.0081-0.1724,0.0081-0.2598
	c0-1.1663-0.0695-2.3297-0.1972-3.4788c5.9503-10.4426,11.8761-23.4367,6.8064-32.963c-3.178-5.9751-10.1493-9.3809-20.7116-10.1235
	c-25.3284-1.7819-39.614,9.516-47.1412,19.3078c-5.5704,7.242-8.2934,14.6536-9.4762,18.7255h-1.1393
	c2.1871-18.7554,19.421-37.5431,23.9022-42.1467h68.739c-6.6615,6.8034-10.1351,13.1597-10.565,19.2751
	c-0.38,5.4204,1.6423,10.5552,6.0107,15.2594c8.4681,9.1182,24.7179,12.8814,41.4007,9.5907
	c5.4083-1.0663,10.3672-2.7976,14.7214-5.0767c-0.9462,3.7207-1.4514,7.6197-1.4514,11.6301
	c-0.0005,0.0879,0.004,0.1724,0.0069,0.2598L206.0726,193.6144z M216.9777,85.0498l1.3991-0.388v18.8026
	c-3.9506-4.2869-7.307-7.6622-9.1993-9.5263C209.7732,89.7413,212.8081,86.1983,216.9777,85.0498z M206.1173,109.8154
	c-1.3335-1.6865-1.9215-3.7938-1.6544-5.9332c0.1275-1.0266,0.4431-1.9946,0.9232-2.8723
	c11.1576,11.2306,32.3428,34.9317,33.4613,47.3792c-4.5117,1.4537-8.7307,3.5684-12.5411,6.2303
	C226.5236,144.6016,222.1378,130.0538,206.1173,109.8154z M253.2936,217.0666c-13.0751,0-23.7121-10.6374-23.7121-23.712
	c0-13.0746,10.6373-23.712,23.7121-23.712c13.0748,0,23.7121,10.6374,23.7121,23.712
	C277.0057,206.4292,266.3683,217.0666,253.2936,217.0666z M274.573,170.2933c-5.5999-5.1715-13.0746-8.3382-21.2794-8.3382
	c-17.3144,0-31.3994,14.0857-31.3994,31.3995c0,0.0874,0.0051,0.1724,0.0081,0.2598h-8.145c0-0.0874-0.0051-0.1724-0.0051-0.2598
	c0-21.8054,17.7391-39.5416,39.5423-39.5416c10.4467,0,20.3511,4.0915,27.7253,11.3432L274.573,170.2933z"/>
<path class="st0" d="M14.7796,247.9551l9.2056,24.6386h-5.5458l-1.6973-5.037H6.8197l-1.698,5.037H-0.5l8.5641-23.009
	c0.3777-1.087,1.207-1.6307,2.4906-1.6307L14.7796,247.9551z M8.2148,263.3904h7.0551l-3.5471-10.4713L8.2148,263.3904z"/>
<path class="st0" d="M42.2468,258.9719c-0.3845-2.7125-1.663-4.4553-3.8455-5.2198c-3.7345-1.2686-6.866-0.4714-9.432,2.355v-5.7257
	c0-1.5939-0.8294-2.4274-2.4906-2.4274h-2.5279v24.6386h5.0175v-9.8195c0-2.9349,1.2825-5.3267,4.2634-5.3267
	c2.8672,0,4.15,2.1015,4.15,5.3262v9.8194h4.9806v-5.0112c-0.4087-1.2726-0.6145-2.7654-0.6145-4.4812
	c0-1.5606,0.1679-2.9338,0.4989-4.1277L42.2468,258.9719z"/>
<path class="st0" d="M69.4962,253.4261c-5.5469,0-8.8521,2.1268-9.9006,6.3965c0.1982,0.9841,0.2994,2.075,0.2994,3.2775
	c0,1.7704-0.2219,3.3023-0.6617,4.6013v4.8922h5.0934v-9.9649c0-2.7901,1.3961-4.203,4.1874-4.203h1.698v-5.0003h-0.7168
	L69.4962,253.4261z"/>
<path class="st0" d="M59.5958,259.8226c-0.9018-4.4697-3.8455-6.6868-8.7928-6.6868c-4.6226,0-7.4731,1.936-8.556,5.8366
	c-0.331,1.1921-0.4984,2.5665-0.4984,4.1283c0,1.7158,0.2063,3.2086,0.6145,4.4812c1.1616,3.6196,3.9737,5.4463,8.4393,5.4463
	c4.4163,0,7.2351-1.7865,8.4318-5.3267c0.4385-1.2991,0.661-2.8315,0.661-4.6013C59.8953,261.8983,59.794,260.8067,59.5958,259.8226
	L59.5958,259.8226z M50.7651,268.7166c-2.5653,0-3.8857-1.8848-3.9236-5.6159c0-3.8047,1.3204-5.7251,3.9609-5.7251
	c2.5653,0,3.8483,1.8474,3.8483,5.5803C54.6134,266.7599,53.3304,268.7166,50.7651,268.7166z"/>
<path class="st0" d="M69.6422,262.7018c0.1507-6.1959,3.5845-9.2757,10.2621-9.2757h0.7168v5.0003h-1.698
	c-2.7918,0-4.1874,1.4129-4.1874,4.2025v9.9648h-5.0934V262.7018z"/>
<path class="st0" d="M85.7127,258.4264h-5.018c0.6036-3.5506,3.2075-5.29,7.8099-5.29c5.5085,0,8.3002,1.7393,8.4129,5.29v6.5218
	c0,5.29-3.3196,7.6455-8.7153,8.0077c-4.7915,0.3622-8.1111-1.775-8.1111-6.0148c0.1133-4.6019,3.584-5.8337,8.64-6.3051
	c2.1504-0.2541,3.2449-0.8691,3.2449-1.9204c-0.1133-1.087-1.1697-1.6307-3.2449-1.6307c-1.7733,0.0012-2.7534,0.4363-3.0182,1.3416
	L85.7127,258.4264z M92.0511,264.7309v-1.775c-1.1697,0.4713-2.5279,0.8691-3.999,1.1594c-1.9998,0.3622-3.0189,1.268-3.0189,2.6809
	c0.1126,1.5215,0.9432,2.2464,2.5279,2.2464c2.7925,0.0006,4.4898-1.5939,4.4898-4.3116H92.0511z"/>
<path class="st0" d="M109.5409,258.7696c-0.2593-0.4851-0.6052-0.8858-1.0392-1.2019c-0.4352-0.3156-0.9341-0.5466-1.4979-0.6943
	c-0.5645-0.1466-1.1634-0.219-1.7975-0.219c-0.4938,0-0.9927,0.0512-1.4974,0.1518c-0.5052,0.1017-0.9692,0.2701-1.3921,0.5076
	c-0.4224,0.2368-0.7639,0.5472-1.022,0.9312c-0.2593,0.3846-0.3875,0.8582-0.3875,1.4221c0,0.4736,0.123,0.8748,0.3701,1.2019
	c0.2466,0.3271,0.5575,0.6042,0.9341,0.8295c0.3754,0.2259,0.7869,0.4116,1.2335,0.5587c0.4456,0.1471,0.8576,0.2656,1.2341,0.3552
	l2.9604,0.6427c0.6347,0.0902,1.2628,0.254,1.8854,0.4909c0.6218,0.2368,1.1744,0.5472,1.6559,0.9312
	c0.4812,0.3846,0.8748,0.8582,1.1807,1.4221c0.3052,0.5639,0.4582,1.2301,0.4582,1.9969c0,0.9479-0.2237,1.7549-0.6696,2.4199
	c-0.4466,0.6656-1.0162,1.2077-1.7094,1.625c-0.6933,0.4173-1.4749,0.7162-2.3436,0.8972
	c-0.8692,0.1799-1.7268,0.2707-2.5729,0.2707c-2.1389,0-3.872-0.4857-5.1985-1.456c-1.3277-0.9697-2.0854-2.5268-2.2734-4.6709
	h2.2204c0.0937,1.445,0.6397,2.5331,1.6388,3.2666c0.9985,0.734,2.2378,1.1002,3.7178,1.1002c0.5403,0,1.0985-0.0564,1.6744-0.1696
	c0.5754-0.1127,1.1106-0.3041,1.6037-0.5748c0.4931-0.2701,0.899-0.6145,1.2156-1.0324c0.3168-0.4173,0.4754-0.9312,0.4754-1.5399
	c0-0.519-0.1116-0.9536-0.3345-1.3031c-0.223-0.35-0.5231-0.6426-0.8985-0.88c-0.3764-0.2368-0.8048-0.434-1.2863-0.592
	c-0.4817-0.1575-0.9692-0.2932-1.4628-0.4058l-2.8546-0.6093c-0.7289-0.1799-1.3984-0.3885-2.0084-0.626
	c-0.6117-0.2368-1.1457-0.53-1.6037-0.88c-0.4582-0.3495-0.8167-0.7783-1.0755-1.2864c-0.2587-0.5081-0.388-1.1341-0.388-1.879
	c0-0.8806,0.2058-1.6359,0.6168-2.2676c0.411-0.6311,0.9455-1.1393,1.6037-1.5227c0.6576-0.3834,1.3928-0.6656,2.2027-0.8456
	c0.8099-0.1805,1.6147-0.2713,2.4148-0.2713c0.9157,0,1.7675,0.1132,2.555,0.3385c0.7869,0.2259,1.4802,0.5754,2.079,1.0496
	c0.5989,0.4736,1.075,1.0611,1.4272,1.7606c0.3522,0.6995,0.5519,1.5227,0.5989,2.4706h-2.2204
	c-0.023-0.6588-0.1649-1.2278-0.4231-1.7129L109.5409,258.7696z"/>
<path class="st0" d="M116.4662,267.0617c0.223,0.8237,0.5812,1.5629,1.075,2.2176c0.4931,0.6553,1.1157,1.1962,1.8675,1.625
	s1.6559,0.6426,2.7137,0.6426c1.621,0,2.8902-0.4058,3.8064-1.2186c0.9162-0.8122,1.5503-1.8958,1.9031-3.2494h2.2211
	c-0.4708,1.9854-1.333,3.5201-2.5907,4.603c-1.2577,1.0829-3.0379,1.6255-5.3399,1.6255c-1.4335,0-2.6734-0.2431-3.7185-0.7277
	c-1.0455-0.4851-1.8975-1.1508-2.555-1.9969c-0.6575-0.8461-1.145-1.8279-1.4628-2.9453c-0.3168-1.1174-0.4754-2.2958-0.4754-3.5374
	c0-1.1508,0.1586-2.2791,0.4754-3.385c0.3173-1.1054,0.8048-2.0929,1.4628-2.962c0.6582-0.868,1.51-1.5681,2.555-2.0981
	c1.0455-0.53,2.2848-0.7955,3.7185-0.7955c1.4565,0,2.7011,0.2828,3.7362,0.8467c1.0336,0.565,1.8733,1.3036,2.5199,2.217
	c0.6455,0.9139,1.11,1.9636,1.3921,3.1477c0.2822,1.1852,0.3994,2.3866,0.3529,3.6046H116.131
	c0.0005,0.7668,0.1116,1.5623,0.3351,2.386L116.4662,267.0617z M127.4628,260.5463c-0.2707-0.7449-0.6524-1.4043-1.1457-1.9802
	c-0.4931-0.5754-1.0927-1.0375-1.798-1.3876s-1.5037-0.5242-2.3959-0.5242c-0.9167,0-1.7268,0.1748-2.432,0.5242
	c-0.7054,0.3501-1.3042,0.8122-1.798,1.3876c-0.4931,0.5754-0.8869,1.2416-1.1807,1.9975c-0.2943,0.7559-0.4875,1.529-0.5817,2.3188
	h11.7721c-0.0235-0.8128-0.1707-1.5917-0.4403-2.3361H127.4628z"/>
<path class="st0" d="M146.8472,274.8976c-0.2943,1.0375-0.7576,1.9176-1.3921,2.6407c-0.6347,0.7225-1.4628,1.2744-2.485,1.6577
	c-1.0222,0.3834-2.2734,0.5754-3.7536,0.5754c-0.9167,0-1.8094-0.1017-2.6786-0.3052c-0.8692-0.2029-1.6514-0.519-2.3436-0.9473
	c-0.6932-0.4294-1.2691-0.9766-1.7273-1.6416c-0.4582-0.6656-0.7225-1.4618-0.7932-2.386h2.2204
	c0.1172,0.6541,0.3466,1.2014,0.6869,1.6417c0.3403,0.4397,0.7518,0.7955,1.2335,1.0663c0.4812,0.2701,1.0157,0.4679,1.6037,0.592
	c0.5869,0.1242,1.1863,0.1862,1.7968,0.1862c2.0669,0,3.5592-0.5639,4.476-1.6922c0.9167-1.1284,1.3749-2.7539,1.3749-4.8744
	v-2.3694h-0.0707c-0.5173,1.0829-1.2749,1.952-2.2734,2.6062c-0.999,0.6553-2.1676,0.9818-3.507,0.9818
	c-1.4572,0-2.7021-0.2311-3.7362-0.6938c-1.0341-0.4627-1.8859-1.1002-2.5549-1.9124c-0.6696-0.8122-1.1576-1.7658-1.4628-2.8608
	c-0.3065-1.0938-0.4582-2.2619-0.4582-3.5034c0-1.1956,0.1816-2.3291,0.5461-3.4017c0.3638-1.0715,0.8922-2.0078,1.586-2.8091
	c0.6932-0.8001,1.5509-1.433,2.5728-1.8951c1.0225-0.4627,2.1906-0.6943,3.5075-0.6943c0.6806,0,1.3221,0.0902,1.9205,0.2713
	c0.5989,0.1805,1.145,0.4346,1.6387,0.7616c0.4931,0.3271,0.9341,0.7053,1.3221,1.1341c0.388,0.4294,0.6869,0.88,0.8985,1.3536
	h0.0707v-3.0126h2.2204v16.0441c0.0018,1.287-0.1454,2.4487-0.4391,3.4868L146.8472,274.8976z M141.7537,270.2439
	c0.7276-0.3943,1.3393-0.9139,1.8331-1.5578c0.4931-0.6426,0.8634-1.3813,1.11-2.2164c0.2466-0.8341,0.3701-1.6928,0.3701-2.5728
	c0-0.8571-0.1063-1.7147-0.3173-2.5723c-0.2116-0.8576-0.5524-1.6353-1.022-2.3354c-0.4701-0.6995-1.075-1.2635-1.8147-1.6928
	c-0.7404-0.4282-1.6387-0.6426-2.6964-0.6426c-1.0576,0-1.9619,0.2086-2.7137,0.626c-0.7518,0.4179-1.3744,0.964-1.8675,1.6416
	c-0.4931,0.6765-0.8518,1.4502-1.075,2.3188c-0.2237,0.8685-0.3351,1.7549-0.3351,2.6573c0,0.88,0.1172,1.7382,0.3524,2.5728
	c0.2351,0.8352,0.5996,1.5739,1.0927,2.2165c0.4931,0.6432,1.1156,1.1628,1.8675,1.5577c0.7518,0.3955,1.6445,0.5932,2.6786,0.5932
	c0.9634-0.0017,1.8094-0.1983,2.5372-0.5938L141.7537,270.2439z"/>
<path class="st0" d="M163.0072,272.8328v-3.1476h-0.0707c-0.5875,1.1738-1.4398,2.071-2.5549,2.6913
	c-1.1164,0.6197-2.3555,0.9312-3.7178,0.9312c-1.152,0-2.1326-0.1535-2.943-0.457c-0.8111-0.3047-1.4693-0.7386-1.9745-1.3031
	c-0.5052-0.5639-0.8755-1.2525-1.11-2.0647c-0.2351-0.8122-0.3524-1.7376-0.3524-2.7758v-11.3393h2.2204v11.3732
	c0.0465,1.5796,0.4282,2.7758,1.145,3.588c0.7162,0.8122,1.9556,1.2186,3.7185,1.2186c0.9629,0,1.7859-0.1972,2.4671-0.592
	s1.2451-0.9185,1.6917-1.5739c0.4456-0.6541,0.7748-1.4048,0.9864-2.2515c0.2121-0.8456,0.3173-1.7095,0.3173-2.5889v-9.1734h2.2204
	v17.4656L163.0072,272.8328z"/>
<path class="st0" d="M170.0905,255.3672v4.0961h0.0702c0.564-1.4221,1.4393-2.5159,2.6264-3.2833
	c1.1863-0.7668,2.6016-1.1169,4.2467-1.0491v2.132c-1.0099-0.0448-1.9268,0.0845-2.7488,0.3892
	c-0.8231,0.3052-1.5337,0.7398-2.1326,1.3031c-0.5989,0.565-1.0629,1.2365-1.3916,2.0142
	c-0.3294,0.7783-0.4938,1.6307-0.4938,2.5556v9.3084h-2.2204v-17.4655L170.0905,255.3672z"/>
<path class="st0" d="M188.6811,255.6047c1.0686,0.4966,1.9675,1.1623,2.6963,1.9969c0.7283,0.8352,1.28,1.8112,1.6559,2.9275
	c0.3759,1.1174,0.564,2.3078,0.564,3.5713c0,1.2635-0.188,2.4539-0.564,3.5707c-0.3759,1.1174-0.9283,2.0934-1.6559,2.9281
	c-0.7294,0.8352-1.6279,1.4951-2.6963,1.9802c-1.0692,0.4851-2.2969,0.7277-3.6827,0.7277c-1.3865,0-2.6143-0.2431-3.6834-0.7277
	c-1.0692-0.4851-1.9682-1.1451-2.6958-1.9802c-0.7289-0.8341-1.2818-1.8107-1.6566-2.9281c-0.3759-1.1169-0.564-2.3067-0.564-3.5707
	c0-1.264,0.188-2.4544,0.564-3.5713c0.3759-1.1169,0.9283-2.0929,1.6566-2.9275c0.7276-0.8352,1.6266-1.5002,2.6958-1.9969
	c1.0692-0.4961,2.2969-0.745,3.6834-0.745C186.3854,254.8597,187.6126,255.108,188.6811,255.6047z M182.2145,257.2969
	c-0.7996,0.4294-1.4628,0.9927-1.9917,1.6928c-0.5282,0.6995-0.9283,1.4951-1.1974,2.386
	c-0.2707,0.8915-0.4052,1.7997-0.4052,2.7246c0,0.9254,0.1346,1.8336,0.4052,2.7246c0.2696,0.8915,0.6696,1.6871,1.1974,2.386
	c0.5289,0.6995,1.1921,1.264,1.9917,1.6928c0.7983,0.4294,1.7268,0.6426,2.7839,0.6426c1.0565,0,1.9848-0.2144,2.7844-0.6426
	c0.7983-0.4282,1.4628-0.9927,1.9912-1.6928c0.5289-0.6995,0.9278-1.4951,1.1985-2.386c0.2696-0.8915,0.4057-1.7992,0.4057-2.7246
	c0-0.9249-0.1356-1.8336-0.4057-2.7246c-0.2702-0.8915-0.6696-1.6865-1.1985-2.386s-1.1934-1.2635-1.9912-1.6928
	c-0.799-0.4283-1.7273-0.6427-2.7844-0.6427C183.9413,256.6537,183.013,256.8687,182.2145,257.2969z"/>
<path class="st0" d="M206.1806,258.7696c-0.2587-0.4851-0.6052-0.8858-1.0399-1.2019c-0.4345-0.3156-0.9341-0.5466-1.4974-0.6943
	c-0.564-0.1466-1.1634-0.219-1.798-0.219c-0.4931,0-0.9927,0.0512-1.4974,0.1518c-0.5052,0.1017-0.9692,0.2701-1.3928,0.5076
	c-0.4231,0.2368-0.7634,0.5472-1.022,0.9312c-0.2593,0.3846-0.388,0.8582-0.388,1.4221c0,0.4736,0.1237,0.8748,0.3701,1.2019
	c0.2459,0.3271,0.5582,0.6042,0.9341,0.8295c0.3759,0.2259,0.7869,0.4116,1.2341,0.5587c0.4461,0.1471,0.8571,0.2656,1.2335,0.3552
	l2.9609,0.6427c0.6347,0.0902,1.2623,0.254,1.8859,0.4909c0.6219,0.2368,1.1749,0.5472,1.6559,0.9312
	c0.4812,0.3846,0.8755,0.8582,1.1807,1.4221c0.3052,0.5639,0.4582,1.2301,0.4582,1.9969c0,0.9479-0.2229,1.7549-0.6696,2.4199
	c-0.4466,0.6656-1.0162,1.2077-1.7094,1.625c-0.6933,0.4173-1.4749,0.7162-2.3441,0.8972
	c-0.8692,0.1799-1.7268,0.2707-2.5729,0.2707c-2.1376,0-3.8713-0.4857-5.198-1.456c-1.3277-0.9697-2.0861-2.5268-2.2734-4.6709
	h2.2204c0.0937,1.445,0.6392,2.5331,1.6387,3.2666c0.998,0.734,2.2378,1.1002,3.7178,1.1002c0.5403,0,1.0985-0.0564,1.6738-0.1696
	c0.5754-0.1127,1.1106-0.3041,1.6037-0.5748c0.4938-0.2701,0.8985-0.6145,1.2156-1.0324c0.3168-0.4173,0.4754-0.9312,0.4754-1.5399
	c0-0.519-0.1116-0.9536-0.3351-1.3031c-0.2237-0.35-0.5231-0.6426-0.8985-0.88c-0.3759-0.2368-0.8053-0.434-1.2858-0.592
	c-0.4817-0.1575-0.9692-0.2932-1.4628-0.4058l-2.8556-0.6093c-0.7283-0.1799-1.3984-0.3885-2.0089-0.626
	c-0.6117-0.2368-1.145-0.53-1.6037-0.88c-0.4582-0.3495-0.8167-0.7783-1.075-1.2864c-0.2593-0.5081-0.388-1.1341-0.388-1.879
	c0-0.8806,0.2052-1.6359,0.6162-2.2676c0.4105-0.6311,0.9455-1.1393,1.6037-1.5227c0.6576-0.3834,1.3928-0.6656,2.2027-0.8456
	c0.8104-0.1805,1.6152-0.2713,2.4148-0.2713c0.9162,0,1.768,0.1132,2.555,0.3385c0.7869,0.2259,1.4802,0.5754,2.0791,1.0496
	c0.5996,0.4736,1.075,1.0611,1.4279,1.7606c0.3529,0.6995,0.5519,1.5227,0.5989,2.4706h-2.2199
	c-0.0219-0.6588-0.1626-1.2278-0.4214-1.7129L206.1806,258.7696z"/>
<g class="st1">
	<path class="st2" d="M211.9234,248.9903h4.6559l6.9018,19.7619l6.8466-19.7619h4.6231v23.3769h-3.1v-13.7971
		c0-0.4765,0.0051-1.2651,0.0275-2.3716c0.0219-1.1007,0.0328-2.2843,0.0328-3.5494l-6.8466,19.7182h-3.2207l-6.9127-19.7182v0.7174
		c0,0.5754,0.0167,1.4462,0.0495,2.6182c0.0328,1.172,0.0495,2.032,0.0495,2.5855v13.7971h-3.1058v-23.3769H211.9234z"/>
	<path class="st2" d="M252.1434,257.0256c1.5446,1.4623,2.3171,3.615,2.3171,6.4522c0,2.7499-0.6794,5.0175-2.0429,6.808
		c-1.3583,1.7911-3.4724,2.6838-6.3373,2.6838c-2.3883,0-4.2886-0.7886-5.6913-2.3774c-1.4077-1.583-2.109-3.7081-2.109-6.381
		c0-2.8648,0.7392-5.1434,2.2182-6.8356c1.4842-1.698,3.4724-2.547,5.9705-2.547c2.2348,0.0006,4.13,0.7346,5.6746,2.1969
		L252.1434,257.0256z M250.3195,268.3528c0.7173-1.4353,1.0737-3.0344,1.0737-4.7928c0-1.5882-0.2575-2.8809-0.7778-3.8782
		c-0.8162-1.5663-2.2239-2.355-4.2283-2.355c-1.7743,0-3.0672,0.6685-3.8725,2.0049c-0.8111,1.3364-1.2157,2.9471-1.2157,4.8307
		c0,1.813,0.4052,3.3247,1.2157,4.5295c0.8053,1.2106,2.0866,1.8129,3.8397,1.8129c1.9273,0.0006,3.2477-0.7168,3.965-2.1521
		L250.3195,268.3528z"/>
	<path class="st2" d="M258.6617,250.5682h2.9689v4.7543h2.7935v2.3441h-2.7935v11.1191c0,0.5972,0.2081,0.9916,0.6243,1.1939
		c0.23,0.1207,0.6082,0.1753,1.1393,0.1753c0.1426,0,0.2961,0,0.4597-0.0109c0.1644-0.0057,0.3558-0.0218,0.5696-0.0494v2.2728
		c-0.334,0.0931-0.6846,0.1644-1.052,0.2081c-0.3668,0.0385-0.761,0.0603-1.183,0.0603c-1.3749,0-2.3062-0.3397-2.7935-1.0243
		c-0.4873-0.6846-0.7339-1.5721-0.7339-2.6677V257.666h-2.3666v-2.3435h2.3666L258.6617,250.5682z"/>
	<path class="st2" d="M280.0395,257.0256c1.5446,1.4623,2.3171,3.615,2.3171,6.4522c0,2.7499-0.6794,5.0175-2.0429,6.808
		c-1.3582,1.7911-3.4724,2.6838-6.3373,2.6838c-2.3883,0-4.2886-0.7886-5.6913-2.3774c-1.4077-1.583-2.109-3.7081-2.109-6.381
		c0-2.8648,0.7392-5.1434,2.2181-6.8356c1.4842-1.698,3.4724-2.547,5.97-2.547c2.2354,0.0006,4.1306,0.7346,5.6751,2.1969
		L280.0395,257.0256z M278.2157,268.3528c0.7173-1.4353,1.0737-3.0344,1.0737-4.7928c0-1.5882-0.2575-2.8809-0.7778-3.8782
		c-0.8162-1.5663-2.2239-2.355-4.2283-2.355c-1.7744,0-3.0672,0.6685-3.8725,2.0049c-0.8104,1.3364-1.2156,2.9471-1.2156,4.8307
		c0,1.813,0.4052,3.3247,1.2156,4.5295c0.8054,1.2106,2.0871,1.8129,3.8397,1.8129c1.9273,0.0006,3.2477-0.7168,3.965-2.1521
		L278.2157,268.3528z"/>
	<path class="st2" d="M287.7132,267.0221c0.0879,0.9531,0.334,1.6871,0.745,2.1964c0.7559,0.9203,2.0705,1.3858,3.938,1.3858
		c1.1065,0,2.0871-0.2357,2.9304-0.6955c0.8438-0.4599,1.2651-1.1721,1.2651-2.1417c0-0.7283-0.334-1.287-1.0076-1.6704
		c-0.4328-0.2299-1.287-0.5041-2.558-0.8105l-2.3716-0.5696c-1.5168-0.3615-2.6344-0.7668-3.3522-1.2106
		c-1.287-0.7777-1.9278-1.8457-1.9278-3.2149c0-1.6158,0.6024-2.9194,1.8129-3.9162c1.2106-0.9967,2.8316-1.4951,4.875-1.4951
		c2.6678,0,4.5956,0.7559,5.7728,2.2619c0.7392,0.953,1.1007,1.9825,1.079,3.0838h-2.7769
		c-0.0552-0.6409-0.2961-1.2267-0.7173-1.7526c-0.6902-0.7501-1.8894-1.1283-3.5931-1.1283c-1.1393,0-1.9992,0.2081-2.5855,0.619
		c-0.5862,0.4162-0.8766,0.9588-0.8766,1.6324c0,0.745,0.3835,1.3364,1.1502,1.7802c0.4438,0.2627,1.1007,0.4984,1.9664,0.6956
		l1.9773,0.4656c2.1527,0.4984,3.5931,0.9807,4.3272,1.4462c1.145,0.734,1.714,1.8842,1.714,3.4506
		c0,1.5175-0.5973,2.8315-1.7912,3.9328c-1.1997,1.1008-3.0182,1.6543-5.4664,1.6543c-2.6344,0-4.5024-0.5754-5.5974-1.7256
		c-1.0957-1.1502-1.6814-2.5746-1.7584-4.2726h2.8263v-0.0012H287.7132z"/>
</g>
<path class="st3" d="M37.3472,180.8422c-9.1722-2.071-16.3987-6.2131-21.1105-10.8593c-0.0707,0.3322-0.4335,2.0434-0.5592,2.6338
	l-0.0346,0.1598c-0.0051,0.023-0.0091,0.0437-0.0091,0.0437c-0.0886,0.4179-0.2214,1.041-0.3633,1.7118l-0.0891,0.419
	c-0.0442,0.2092-0.0891,0.4185-0.1328,0.626l-0.1873,0.8817c-0.0058,0.0264-0.0116,0.0517-0.0161,0.0776l-0.207,0.9754
	c-0.0219,0.1017-0.0414,0.1966-0.0581,0.2719l3.1586,3.4454l-4.4272,2.5315l-6.4264,29.279c0,0-0.1742,0.4932-0.2047,1.1945
	c-0.0068,0.1655-0.0051,0.3432,0.0086,0.5276c0.0075,0.1184,0.0225,0.234,0.0402,0.3495c0.0116,0.073,0.0247,0.1466,0.0402,0.2207
	c0.0293,0.1391,0.0649,0.2747,0.1086,0.4087c0.0132,0.0408,0.0293,0.0816,0.0442,0.123c0.4057,1.1174,1.2916,2.0314,2.5039,2.4136
	c3.7006,1.1657,13.9713,3.3075,22.5434,5.0135c7.1346,1.4203,13.0925,2.5383,13.0925,2.5383
	c6.6092-0.6725,10.7363-4.7456,14.0955-11.7727c4.3237-9.0446,0.1058-28.265-21.8106-33.2141L37.3472,180.8422z"/>
<path class="st4" d="M79.8192,205.5434c0.8415-17.2178-11.2202-30.9805-30.9896-39.1238
	c-14.8261-6.1039-21.5702-10.5805-21.1029-20.1459c0.4201-8.6066,7.7243-15.6141,20.1936-15.3123
	c10.7898,0.2638,18.9951,4.2944,23.4109,7.2725l6.0228-15.1795c-6.2861-3.9823-16.4349-7.58-28.1845-7.8663
	c-8.6416-0.2092-16.1884,1.4502-22.4049,4.4807l-10.5282,50.3153c4.7112,4.6456,11.9382,8.7871,21.1105,10.8593
	c21.9163,4.9491,26.1343,24.1696,21.8111,33.2142c-3.3592,7.0276-7.4863,11.1001-14.0955,11.7727l0.4915,0.1236l21.0001,2.601
	l4.6945,0.7536l-4.6933-0.7547c8.3979-5.9682,12.7446-12.3624,13.2642-23.0102L79.8192,205.5434z"/>
<path class="st5" d="M115.0366,104.9565l-10.3051-29.1238c-0.672-2.2958-1.3605-3.4391-2.7085-3.9455l-32.2255-6.0619
	c-3.535-0.6881-7.9306-1.5319-10.116-1.9032h-0.0005c-0.7748-0.1311-1.2749-0.2046-1.3547-0.1891
	c-1.4542,0.1667-2.4825,0.7461-3.9983,2.5384L33.5475,89.347c-0.1068,0.1161-0.1959,0.2121-0.2656,0.2857
	c-0.0568,0.0661-0.1138,0.1334-0.1793,0.1857c0,0-0.0109,0.05-0.0258,0.1224l-0.0449,0.2109
	c-0.031,0.1471-0.0724,0.3391-0.1219,0.5748l-0.1179,0.553l-0.2477,1.1674l-0.0414,0.1972l-0.3328,1.5669l-0.1507,0.7087
	c-0.7266,3.4247-1.6537,7.7887-2.2343,10.5253l-0.0424,0.1989c-0.1391,0.6564-0.2552,1.2025-0.3421,1.6124
	c-0.0477,0.2248-0.0863,0.407-0.1144,0.5403c-0.0242,0.1138-0.0414,0.1943-0.0495,0.2316
	c-0.0005,0.0035-0.0028,0.0132-0.0035,0.0161l-2.4671,11.6238c6.2166-3.031,13.7633-4.6899,22.4049-4.4807
	c11.7491,0.2862,21.8984,3.884,28.1845,7.8663l-6.0228,15.1796c-4.4156-2.9775-12.6222-7.0092-23.4114-7.2725
	c-12.4694-0.3018-19.7745,6.7057-20.1943,15.3123c-0.4673,9.566,6.277,14.042,21.1029,20.1459
	c19.7694,8.1433,31.8311,21.9059,30.9896,39.1237c-0.5196,10.6478-4.8663,17.0419-13.2654,23.0101l4.6933,0.7553l13.1521,2.1153
	c0.0409,0.0086,0.0798,0.0086,0.1212,0.0161l0.4363,0.0701c0.0805,0.0098,0.1777,0.0126,0.2696,0.0178
	c0.0023,0,0.004,0.0006,0.004,0.0006c0.2075,0.0121,0.4294,0.015,0.6743-0.0074c0.0104-0.0011,0.0212-0.0029,0.0316-0.004
	c0.2063-0.0196,0.4042-0.0564,0.5955-0.1035c0.0414-0.0103,0.0823-0.0201,0.1237-0.0328c0.1489-0.0414,0.2898-0.096,0.4264-0.1541
	c0.1247-0.0546,0.2466-0.1167,0.3656-0.1897c0.027-0.0161,0.0546-0.0322,0.0805-0.0494c0.5948-0.3759,1.025-0.9249,1.1749-1.6359
	l5.8574-27.5994c0.0202-0.0856,0.0419-0.1776,0.0616-0.261l0.2138-1.0387c0,0-0.0258-0.0339-0.0621-0.081
	c-0.0568-0.0736-0.1581-0.2035-0.2833-0.3661l-2.7051-3.4902l4.3353-2.1113l17.554-82.7081
	c0.2277-1.0743,0.6312-2.916,0.9215-4.3421l0.4017-1.8928l0.0833-0.2799L115.0366,104.9565z M84.5677,81.2042
	c-0.3472,3.9334-3.8195,6.8494-7.7524,6.5126c-3.9357-0.3357-6.8413-3.7983-6.4954-7.7283c0.3494-3.9351,3.8167-6.8517,7.7501-6.516
	C82.0088,73.8105,84.9161,77.2697,84.5677,81.2042z"/>
<path class="st5" d="M78.0712,73.4731c-3.9334-0.3363-7.4007,2.5809-7.7501,6.516c-0.3461,3.93,2.559,7.3926,6.4954,7.7283
	c3.9329,0.3363,7.4047-2.5797,7.7524-6.5126C84.9159,77.2697,82.0086,73.8105,78.0712,73.4731z M81.593,80.9513
	c-0.2047,2.2912-2.2257,3.9921-4.5168,3.7966c-2.2901-0.1966-3.9846-2.213-3.7794-4.5031c0.2012-2.2917,2.2222-3.9915,4.5123-3.7949
	C80.1002,76.646,81.7954,78.6601,81.593,80.9513z"/>
<path class="st6" d="M78.0712,73.4731c-3.9334-0.3363-7.4007,2.5809-7.7501,6.516c-0.3461,3.93,2.559,7.3926,6.4954,7.7283
	c3.9329,0.3363,7.4047-2.5797,7.7524-6.5126C84.9159,77.2697,82.0086,73.8105,78.0712,73.4731z M81.593,80.9513
	c-0.2047,2.2912-2.2257,3.9921-4.5168,3.7966c-2.2901-0.1966-3.9846-2.213-3.7794-4.5031c0.2012-2.2917,2.2222-3.9915,4.5123-3.7949
	C80.1002,76.646,81.7954,78.6601,81.593,80.9513z"/>
<path class="st7" d="M82.8841,64.8395c-4.8296-0.2426-6.773,2.1417-6.773,2.1417l1.9687,0.3673
	c0.7369-0.4334,2.4464-1.4715,5.309-0.8708c1.6595,0.3478,3.1144,0.676,4.4116,2.7712l2.1424,0.3138
	C88.9334,66.6599,86.46,65.1165,82.8841,64.8395"/>
<path class="st8" d="M79.2559,82.3125l-0.1944-0.0891c-0.3605-0.2299-0.4494-0.7013-0.1863-1.053
	c1.23-1.6681,5.6849-10.1339,5.7342-10.2178l0.1982-0.2546c3.0286-2.4757,22.6755-31.5742,21.284-41.5903
	c-0.2644-1.9112-1.2704-3.1902-3.0637-3.9081c-2.1061-0.8266-4.0071-0.8289-5.7797,0.0098
	c-6.0624,2.8815-9.7994,21.0845-12.9562,31.8933c-1.3191,4.5249-2.5643,8.798-3.9397,12.3061
	c-1.9682,6.4672-3.0172,11.2818-3.0253,11.3266c-0.0891,0.4144-0.5127,0.6955-0.9536,0.6294
	c-0.4201-0.0603-0.7225-0.4616-0.6322-0.8743c0.0126-0.0494,1.0709-4.9117,3.0752-11.5002
	c1.3739-3.5023,2.609-7.7455,3.9173-12.2342c3.4085-11.6715,7.0942-29.6958,13.8368-32.8969
	c2.1924-1.041,4.5905-1.0599,7.1323-0.0655c2.3125,0.922,3.6494,2.6228,3.992,5.056c1.5468,11.1151-18.6336,40.132-21.7186,42.8635
	c-0.6006,1.1462-4.5582,8.6267-5.7895,10.2914c-0.2116,0.2914-0.6006,0.4075-0.9311,0.3081"/>
</svg>
